testbench/convolver/wave.vcd
$date
	Thu Nov 14 15:40:32 2024
$end
$version
	Icarus Verilog
$end
$timescale
	1ps
$end
$scope module convolver_tb $end
$var wire 1 ! valid_conv $end
$var wire 1 " end_conv $end
$var wire 16 # conv_op [15:0] $end
$var parameter 32 $ clkp $end
$var reg 16 % activation [15:0] $end
$var reg 1 & ce $end
$var reg 1 ' clk $end
$var reg 1 ( global_rst $end
$var reg 144 ) weight [143:0] $end
$var integer 32 * i [31:0] $end
$scope module uut $end
$var wire 16 + activation [15:0] $end
$var wire 1 & ce $end
$var wire 1 ' clk $end
$var wire 1 ( global_rst $end
$var wire 144 , weight [143:0] $end
$var wire 16 - conv_op [15:0] $end
$var parameter 32 . N $end
$var parameter 32 / Q $end
$var parameter 9 0 k $end
$var parameter 9 1 n $end
$var parameter 32 2 s $end
$var reg 3 3 col_counter [2:0] $end
$var reg 5 4 cycle_counter [4:0] $end
$var reg 1 " end_conv $end
$var reg 3 5 row_counter [2:0] $end
$var reg 1 ! valid_conv $end
$scope begin genblk1[0] $end
$var parameter 2 6 j $end
$upscope $end
$scope begin genblk1[1] $end
$var parameter 2 7 j $end
$upscope $end
$scope begin genblk1[2] $end
$var parameter 3 8 j $end
$upscope $end
$scope begin genblk1[3] $end
$var parameter 3 9 j $end
$upscope $end
$scope begin genblk1[4] $end
$var parameter 4 : j $end
$upscope $end
$scope begin genblk1[5] $end
$var parameter 4 ; j $end
$upscope $end
$scope begin genblk1[6] $end
$var parameter 4 < j $end
$upscope $end
$scope begin genblk1[7] $end
$var parameter 4 = j $end
$upscope $end
$scope begin genblk1[8] $end
$var parameter 5 > j $end
$upscope $end
$scope begin genblk2[0] $end
$var parameter 2 ? i $end
$scope begin genblk1 $end
$scope module mac $end
$var wire 16 @ a [15:0] $end
$var wire 16 A b [15:0] $end
$var wire 1 & ce $end
$var wire 1 ' clk $end
$var wire 1 ( rst $end
$var wire 16 B sum [15:0] $end
$var parameter 32 C N $end
$var parameter 32 D Q $end
$var reg 16 E data_out [15:0] $end
$upscope $end
$upscope $end
$upscope $end
$scope begin genblk2[1] $end
$var parameter 2 F i $end
$scope begin genblk1 $end
$scope module mac $end
$var wire 16 G a [15:0] $end
$var wire 16 H b [15:0] $end
$var wire 1 & ce $end
$var wire 1 ' clk $end
$var wire 1 ( rst $end
$var wire 16 I sum [15:0] $end
$var parameter 32 J N $end
$var parameter 32 K Q $end
$var reg 16 L data_out [15:0] $end
$upscope $end
$upscope $end
$upscope $end
$scope begin genblk2[2] $end
$var parameter 3 M i $end
$scope begin genblk1 $end
$scope begin genblk1 $end
$var wire 16 N tmp2 [15:0] $end
$scope module SR $end
$var wire 1 & ce $end
$var wire 1 ' clk $end
$var wire 16 O data_out [15:0] $end
$var wire 1 ( rst $end
$var wire 16 P data_in [15:0] $end
$var parameter 32 Q N $end
$var parameter 10 R size $end
$scope begin genblk1[0] $end
$var parameter 2 S l $end
$upscope $end
$upscope $end
$scope module mac $end
$var wire 16 T a [15:0] $end
$var wire 16 U b [15:0] $end
$var wire 1 & ce $end
$var wire 1 ' clk $end
$var wire 1 ( rst $end
$var wire 16 V sum [15:0] $end
$var parameter 32 W N $end
$var parameter 32 X Q $end
$var reg 16 Y data_out [15:0] $end
$upscope $end
$upscope $end
$upscope $end
$upscope $end
$scope begin genblk2[3] $end
$var parameter 3 Z i $end
$scope begin genblk1 $end
$scope module mac $end
$var wire 16 [ a [15:0] $end
$var wire 16 \ b [15:0] $end
$var wire 1 & ce $end
$var wire 1 ' clk $end
$var wire 1 ( rst $end
$var wire 16 ] sum [15:0] $end
$var parameter 32 ^ N $end
$var parameter 32 _ Q $end
$var reg 16 ` data_out [15:0] $end
$upscope $end
$upscope $end
$upscope $end
$scope begin genblk2[4] $end
$var parameter 4 a i $end
$scope begin genblk1 $end
$scope module mac $end
$var wire 16 b a [15:0] $end
$var wire 16 c b [15:0] $end
$var wire 1 & ce $end
$var wire 1 ' clk $end
$var wire 1 ( rst $end
$var wire 16 d sum [15:0] $end
$var parameter 32 e N $end
$var parameter 32 f Q $end
$var reg 16 g data_out [15:0] $end
$upscope $end
$upscope $end
$upscope $end
$scope begin genblk2[5] $end
$var parameter 4 h i $end
$scope begin genblk1 $end
$scope begin genblk1 $end
$var wire 16 i tmp2 [15:0] $end
$scope module SR $end
$var wire 1 & ce $end
$var wire 1 ' clk $end
$var wire 16 j data_out [15:0] $end
$var wire 1 ( rst $end
$var wire 16 k data_in [15:0] $end
$var parameter 32 l N $end
$var parameter 10 m size $end
$scope begin genblk1[0] $end
$var parameter 2 n l $end
$upscope $end
$upscope $end
$scope module mac $end
$var wire 16 o a [15:0] $end
$var wire 16 p b [15:0] $end
$var wire 1 & ce $end
$var wire 1 ' clk $end
$var wire 1 ( rst $end
$var wire 16 q sum [15:0] $end
$var parameter 32 r N $end
$var parameter 32 s Q $end
$var reg 16 t data_out [15:0] $end
$upscope $end
$upscope $end
$upscope $end
$upscope $end
$scope begin genblk2[6] $end
$var parameter 4 u i $end
$scope begin genblk1 $end
$scope module mac $end
$var wire 16 v a [15:0] $end
$var wire 16 w b [15:0] $end
$var wire 1 & ce $end
$var wire 1 ' clk $end
$var wire 1 ( rst $end
$var wire 16 x sum [15:0] $end
$var parameter 32 y N $end
$var parameter 32 z Q $end
$var reg 16 { data_out [15:0] $end
$upscope $end
$upscope $end
$upscope $end
$scope begin genblk2[7] $end
$var parameter 4 | i $end
$scope begin genblk1 $end
$scope module mac $end
$var wire 16 } a [15:0] $end
$var wire 16 ~ b [15:0] $end
$var wire 1 & ce $end
$var wire 1 ' clk $end
$var wire 1 ( rst $end
$var wire 16 !" sum [15:0] $end
$var parameter 32 "" N $end
$var parameter 32 #" Q $end
$var reg 16 $" data_out [15:0] $end
$upscope $end
$upscope $end
$upscope $end
$scope begin genblk2[8] $end
$var parameter 5 %" i $end
$scope begin genblk1 $end
$scope begin genblk1 $end
$scope module mac $end
$var wire 16 &" a [15:0] $end
$var wire 16 '" b [15:0] $end
$var wire 1 & ce $end
$var wire 1 ' clk $end
$var wire 1 ( rst $end
$var wire 16 (" sum [15:0] $end
$var parameter 32 )" N $end
$var parameter 32 *" Q $end
$var reg 16 +" data_out [15:0] $end
$upscope $end
$upscope $end
$upscope $end
$upscope $end
$upscope $end
$upscope $end
$enddefinitions $end
$comment Show the parameter values. $end
$dumpall
b1100 *"
b10000 )"
b1000 %"
b1100 #"
b10000 ""
b111 |
b1100 z
b10000 y
b110 u
b1100 s
b10000 r
b0 n
b1 m
b10000 l
b101 h
b1100 f
b10000 e
b100 a
b1100 _
b10000 ^
b11 Z
b1100 X
b10000 W
b0 S
b1 R
b10000 Q
b10 M
b1100 K
b10000 J
b1 F
b1100 D
b10000 C
b0 ?
b1000 >
b111 =
b110 <
b101 ;
b100 :
b11 9
b10 8
b1 7
b0 6
b1 2
b100 1
b11 0
b1100 /
b10000 .
b101000 $
$end
#0
$dumpvars
bx +"
bx ("
b0 '"
b0 &"
bx $"
bx !"
b0 ~
b0 }
bx {
bx x
b0 w
b0 v
bx t
bx q
b0 p
b0 o
bx k
bx j
bx i
bx g
bx d
b0 c
b0 b
bx `
bx ]
b0 \
b0 [
bx Y
bx V
b0 U
b0 T
bx P
bx O
bx N
bx L
bx I
b0 H
b0 G
bx E
b0 B
b0 A
b0 @
b0 5
b0 4
b0 3
bx -
b0 ,
b0 +
bx *
b0 )
0(
0'
0&
b0 %
bx #
x"
x!
$end
#20000
0"
1'
#40000
0'
#60000
1'
#80000
0'
#100000
b0 E
b0 I
b0 L
b0 V
b0 N
b0 P
b0 Y
b0 O
b0 ]
b0 `
b0 d
b0 g
b0 q
b0 i
b0 k
b0 t
b0 j
b0 x
b0 {
b0 !"
b0 $"
b0 ("
b0 #
b0 -
b0 +"
0!
1'
1(
#120000
0'
#140000
1'
#150000
0(
#160000
b1 H
b10 U
b11 \
b100 c
b101 p
b110 w
b111 ~
b1000 '"
b0 *
b100000000000000001110000000000000110000000000000010100000000000001000000000000000011000000000000001000000000000000010000000000000000 )
b100000000000000001110000000000000110000000000000010100000000000001000000000000000011000000000000001000000000000000010000000000000000 ,
1&
0'
#180000
b1 4
b1 3
1'
#200000
0'
b1 %
b1 +
b1 @
b1 G
b1 T
b1 [
b1 b
b1 o
b1 v
b1 }
b1 &"
b1 *
#220000
b1000 #
b1000 -
b1000 +"
b111 $"
b111 ("
b110 {
b110 !"
b101 i
b101 k
b101 t
b100 g
b100 q
b11 `
b11 d
b10 N
b10 P
b10 Y
b1 L
b1 V
b10 4
b10 3
1'
#240000
0'
b10 %
b10 +
b10 @
b10 G
b10 T
b10 [
b10 b
b10 o
b10 v
b10 }
b10 &"
b10 *
#260000
b10 L
b10 V
b101 N
b101 P
b101 Y
b10 O
b10 ]
b110 `
b110 d
b1011 g
b1011 q
b1110 i
b1110 k
b1110 t
b101 j
b101 x
b1100 {
b1100 !"
b10100 $"
b10100 ("
b10111 #
b10111 -
b10111 +"
b11 4
b11 3
1'
#280000
0'
b11 %
b11 +
b11 @
b11 G
b11 T
b11 [
b11 b
b11 o
b11 v
b11 }
b11 &"
b11 *
#300000
b101100 #
b101100 -
b101100 +"
b100001 $"
b100001 ("
b10111 {
b10111 !"
b1110 j
b1110 x
b11010 i
b11010 k
b11010 t
b10010 g
b10010 q
b1011 `
b1011 d
b101 O
b101 ]
b1000 N
b1000 P
b1000 Y
b11 L
b11 V
b100 4
b1 5
b0 3
1'
#320000
0'
b100 %
b100 +
b100 @
b100 G
b100 T
b100 [
b100 b
b100 o
b100 v
b100 }
b100 &"
b100 *
#340000
b100 L
b100 V
b1011 N
b1011 P
b1011 Y
b1000 O
b1000 ]
b10001 `
b10001 d
b11011 g
b11011 q
b100110 i
b100110 k
b100110 t
b11010 j
b11010 x
b100110 {
b100110 !"
b110011 $"
b110011 ("
b1000001 #
b1000001 -
b1000001 +"
b101 4
b1 3
1'
#360000
0'
b101 %
b101 +
b101 @
b101 G
b101 T
b101 [
b101 b
b101 o
b101 v
b101 }
b101 &"
b101 *
#380000
b1011011 #
b1011011 -
b1011011 +"
b1001001 $"
b1001001 ("
b111000 {
b111000 !"
b100110 j
b100110 x
b110100 i
b110100 k
b110100 t
b100101 g
b100101 q
b10111 `
b10111 d
b1011 O
b1011 ]
b1110 N
b1110 P
b1110 Y
b101 L
b101 V
b110 4
b10 3
1'
#400000
0'
b110 %
b110 +
b110 @
b110 G
b110 T
b110 [
b110 b
b110 o
b110 v
b110 }
b110 &"
b110 *
#420000
b110 L
b110 V
b10001 N
b10001 P
b10001 Y
b1110 O
b1110 ]
b11101 `
b11101 d
b101111 g
b101111 q
b1000011 i
b1000011 k
b1000011 t
b110100 j
b110100 x
b1001010 {
b1001010 !"
b1100010 $"
b1100010 ("
b1111001 #
b1111001 -
b1111001 +"
b111 4
b11 3
1'
#440000
0'
b111 %
b111 +
b111 @
b111 G
b111 T
b111 [
b111 b
b111 o
b111 v
b111 }
b111 &"
b111 *
#460000
b10011010 #
b10011010 -
b10011010 +"
b1111011 $"
b1111011 ("
b1011110 {
b1011110 !"
b1000011 j
b1000011 x
b1010010 i
b1010010 k
b1010010 t
b111001 g
b111001 q
b100011 `
b100011 d
b10001 O
b10001 ]
b10100 N
b10100 P
b10100 Y
b111 L
b111 V
b1000 4
b10 5
b0 3
1'
#480000
0'
b1000 %
b1000 +
b1000 @
b1000 G
b1000 T
b1000 [
b1000 b
b1000 o
b1000 v
b1000 }
b1000 &"
b1000 *
#500000
b1000 L
b1000 V
b10111 N
b10111 P
b10111 Y
b10100 O
b10100 ]
b101001 `
b101001 d
b1000011 g
b1000011 q
b1100001 i
b1100001 k
b1100001 t
b1010010 j
b1010010 x
b1110011 {
b1110011 !"
b10010110 $"
b10010110 ("
b10111011 #
b10111011 -
b10111011 +"
b1001 4
b1 3
1'
#520000
0'
b1001 %
b1001 +
b1001 @
b1001 G
b1001 T
b1001 [
b1001 b
b1001 o
b1001 v
b1001 }
b1001 &"
b1001 *
#540000
b11011110 #
b11011110 -
b11011110 +"
b10110010 $"
b10110010 ("
b10001000 {
b10001000 !"
b1100001 j
b1100001 x
b1110000 i
b1110000 k
b1110000 t
b1001101 g
b1001101 q
b101111 `
b101111 d
b10111 O
b10111 ]
b11010 N
b11010 P
b11010 Y
b1001 L
b1001 V
b1010 4
b10 3
1'
#560000
0'
b1010 %
b1010 +
b1010 @
b1010 G
b1010 T
b1010 [
b1010 b
b1010 o
b1010 v
b1010 }
b1010 &"
b1010 *
#580000
b1010 L
b1010 V
b11101 N
b11101 P
b11101 Y
b11010 O
b11010 ]
b110101 `
b110101 d
b1010111 g
b1010111 q
b1111111 i
b1111111 k
b1111111 t
b1110000 j
b1110000 x
b10011101 {
b10011101 !"
b11001110 $"
b11001110 ("
b100000010 #
b100000010 -
b100000010 +"
b1011 4
b11 3
1!
1'
#600000
0'
b1011 %
b1011 +
b1011 @
b1011 G
b1011 T
b1011 [
b1011 b
b1011 o
b1011 v
b1011 }
b1011 &"
b1011 *
#620000
b100100110 #
b100100110 -
b100100110 +"
b11101010 $"
b11101010 ("
b10110010 {
b10110010 !"
b1111111 j
b1111111 x
b10001110 i
b10001110 k
b10001110 t
b1100001 g
b1100001 q
b111011 `
b111011 d
b11101 O
b11101 ]
b100000 N
b100000 P
b100000 Y
b1011 L
b1011 V
b1100 4
b11 5
b0 3
1'
#640000
0'
b1100 %
b1100 +
b1100 @
b1100 G
b1100 T
b1100 [
b1100 b
b1100 o
b1100 v
b1100 }
b1100 &"
b1100 *
#660000
b1100 L
b1100 V
b100011 N
b100011 P
b100011 Y
b100000 O
b100000 ]
b1000001 `
b1000001 d
b1101011 g
b1101011 q
b10011101 i
b10011101 k
b10011101 t
b10001110 j
b10001110 x
b11000111 {
b11000111 !"
b100000110 $"
b100000110 ("
b101001010 #
b101001010 -
b101001010 +"
b1101 4
b1 3
0!
1'
#680000
0'
b1101 %
b1101 +
b1101 @
b1101 G
b1101 T
b1101 [
b1101 b
b1101 o
b1101 v
b1101 }
b1101 &"
b1101 *
#700000
b101101110 #
b101101110 -
b101101110 +"
b100100010 $"
b100100010 ("
b11011100 {
b11011100 !"
b10011101 j
b10011101 x
b10101100 i
b10101100 k
b10101100 t
b1110101 g
b1110101 q
b1000111 `
b1000111 d
b100011 O
b100011 ]
b100110 N
b100110 P
b100110 Y
b1101 L
b1101 V
b1110 4
b10 3
1'
#720000
0'
b1110 %
b1110 +
b1110 @
b1110 G
b1110 T
b1110 [
b1110 b
b1110 o
b1110 v
b1110 }
b1110 &"
b1110 *
#740000
b1110 L
b1110 V
b101001 N
b101001 P
b101001 Y
b100110 O
b100110 ]
b1001101 `
b1001101 d
b1111111 g
b1111111 q
b10111011 i
b10111011 k
b10111011 t
b10101100 j
b10101100 x
b11110001 {
b11110001 !"
b100111110 $"
b100111110 ("
b110010010 #
b110010010 -
b110010010 +"
b1111 4
b11 3
1!
1'
#760000
0'
b1111 %
b1111 +
b1111 @
b1111 G
b1111 T
b1111 [
b1111 b
b1111 o
b1111 v
b1111 }
b1111 &"
b1111 *
#780000
b110110110 #
b110110110 -
b110110110 +"
b101011010 $"
b101011010 ("
b100000110 {
b100000110 !"
b10111011 j
b10111011 x
b11001010 i
b11001010 k
b11001010 t
b10001001 g
b10001001 q
b1010011 `
b1010011 d
b101001 O
b101001 ]
b101100 N
b101100 P
b101100 Y
b1111 L
b1111 V
b10000 4
b0 5
b0 3
1'
#800000
0'
b10000 %
b10000 +
b10000 @
b10000 G
b10000 T
b10000 [
b10000 b
b10000 o
b10000 v
b10000 }
b10000 &"
b10000 *
#820000
b10000 L
b10000 V
b101111 N
b101111 P
b101111 Y
b101100 O
b101100 ]
b1011001 `
b1011001 d
b10010011 g
b10010011 q
b11011001 i
b11011001 k
b11011001 t
b11001010 j
b11001010 x
b100011011 {
b100011011 !"
b101110110 $"
b101110110 ("
b111011010 #
b111011010 -
b111011010 +"
b10001 4
b1 3
0!
1"
1'
#840000
0'
b10001 %
b10001 +
b10001 @
b10001 G
b10001 T
b10001 [
b10001 b
b10001 o
b10001 v
b10001 }
b10001 &"
b10001 *
#860000
b111111110 #
b111111110 -
b111111110 +"
b110010010 $"
b110010010 ("
b100110000 {
b100110000 !"
b11011001 j
b11011001 x
b11101000 i
b11101000 k
b11101000 t
b10011101 g
b10011101 q
b1011111 `
b1011111 d
b101111 O
b101111 ]
b110010 N
b110010 P
b110010 Y
b10001 L
b10001 V
b10010 4
b10 3
1'
#880000
0'
b10010 %
b10010 +
b10010 @
b10010 G
b10010 T
b10010 [
b10010 b
b10010 o
b10010 v
b10010 }
b10010 &"
b10010 *
#900000
b10010 L
b10010 V
b110101 N
b110101 P
b110101 Y
b110010 O
b110010 ]
b1100101 `
b1100101 d
b10100111 g
b10100111 q
b11110111 i
b11110111 k
b11110111 t
b11101000 j
b11101000 x
b101000101 {
b101000101 !"
b110101110 $"
b110101110 ("
b1000100010 #
b1000100010 -
b1000100010 +"
b10011 4
b11 3
1'
#920000
0'
b10011 %
b10011 +
b10011 @
b10011 G
b10011 T
b10011 [
b10011 b
b10011 o
b10011 v
b10011 }
b10011 &"
b10011 *
#940000
b1001000110 #
b1001000110 -
b1001000110 +"
b111001010 $"
b111001010 ("
b101011010 {
b101011010 !"
b11110111 j
b11110111 x
b100000110 i
b100000110 k
b100000110 t
b10110001 g
b10110001 q
b1101011 `
b1101011 d
b110101 O
b110101 ]
b111000 N
b111000 P
b111000 Y
b10011 L
b10011 V
b10100 4
b1 5
b0 3
1'
#960000
0'
b10100 %
b10100 +
b10100 @
b10100 G
b10100 T
b10100 [
b10100 b
b10100 o
b10100 v
b10100 }
b10100 &"
b10100 *
#980000
b10100 L
b10100 V
b111011 N
b111011 P
b111011 Y
b111000 O
b111000 ]
b1110001 `
b1110001 d
b10111011 g
b10111011 q
b100010101 i
b100010101 k
b100010101 t
b100000110 j
b100000110 x
b101101111 {
b101101111 !"
b111100110 $"
b111100110 ("
b1001101010 #
b1001101010 -
b1001101010 +"
b10101 4
b1 3
1'
#1000000
0'
b10101 %
b10101 +
b10101 @
b10101 G
b10101 T
b10101 [
b10101 b
b10101 o
b10101 v
b10101 }
b10101 &"
b10101 *
#1020000
b1010001110 #
b1010001110 -
b1010001110 +"
b1000000010 $"
b1000000010 ("
b110000100 {
b110000100 !"
b100010101 j
b100010101 x
b100100100 i
b100100100 k
b100100100 t
b11000101 g
b11000101 q
b1110111 `
b1110111 d
b111011 O
b111011 ]
b111110 N
b111110 P
b111110 Y
b10101 L
b10101 V
b10110 4
b10 3
1'
#1040000
0'
b10110 %
b10110 +
b10110 @
b10110 G
b10110 T
b10110 [
b10110 b
b10110 o
b10110 v
b10110 }
b10110 &"
b10110 *
#1060000
b10110 L
b10110 V
b1000001 N
b1000001 P
b1000001 Y
b111110 O
b111110 ]
b1111101 `
b1111101 d
b11001111 g
b11001111 q
b100110011 i
b100110011 k
b100110011 t
b100100100 j
b100100100 x
b110011001 {
b110011001 !"
b1000011110 $"
b1000011110 ("
b1010110010 #
b1010110010 -
b1010110010 +"
b10111 4
b11 3
1'
#1080000
0'
b10111 %
b10111 +
b10111 @
b10111 G
b10111 T
b10111 [
b10111 b
b10111 o
b10111 v
b10111 }
b10111 &"
b10111 *
#1100000
b1011010110 #
b1011010110 -
b1011010110 +"
b1000111010 $"
b1000111010 ("
b110101110 {
b110101110 !"
b100110011 j
b100110011 x
b101000010 i
b101000010 k
b101000010 t
b11011001 g
b11011001 q
b10000011 `
b10000011 d
b1000001 O
b1000001 ]
b1000100 N
b1000100 P
b1000100 Y
b10111 L
b10111 V
b11000 4
b10 5
b0 3
1'
#1120000
0'
b11000 %
b11000 +
b11000 @
b11000 G
b11000 T
b11000 [
b11000 b
b11000 o
b11000 v
b11000 }
b11000 &"
b11000 *
#1140000
b11000 L
b11000 V
b1000111 N
b1000111 P
b1000111 Y
b1000100 O
b1000100 ]
b10001001 `
b10001001 d
b11100011 g
b11100011 q
b101010001 i
b101010001 k
b101010001 t
b101000010 j
b101000010 x
b111000011 {
b111000011 !"
b1001010110 $"
b1001010110 ("
b1011111010 #
b1011111010 -
b1011111010 +"
b11001 4
b1 3
1'
#1160000
0'
b11001 %
b11001 +
b11001 @
b11001 G
b11001 T
b11001 [
b11001 b
b11001 o
b11001 v
b11001 }
b11001 &"
b11001 *
#1180000
b1100011110 #
b1100011110 -
b1100011110 +"
b1001110010 $"
b1001110010 ("
b111011000 {
b111011000 !"
b101010001 j
b101010001 x
b101100000 i
b101100000 k
b101100000 t
b11101101 g
b11101101 q
b10001111 `
b10001111 d
b1000111 O
b1000111 ]
b1001010 N
b1001010 P
b1001010 Y
b11001 L
b11001 V
b11010 4
b10 3
1'
#1200000
0'
b11010 %
b11010 +
b11010 @
b11010 G
b11010 T
b11010 [
b11010 b
b11010 o
b11010 v
b11010 }
b11010 &"
b11010 *
