verification/convolver/wave.vcd
$date
	Sat Nov 30 22:39:07 2024
$end
$version
	Icarus Verilog
$end
$timescale
	1ps
$end
$scope module convolver_tb $end
$var wire 1 ! valid_conv $end
$var wire 1 " end_conv $end
$var wire 16 # conv_op [15:0] $end
$var parameter 32 $ clkp $end
$var reg 16 % bias [15:0] $end
$var reg 1 & ce $end
$var reg 1 ' clk $end
$var reg 1 ( global_rst $end
$var reg 16 ) myInput [15:0] $end
$var reg 144 * weight [143:0] $end
$var integer 32 + i [31:0] $end
$scope module uut $end
$var wire 16 , bias [15:0] $end
$var wire 1 & ce $end
$var wire 1 ' clk $end
$var wire 1 ( global_rst $end
$var wire 16 - myInput [15:0] $end
$var wire 144 . weight [143:0] $end
$var wire 16 / conv_op [15:0] $end
$var parameter 32 0 K $end
$var parameter 32 1 W $end
$var parameter 32 2 dataWidth $end
$var parameter 32 3 s $end
$var reg 6 4 col_counter [5:0] $end
$var reg 11 5 cycle_counter [10:0] $end
$var reg 1 " end_conv $end
$var reg 6 6 row_counter [5:0] $end
$var reg 1 ! valid_conv $end
$scope begin MAC[0] $end
$var parameter 2 7 i $end
$scope begin genblk1 $end
$scope module mac $end
$var wire 16 8 a [15:0] $end
$var wire 16 9 b [15:0] $end
$var wire 1 & ce $end
$var wire 1 ' clk $end
$var wire 1 ( rst $end
$var wire 16 : tmp [15:0] $end
$var parameter 32 ; dataWidth $end
$var parameter 72 < macType $end
$var reg 16 = data_out [15:0] $end
$upscope $end
$upscope $end
$upscope $end
$scope begin MAC[1] $end
$var parameter 2 > i $end
$scope begin genblk1 $end
$scope module mac $end
$var wire 16 ? a [15:0] $end
$var wire 16 @ b [15:0] $end
$var wire 1 & ce $end
$var wire 1 ' clk $end
$var wire 1 ( rst $end
$var wire 16 A tmp [15:0] $end
$var parameter 32 B dataWidth $end
$var parameter 72 C macType $end
$var reg 16 D data_out [15:0] $end
$upscope $end
$upscope $end
$upscope $end
$scope begin MAC[2] $end
$var parameter 3 E i $end
$scope begin genblk1 $end
$scope begin genblk1 $end
$var wire 16 F tmp2 [15:0] $end
$scope module mac $end
$var wire 16 G a [15:0] $end
$var wire 16 H b [15:0] $end
$var wire 1 & ce $end
$var wire 1 ' clk $end
$var wire 1 ( rst $end
$var wire 16 I tmp [15:0] $end
$var parameter 32 J dataWidth $end
$var parameter 72 K macType $end
$var reg 16 L data_out [15:0] $end
$upscope $end
$scope module sr $end
$var wire 1 & ce $end
$var wire 1 ' clk $end
$var wire 16 M data_in [15:0] $end
$var wire 16 N data_out [15:0] $end
$var wire 1 ( rst $end
$var parameter 32 O dataWidth $end
$var parameter 33 P size $end
$scope begin genblk1[0] $end
$var parameter 2 Q l $end
$upscope $end
$scope begin genblk1[1] $end
$var parameter 2 R l $end
$upscope $end
$scope begin genblk1[2] $end
$var parameter 3 S l $end
$upscope $end
$scope begin genblk1[3] $end
$var parameter 3 T l $end
$upscope $end
$scope begin genblk1[4] $end
$var parameter 4 U l $end
$upscope $end
$scope begin genblk1[5] $end
$var parameter 4 V l $end
$upscope $end
$scope begin genblk1[6] $end
$var parameter 4 W l $end
$upscope $end
$scope begin genblk1[7] $end
$var parameter 4 X l $end
$upscope $end
$scope begin genblk1[8] $end
$var parameter 5 Y l $end
$upscope $end
$scope begin genblk1[9] $end
$var parameter 5 Z l $end
$upscope $end
$scope begin genblk1[10] $end
$var parameter 5 [ l $end
$upscope $end
$scope begin genblk1[11] $end
$var parameter 5 \ l $end
$upscope $end
$scope begin genblk1[12] $end
$var parameter 5 ] l $end
$upscope $end
$scope begin genblk1[13] $end
$var parameter 5 ^ l $end
$upscope $end
$scope begin genblk1[14] $end
$var parameter 5 _ l $end
$upscope $end
$scope begin genblk1[15] $end
$var parameter 5 ` l $end
$upscope $end
$scope begin genblk1[16] $end
$var parameter 6 a l $end
$upscope $end
$scope begin genblk1[17] $end
$var parameter 6 b l $end
$upscope $end
$scope begin genblk1[18] $end
$var parameter 6 c l $end
$upscope $end
$scope begin genblk1[19] $end
$var parameter 6 d l $end
$upscope $end
$scope begin genblk1[20] $end
$var parameter 6 e l $end
$upscope $end
$scope begin genblk1[21] $end
$var parameter 6 f l $end
$upscope $end
$scope begin genblk1[22] $end
$var parameter 6 g l $end
$upscope $end
$scope begin genblk1[23] $end
$var parameter 6 h l $end
$upscope $end
$scope begin genblk1[24] $end
$var parameter 6 i l $end
$upscope $end
$upscope $end
$upscope $end
$upscope $end
$upscope $end
$scope begin MAC[3] $end
$var parameter 3 j i $end
$scope begin genblk1 $end
$scope module mac $end
$var wire 16 k a [15:0] $end
$var wire 16 l b [15:0] $end
$var wire 1 & ce $end
$var wire 1 ' clk $end
$var wire 1 ( rst $end
$var wire 16 m tmp [15:0] $end
$var parameter 32 n dataWidth $end
$var parameter 72 o macType $end
$var reg 16 p data_out [15:0] $end
$upscope $end
$upscope $end
$upscope $end
$scope begin MAC[4] $end
$var parameter 4 q i $end
$scope begin genblk1 $end
$scope module mac $end
$var wire 16 r a [15:0] $end
$var wire 16 s b [15:0] $end
$var wire 1 & ce $end
$var wire 1 ' clk $end
$var wire 1 ( rst $end
$var wire 16 t tmp [15:0] $end
$var parameter 32 u dataWidth $end
$var parameter 72 v macType $end
$var reg 16 w data_out [15:0] $end
$upscope $end
$upscope $end
$upscope $end
$scope begin MAC[5] $end
$var parameter 4 x i $end
$scope begin genblk1 $end
$scope begin genblk1 $end
$var wire 16 y tmp2 [15:0] $end
$scope module mac $end
$var wire 16 z a [15:0] $end
$var wire 16 { b [15:0] $end
$var wire 1 & ce $end
$var wire 1 ' clk $end
$var wire 1 ( rst $end
$var wire 16 | tmp [15:0] $end
$var parameter 32 } dataWidth $end
$var parameter 72 ~ macType $end
$var reg 16 !" data_out [15:0] $end
$upscope $end
$scope module sr $end
$var wire 1 & ce $end
$var wire 1 ' clk $end
$var wire 16 "" data_in [15:0] $end
$var wire 16 #" data_out [15:0] $end
$var wire 1 ( rst $end
$var parameter 32 $" dataWidth $end
$var parameter 33 %" size $end
$scope begin genblk1[0] $end
$var parameter 2 &" l $end
$upscope $end
$scope begin genblk1[1] $end
$var parameter 2 '" l $end
$upscope $end
$scope begin genblk1[2] $end
$var parameter 3 (" l $end
$upscope $end
$scope begin genblk1[3] $end
$var parameter 3 )" l $end
$upscope $end
$scope begin genblk1[4] $end
$var parameter 4 *" l $end
$upscope $end
$scope begin genblk1[5] $end
$var parameter 4 +" l $end
$upscope $end
$scope begin genblk1[6] $end
$var parameter 4 ," l $end
$upscope $end
$scope begin genblk1[7] $end
$var parameter 4 -" l $end
$upscope $end
$scope begin genblk1[8] $end
$var parameter 5 ." l $end
$upscope $end
$scope begin genblk1[9] $end
$var parameter 5 /" l $end
$upscope $end
$scope begin genblk1[10] $end
$var parameter 5 0" l $end
$upscope $end
$scope begin genblk1[11] $end
$var parameter 5 1" l $end
$upscope $end
$scope begin genblk1[12] $end
$var parameter 5 2" l $end
$upscope $end
$scope begin genblk1[13] $end
$var parameter 5 3" l $end
$upscope $end
$scope begin genblk1[14] $end
$var parameter 5 4" l $end
$upscope $end
$scope begin genblk1[15] $end
$var parameter 5 5" l $end
$upscope $end
$scope begin genblk1[16] $end
$var parameter 6 6" l $end
$upscope $end
$scope begin genblk1[17] $end
$var parameter 6 7" l $end
$upscope $end
$scope begin genblk1[18] $end
$var parameter 6 8" l $end
$upscope $end
$scope begin genblk1[19] $end
$var parameter 6 9" l $end
$upscope $end
$scope begin genblk1[20] $end
$var parameter 6 :" l $end
$upscope $end
$scope begin genblk1[21] $end
$var parameter 6 ;" l $end
$upscope $end
$scope begin genblk1[22] $end
$var parameter 6 <" l $end
$upscope $end
$scope begin genblk1[23] $end
$var parameter 6 =" l $end
$upscope $end
$scope begin genblk1[24] $end
$var parameter 6 >" l $end
$upscope $end
$upscope $end
$upscope $end
$upscope $end
$upscope $end
$scope begin MAC[6] $end
$var parameter 4 ?" i $end
$scope begin genblk1 $end
$scope module mac $end
$var wire 16 @" a [15:0] $end
$var wire 16 A" b [15:0] $end
$var wire 1 & ce $end
$var wire 1 ' clk $end
$var wire 1 ( rst $end
$var wire 16 B" tmp [15:0] $end
$var parameter 32 C" dataWidth $end
$var parameter 72 D" macType $end
$var reg 16 E" data_out [15:0] $end
$upscope $end
$upscope $end
$upscope $end
$scope begin MAC[7] $end
$var parameter 4 F" i $end
$scope begin genblk1 $end
$scope module mac $end
$var wire 16 G" a [15:0] $end
$var wire 16 H" b [15:0] $end
$var wire 1 & ce $end
$var wire 1 ' clk $end
$var wire 1 ( rst $end
$var wire 16 I" tmp [15:0] $end
$var parameter 32 J" dataWidth $end
$var parameter 72 K" macType $end
$var reg 16 L" data_out [15:0] $end
$upscope $end
$upscope $end
$upscope $end
$scope begin MAC[8] $end
$var parameter 5 M" i $end
$scope begin genblk1 $end
$scope begin genblk1 $end
$scope module mac $end
$var wire 16 N" a [15:0] $end
$var wire 16 O" b [15:0] $end
$var wire 1 & ce $end
$var wire 1 ' clk $end
$var wire 1 ( rst $end
$var wire 16 P" tmp [15:0] $end
$var parameter 32 Q" dataWidth $end
$var parameter 72 R" macType $end
$var reg 16 S" data_out [15:0] $end
$upscope $end
$upscope $end
$upscope $end
$upscope $end
$scope begin genblk1[0] $end
$var parameter 2 T" j $end
$upscope $end
$scope begin genblk1[1] $end
$var parameter 2 U" j $end
$upscope $end
$scope begin genblk1[2] $end
$var parameter 3 V" j $end
$upscope $end
$scope begin genblk1[3] $end
$var parameter 3 W" j $end
$upscope $end
$scope begin genblk1[4] $end
$var parameter 4 X" j $end
$upscope $end
$scope begin genblk1[5] $end
$var parameter 4 Y" j $end
$upscope $end
$scope begin genblk1[6] $end
$var parameter 4 Z" j $end
$upscope $end
$scope begin genblk1[7] $end
$var parameter 4 [" j $end
$upscope $end
$scope begin genblk1[8] $end
$var parameter 5 \" j $end
$upscope $end
$upscope $end
$upscope $end
$enddefinitions $end
$comment Show the parameter values. $end
$dumpall
b1000 \"
b111 ["
b110 Z"
b101 Y"
b100 X"
b11 W"
b10 V"
b1 U"
b0 T"
b11011100110111101110010011011010110000101101100010011010110000101100011 R"
b10000 Q"
b1000 M"
b11011100110111101110010011011010110000101101100010011010110000101100011 K"
b10000 J"
b111 F"
b11011100110111101110010011011010110000101101100010011010110000101100011 D"
b10000 C"
b110 ?"
b11000 >"
b10111 ="
b10110 <"
b10101 ;"
b10100 :"
b10011 9"
b10010 8"
b10001 7"
b10000 6"
b1111 5"
b1110 4"
b1101 3"
b1100 2"
b1011 1"
b1010 0"
b1001 /"
b1000 ."
b111 -"
b110 ,"
b101 +"
b100 *"
b11 )"
b10 ("
b1 '"
b0 &"
b11001 %"
b10000 $"
b11011100110111101110010011011010110000101101100010011010110000101100011 ~
b10000 }
b101 x
b11011100110111101110010011011010110000101101100010011010110000101100011 v
b10000 u
b100 q
b11011100110111101110010011011010110000101101100010011010110000101100011 o
b10000 n
b11 j
b11000 i
b10111 h
b10110 g
b10101 f
b10100 e
b10011 d
b10010 c
b10001 b
b10000 a
b1111 `
b1110 _
b1101 ^
b1100 ]
b1011 \
b1010 [
b1001 Z
b1000 Y
b111 X
b110 W
b101 V
b100 U
b11 T
b10 S
b1 R
b0 Q
b11001 P
b10000 O
b11011100110111101110010011011010110000101101100010011010110000101100011 K
b10000 J
b10 E
b11011100110111101110010011011010110000101101100010011010110000101100011 C
b10000 B
b1 >
b11011100110111101110010011011010110000101101100010011010110000101100011 <
b10000 ;
b0 7
b1 3
b10000 2
b11100 1
b11 0
b101000 $
$end
#0
$dumpvars
b0 S"
b0 P"
b0 O"
b0 N"
b0 L"
b0 I"
b0 H"
b0 G"
b0 E"
b0 B"
b0 A"
b0 @"
b0 #"
b0 ""
b0 !"
b0 |
b0 {
b0 z
b0 y
b0 w
b0 t
b0 s
b0 r
b0 p
b0 m
b0 l
b0 k
b0 N
b0 M
b0 L
b0 I
b0 H
b0 G
b0 F
b0 D
b0 A
b0 @
b0 ?
b0 =
b0 :
b0 9
b0 8
b0 6
b0 5
b0 4
b0 /
b0 .
b0 -
b0 ,
bx +
b0 *
b0 )
0(
0'
0&
b0 %
b0 #
0"
0!
$end
#20000
1'
#40000
0'
1(
#60000
b1 5
b1 4
b1 @
b10 H
b11 l
b100 s
b101 {
b110 A"
b111 H"
b1000 O"
1'
b0 +
b100000000000000001110000000000000110000000000000010100000000000001000000000000000011000000000000001000000000000000010000000000000000 *
b100000000000000001110000000000000110000000000000010100000000000001000000000000000011000000000000001000000000000000010000000000000000 .
1&
#80000
0'
#100000
b10 5
b10 4
b1000 #
b1000 /
b1000 S"
b111 L"
b111 P"
b110 E"
b110 I"
b101 y
b101 !"
b101 ""
b100 w
b100 |
b11 p
b11 t
b10 F
b10 L
b10 M
b1 D
b1 I
1'
b1 )
b1 -
b1 8
b1 ?
b1 G
b1 k
b1 r
b1 z
b1 @"
b1 G"
b1 N"
b1 +
#120000
0'
#140000
b10 D
b10 I
b101 F
b101 L
b101 M
b110 p
b110 t
b1011 w
b1011 |
b1110 y
b1110 !"
b1110 ""
b1100 E"
b1100 I"
b10100 L"
b10100 P"
b10111 #
b10111 /
b10111 S"
b11 5
b11 4
1'
b10 )
b10 -
b10 8
b10 ?
b10 G
b10 k
b10 r
b10 z
b10 @"
b10 G"
b10 N"
b10 +
#160000
0'
#180000
b100 5
b100 4
b101100 #
b101100 /
b101100 S"
b100001 L"
b100001 P"
b10010 E"
b10010 I"
b11010 y
b11010 !"
b11010 ""
b10010 w
b10010 |
b1001 p
b1001 t
b1000 F
b1000 L
b1000 M
b11 D
b11 I
1'
b11 )
b11 -
b11 8
b11 ?
b11 G
b11 k
b11 r
b11 z
b11 @"
b11 G"
b11 N"
b11 +
#200000
0'
#220000
b100 D
b100 I
b1011 F
b1011 L
b1011 M
b1100 p
b1100 t
b11001 w
b11001 |
b100110 y
b100110 !"
b100110 ""
b11000 E"
b11000 I"
b101110 L"
b101110 P"
b1000001 #
b1000001 /
b1000001 S"
b101 5
b101 4
1'
b100 )
b100 -
b100 8
b100 ?
b100 G
b100 k
b100 r
b100 z
b100 @"
b100 G"
b100 N"
b100 +
#240000
0'
#260000
b110 5
b110 4
b1010110 #
b1010110 /
b1010110 S"
b111011 L"
b111011 P"
b11110 E"
b11110 I"
b110010 y
b110010 !"
b110010 ""
b100000 w
b100000 |
b1111 p
b1111 t
b1110 F
b1110 L
b1110 M
b101 D
b101 I
1'
b101 )
b101 -
b101 8
b101 ?
b101 G
b101 k
b101 r
b101 z
b101 @"
b101 G"
b101 N"
b101 +
#280000
0'
#300000
b110 D
b110 I
b10001 F
b10001 L
b10001 M
b10010 p
b10010 t
b100111 w
b100111 |
b111110 y
b111110 !"
b111110 ""
b100100 E"
b100100 I"
b1001000 L"
b1001000 P"
b1101011 #
b1101011 /
b1101011 S"
b111 5
b111 4
1'
b110 )
b110 -
b110 8
b110 ?
b110 G
b110 k
b110 r
b110 z
b110 @"
b110 G"
b110 N"
b110 +
#320000
0'
#340000
b1000 5
b1000 4
b10000000 #
b10000000 /
b10000000 S"
b1010101 L"
b1010101 P"
b101010 E"
b101010 I"
b1001010 y
b1001010 !"
b1001010 ""
b101110 w
b101110 |
b10101 p
b10101 t
b10100 F
b10100 L
b10100 M
b111 D
b111 I
1'
b111 )
b111 -
b111 8
b111 ?
b111 G
b111 k
b111 r
b111 z
b111 @"
b111 G"
b111 N"
b111 +
#360000
0'
#380000
b1000 D
b1000 I
b10111 F
b10111 L
b10111 M
b11000 p
b11000 t
b110101 w
b110101 |
b1010110 y
b1010110 !"
b1010110 ""
b110000 E"
b110000 I"
b1100010 L"
b1100010 P"
b10010101 #
b10010101 /
b10010101 S"
b1001 5
b1001 4
1'
b1000 )
b1000 -
b1000 8
b1000 ?
b1000 G
b1000 k
b1000 r
b1000 z
b1000 @"
b1000 G"
b1000 N"
b1000 +
#400000
0'
#420000
b1010 5
b1010 4
b10101010 #
b10101010 /
b10101010 S"
b1101111 L"
b1101111 P"
b110110 E"
b110110 I"
b1100010 y
b1100010 !"
b1100010 ""
b111100 w
b111100 |
b11011 p
b11011 t
b11010 F
b11010 L
b11010 M
b1001 D
b1001 I
1'
b1001 )
b1001 -
b1001 8
b1001 ?
b1001 G
b1001 k
b1001 r
b1001 z
b1001 @"
b1001 G"
b1001 N"
b1001 +
#440000
0'
#460000
b1010 D
b1010 I
b11101 F
b11101 L
b11101 M
b11110 p
b11110 t
b1000011 w
b1000011 |
b1101110 y
b1101110 !"
b1101110 ""
b111100 E"
b111100 I"
b1111100 L"
b1111100 P"
b10111111 #
b10111111 /
b10111111 S"
b1011 5
b1011 4
1'
b1010 )
b1010 -
b1010 8
b1010 ?
b1010 G
b1010 k
b1010 r
b1010 z
b1010 @"
b1010 G"
b1010 N"
b1010 +
#480000
0'
#500000
b1100 5
b1100 4
b11010100 #
b11010100 /
b11010100 S"
b10001001 L"
b10001001 P"
b1000010 E"
b1000010 I"
b1111010 y
b1111010 !"
b1111010 ""
b1001010 w
b1001010 |
b100001 p
b100001 t
b100000 F
b100000 L
b100000 M
b1011 D
b1011 I
1'
b1011 )
b1011 -
b1011 8
b1011 ?
b1011 G
b1011 k
b1011 r
b1011 z
b1011 @"
b1011 G"
b1011 N"
b1011 +
#520000
0'
#540000
b1100 D
b1100 I
b100011 F
b100011 L
b100011 M
b100100 p
b100100 t
b1010001 w
b1010001 |
b10000110 y
b10000110 !"
b10000110 ""
b1001000 E"
b1001000 I"
b10010110 L"
b10010110 P"
b11101001 #
b11101001 /
b11101001 S"
b1101 5
b1101 4
1'
b1100 )
b1100 -
b1100 8
b1100 ?
b1100 G
b1100 k
b1100 r
b1100 z
b1100 @"
b1100 G"
b1100 N"
b1100 +
#560000
0'
#580000
b1110 5
b1110 4
b11111110 #
b11111110 /
b11111110 S"
b10100011 L"
b10100011 P"
b1001110 E"
b1001110 I"
b10010010 y
b10010010 !"
b10010010 ""
b1011000 w
b1011000 |
b100111 p
b100111 t
b100110 F
b100110 L
b100110 M
b1101 D
b1101 I
1'
b1101 )
b1101 -
b1101 8
b1101 ?
b1101 G
b1101 k
b1101 r
b1101 z
b1101 @"
b1101 G"
b1101 N"
b1101 +
#600000
0'
#620000
b1110 D
b1110 I
b101001 F
b101001 L
b101001 M
b101010 p
b101010 t
b1011111 w
b1011111 |
b10011110 y
b10011110 !"
b10011110 ""
b1010100 E"
b1010100 I"
b10110000 L"
b10110000 P"
b100010011 #
b100010011 /
b100010011 S"
b1111 5
b1111 4
1'
b1110 )
b1110 -
b1110 8
b1110 ?
b1110 G
b1110 k
b1110 r
b1110 z
b1110 @"
b1110 G"
b1110 N"
b1110 +
#640000
0'
#660000
b10000 5
b10000 4
b100101000 #
b100101000 /
b100101000 S"
b10111101 L"
b10111101 P"
b1011010 E"
b1011010 I"
b10101010 y
b10101010 !"
b10101010 ""
b1100110 w
b1100110 |
b101101 p
b101101 t
b101100 F
b101100 L
b101100 M
b1111 D
b1111 I
1'
b1111 )
b1111 -
b1111 8
b1111 ?
b1111 G
b1111 k
b1111 r
b1111 z
b1111 @"
b1111 G"
b1111 N"
b1111 +
#680000
0'
#700000
b10000 D
b10000 I
b101111 F
b101111 L
b101111 M
b110000 p
b110000 t
b1101101 w
b1101101 |
b10110110 y
b10110110 !"
b10110110 ""
b1100000 E"
b1100000 I"
b11001010 L"
b11001010 P"
b100111101 #
b100111101 /
b100111101 S"
b10001 5
b10001 4
1'
b10000 )
b10000 -
b10000 8
b10000 ?
b10000 G
b10000 k
b10000 r
b10000 z
b10000 @"
b10000 G"
b10000 N"
b10000 +
#720000
0'
#740000
b10010 5
b10010 4
b101010010 #
b101010010 /
b101010010 S"
b11010111 L"
b11010111 P"
b1100110 E"
b1100110 I"
b11000010 y
b11000010 !"
b11000010 ""
b1110100 w
b1110100 |
b110011 p
b110011 t
b110010 F
b110010 L
b110010 M
b10001 D
b10001 I
1'
b10001 )
b10001 -
b10001 8
b10001 ?
b10001 G
b10001 k
b10001 r
b10001 z
b10001 @"
b10001 G"
b10001 N"
b10001 +
#760000
0'
#780000
b10010 D
b10010 I
b110101 F
b110101 L
b110101 M
b110110 p
b110110 t
b1111011 w
b1111011 |
b11001110 y
b11001110 !"
b11001110 ""
b1101100 E"
b1101100 I"
b11100100 L"
b11100100 P"
b101100111 #
b101100111 /
b101100111 S"
b10011 5
b10011 4
1'
b10010 )
b10010 -
b10010 8
b10010 ?
b10010 G
b10010 k
b10010 r
b10010 z
b10010 @"
b10010 G"
b10010 N"
b10010 +
#800000
0'
#820000
b10100 5
b10100 4
b101111100 #
b101111100 /
b101111100 S"
b11110001 L"
b11110001 P"
b1110010 E"
b1110010 I"
b11011010 y
b11011010 !"
b11011010 ""
b10000010 w
b10000010 |
b111001 p
b111001 t
b111000 F
b111000 L
b111000 M
b10011 D
b10011 I
1'
b10011 )
b10011 -
b10011 8
b10011 ?
b10011 G
b10011 k
b10011 r
b10011 z
b10011 @"
b10011 G"
b10011 N"
b10011 +
#840000
0'
#860000
b10100 D
b10100 I
b111011 F
b111011 L
b111011 M
b111100 p
b111100 t
b10001001 w
b10001001 |
b11100110 y
b11100110 !"
b11100110 ""
b1111000 E"
b1111000 I"
b11111110 L"
b11111110 P"
b110010001 #
b110010001 /
b110010001 S"
b10101 5
b10101 4
1'
b10100 )
b10100 -
b10100 8
b10100 ?
b10100 G
b10100 k
b10100 r
b10100 z
b10100 @"
b10100 G"
b10100 N"
b10100 +
#880000
0'
#900000
b10110 5
b10110 4
b110100110 #
b110100110 /
b110100110 S"
b100001011 L"
b100001011 P"
b1111110 E"
b1111110 I"
b11110010 y
b11110010 !"
b11110010 ""
b10010000 w
b10010000 |
b111111 p
b111111 t
b111110 F
b111110 L
b111110 M
b10101 D
b10101 I
1'
b10101 )
b10101 -
b10101 8
b10101 ?
b10101 G
b10101 k
b10101 r
b10101 z
b10101 @"
b10101 G"
b10101 N"
b10101 +
#920000
0'
#940000
b10110 D
b10110 I
b1000001 F
b1000001 L
b1000001 M
b1000010 p
b1000010 t
b10010111 w
b10010111 |
b11111110 y
b11111110 !"
b11111110 ""
b10000100 E"
b10000100 I"
b100011000 L"
b100011000 P"
b110111011 #
b110111011 /
b110111011 S"
b10111 5
b10111 4
1'
b10110 )
b10110 -
b10110 8
b10110 ?
b10110 G
b10110 k
b10110 r
b10110 z
b10110 @"
b10110 G"
b10110 N"
b10110 +
#960000
0'
#980000
b11000 5
b11000 4
b111010000 #
b111010000 /
b111010000 S"
b100100101 L"
b100100101 P"
b10001010 E"
b10001010 I"
b100001010 y
b100001010 !"
b100001010 ""
b10011110 w
b10011110 |
b1000101 p
b1000101 t
b1000100 F
b1000100 L
b1000100 M
b10111 D
b10111 I
1'
b10111 )
b10111 -
b10111 8
b10111 ?
b10111 G
b10111 k
b10111 r
b10111 z
b10111 @"
b10111 G"
b10111 N"
b10111 +
#1000000
0'
#1020000
b11000 D
b11000 I
b1000111 F
b1000111 L
b1000111 M
b1001000 p
b1001000 t
b10100101 w
b10100101 |
b100010110 y
b100010110 !"
b100010110 ""
b10010000 E"
b10010000 I"
b100110010 L"
b100110010 P"
b111100101 #
b111100101 /
b111100101 S"
b11001 5
b11001 4
1'
b11000 )
b11000 -
b11000 8
b11000 ?
b11000 G
b11000 k
b11000 r
b11000 z
b11000 @"
b11000 G"
b11000 N"
b11000 +
#1040000
0'
#1060000
b11010 5
b11010 4
b111111010 #
b111111010 /
b111111010 S"
b100111111 L"
b100111111 P"
b10010110 E"
b10010110 I"
b100100010 y
b100100010 !"
b100100010 ""
b10101100 w
b10101100 |
b1001011 p
b1001011 t
b1001010 F
b1001010 L
b1001010 M
b11001 D
b11001 I
1'
b11001 )
b11001 -
b11001 8
b11001 ?
b11001 G
b11001 k
b11001 r
b11001 z
b11001 @"
b11001 G"
b11001 N"
b11001 +
#1080000
0'
#1100000
b11010 D
b11010 I
b1001101 F
b1001101 L
b1001101 M
b10 N
b10 m
b1001110 p
b1001110 t
b10110011 w
b10110011 |
b100101110 y
b100101110 !"
b100101110 ""
b101 #"
b101 B"
b10011100 E"
b10011100 I"
b101001100 L"
b101001100 P"
b1000001111 #
b1000001111 /
b1000001111 S"
b11011 5
b11011 4
1'
b11010 )
b11010 -
b11010 8
b11010 ?
b11010 G
b11010 k
b11010 r
b11010 z
b11010 @"
b11010 G"
b11010 N"
b11010 +
#1120000
0'
#1140000
b11100 5
b1 6
b0 4
b1000100100 #
b1000100100 /
b1000100100 S"
b101011001 L"
b101011001 P"
b10100111 E"
b10100111 I"
b1110 #"
b1110 B"
b100111010 y
b100111010 !"
b100111010 ""
b10111010 w
b10111010 |
b1010011 p
b1010011 t
b101 N
b101 m
b1010000 F
b1010000 L
b1010000 M
b11011 D
b11011 I
1'
b11011 )
b11011 -
b11011 8
b11011 ?
b11011 G
b11011 k
b11011 r
b11011 z
b11011 @"
b11011 G"
b11011 N"
b11011 +
#1160000
0'
#1180000
b11100 D
b11100 I
b1010011 F
b1010011 L
b1010011 M
b1000 N
b1000 m
b1011001 p
b1011001 t
b11000011 w
b11000011 |
b101000110 y
b101000110 !"
b101000110 ""
b11010 #"
b11010 B"
b10110110 E"
b10110110 I"
b101101011 L"
b101101011 P"
b1000111001 #
b1000111001 /
b1000111001 S"
b11101 5
b1 4
1'
b11100 )
b11100 -
b11100 8
b11100 ?
b11100 G
b11100 k
b11100 r
b11100 z
b11100 @"
b11100 G"
b11100 N"
b11100 +
#1200000
0'
#1220000
b11110 5
b10 4
b1001010011 #
b1001010011 /
b1001010011 S"
b110000001 L"
b110000001 P"
b11001000 E"
b11001000 I"
b100110 #"
b100110 B"
b101010100 y
b101010100 !"
b101010100 ""
b11001101 w
b11001101 |
b1011111 p
b1011111 t
b1011 N
b1011 m
b1010110 F
b1010110 L
b1010110 M
b11101 D
b11101 I
1'
b11101 )
b11101 -
b11101 8
b11101 ?
b11101 G
b11101 k
b11101 r
b11101 z
b11101 @"
b11101 G"
b11101 N"
b11101 +
#1240000
0'
#1260000
b11110 D
b11110 I
b1011001 F
b1011001 L
b1011001 M
b1110 N
b1110 m
b1100101 p
b1100101 t
b11010111 w
b11010111 |
b101100011 y
b101100011 !"
b101100011 ""
b110010 #"
b110010 B"
b11011010 E"
b11011010 I"
b110011010 L"
b110011010 P"
b1001110001 #
b1001110001 /
b1001110001 S"
b11111 5
b11 4
1'
b11110 )
b11110 -
b11110 8
b11110 ?
b11110 G
b11110 k
b11110 r
b11110 z
b11110 @"
b11110 G"
b11110 N"
b11110 +
#1280000
0'
#1300000
b100000 5
b100 4
b1010010010 #
b1010010010 /
b1010010010 S"
b110110011 L"
b110110011 P"
b11101100 E"
b11101100 I"
b111110 #"
b111110 B"
b101110010 y
b101110010 !"
b101110010 ""
b11100001 w
b11100001 |
b1101011 p
b1101011 t
b10001 N
b10001 m
b1011100 F
b1011100 L
b1011100 M
b11111 D
b11111 I
1'
b11111 )
b11111 -
b11111 8
b11111 ?
b11111 G
b11111 k
b11111 r
b11111 z
b11111 @"
b11111 G"
b11111 N"
b11111 +
#1320000
0'
#1340000
b100000 D
b100000 I
b1011111 F
b1011111 L
b1011111 M
b10100 N
b10100 m
b1110001 p
b1110001 t
b11101011 w
b11101011 |
b110000001 y
b110000001 !"
b110000001 ""
b1001010 #"
b1001010 B"
b11111110 E"
b11111110 I"
b111001100 L"
b111001100 P"
b1010110011 #
b1010110011 /
b1010110011 S"
b100001 5
b101 4
1'
b100000 )
b100000 -
b100000 8
b100000 ?
b100000 G
b100000 k
b100000 r
b100000 z
b100000 @"
b100000 G"
b100000 N"
b100000 +
#1360000
0'
#1380000
b100010 5
b110 4
b1011010100 #
b1011010100 /
b1011010100 S"
b111100101 L"
b111100101 P"
b100010000 E"
b100010000 I"
b1010110 #"
b1010110 B"
b110010000 y
b110010000 !"
b110010000 ""
b11110101 w
b11110101 |
b1110111 p
b1110111 t
b10111 N
b10111 m
b1100010 F
b1100010 L
b1100010 M
b100001 D
b100001 I
1'
b100001 )
b100001 -
b100001 8
b100001 ?
b100001 G
b100001 k
b100001 r
b100001 z
b100001 @"
b100001 G"
b100001 N"
b100001 +
#1400000
0'
#1420000
b100010 D
b100010 I
b1100101 F
b1100101 L
b1100101 M
b11010 N
b11010 m
b1111101 p
b1111101 t
b11111111 w
b11111111 |
b110011111 y
b110011111 !"
b110011111 ""
b1100010 #"
b1100010 B"
b100100010 E"
b100100010 I"
b111111110 L"
b111111110 P"
b1011110101 #
b1011110101 /
b1011110101 S"
b100011 5
b111 4
1'
b100010 )
b100010 -
b100010 8
b100010 ?
b100010 G
b100010 k
b100010 r
b100010 z
b100010 @"
b100010 G"
b100010 N"
b100010 +
#1440000
0'
#1460000
b100100 5
b1000 4
b1100010110 #
b1100010110 /
b1100010110 S"
b1000010111 L"
b1000010111 P"
b100110100 E"
b100110100 I"
b1101110 #"
b1101110 B"
b110101110 y
b110101110 !"
b110101110 ""
b100001001 w
b100001001 |
b10000011 p
b10000011 t
b11101 N
b11101 m
b1101000 F
b1101000 L
b1101000 M
b100011 D
b100011 I
1'
b100011 )
b100011 -
b100011 8
b100011 ?
b100011 G
b100011 k
b100011 r
b100011 z
b100011 @"
b100011 G"
b100011 N"
b100011 +
#1480000
0'
#1500000
b100100 D
b100100 I
b1101011 F
b1101011 L
b1101011 M
b100000 N
b100000 m
b10001001 p
b10001001 t
b100010011 w
b100010011 |
b110111101 y
b110111101 !"
b110111101 ""
b1111010 #"
b1111010 B"
b101000110 E"
b101000110 I"
b1000110000 L"
b1000110000 P"
b1100110111 #
b1100110111 /
b1100110111 S"
b100101 5
b1001 4
1'
b100100 )
b100100 -
b100100 8
b100100 ?
b100100 G
b100100 k
b100100 r
b100100 z
b100100 @"
b100100 G"
b100100 N"
b100100 +
#1520000
0'
