verification/convolver/wave.vcd
$date
	Sat Dec 28 13:19:16 2024
$end
$version
	Icarus Verilog
$end
$timescale
	1ps
$end
$scope module convolver_tb $end
$var wire 1 ! valid_conv $end
$var wire 1 " end_conv $end
$var wire 8 # conv_op [7:0] $end
$var parameter 32 $ CLK_PERIOD $end
$var parameter 32 % DATA_WIDTH $end
$var parameter 32 & INPUT_SIZE $end
$var parameter 32 ' KERNEL_SIZE $end
$var parameter 32 ( STRIDE $end
$var reg 8 ) bias [7:0] $end
$var reg 1 * ce $end
$var reg 1 + clk $end
$var reg 1 , global_rst $end
$var reg 8 - myInput [7:0] $end
$var reg 72 . weight [71:0] $end
$var integer 32 / i [31:0] $end
$var integer 32 0 pass_count [31:0] $end
$scope module uut $end
$var wire 8 1 bias [7:0] $end
$var wire 1 * ce $end
$var wire 1 + clk $end
$var wire 1 , global_rst $end
$var wire 8 2 myInput [7:0] $end
$var wire 72 3 weight [71:0] $end
$var wire 8 4 conv_op [7:0] $end
$var parameter 32 5 DATA_WIDTH $end
$var parameter 32 6 INPUT_SIZE $end
$var parameter 32 7 KERNEL_SIZE $end
$var parameter 32 8 STRIDE $end
$var reg 6 9 col_counter [5:0] $end
$var reg 11 : cycle_counter [10:0] $end
$var reg 1 " end_conv $end
$var reg 6 ; row_counter [5:0] $end
$var reg 1 ! valid_conv $end
$scope begin MAC[0] $end
$var parameter 2 < i $end
$scope begin genblk1 $end
$scope module mac $end
$var wire 8 = a [7:0] $end
$var wire 8 > b [7:0] $end
$var wire 1 * ce $end
$var wire 1 + clk $end
$var wire 1 , rst $end
$var wire 8 ? tmp [7:0] $end
$var parameter 32 @ DATA_WIDTH $end
$var reg 8 A data_out [7:0] $end
$upscope $end
$upscope $end
$upscope $end
$scope begin MAC[1] $end
$var parameter 2 B i $end
$scope begin genblk1 $end
$scope module mac $end
$var wire 8 C a [7:0] $end
$var wire 8 D b [7:0] $end
$var wire 1 * ce $end
$var wire 1 + clk $end
$var wire 1 , rst $end
$var wire 8 E tmp [7:0] $end
$var parameter 32 F DATA_WIDTH $end
$var reg 8 G data_out [7:0] $end
$upscope $end
$upscope $end
$upscope $end
$scope begin MAC[2] $end
$var parameter 3 H i $end
$scope begin genblk1 $end
$scope begin genblk1 $end
$var wire 8 I tmp2 [7:0] $end
$scope module mac $end
$var wire 8 J a [7:0] $end
$var wire 8 K b [7:0] $end
$var wire 1 * ce $end
$var wire 1 + clk $end
$var wire 1 , rst $end
$var wire 8 L tmp [7:0] $end
$var parameter 32 M DATA_WIDTH $end
$var reg 8 N data_out [7:0] $end
$upscope $end
$scope module sr $end
$var wire 1 * ce $end
$var wire 1 + clk $end
$var wire 8 O data_in [7:0] $end
$var wire 8 P data_out [7:0] $end
$var wire 1 , rst $end
$var parameter 32 Q DATA_WIDTH $end
$var parameter 33 R size $end
$scope begin genblk1[0] $end
$var parameter 2 S l $end
$upscope $end
$scope begin genblk1[1] $end
$var parameter 2 T l $end
$upscope $end
$scope begin genblk1[2] $end
$var parameter 3 U l $end
$upscope $end
$scope begin genblk1[3] $end
$var parameter 3 V l $end
$upscope $end
$scope begin genblk1[4] $end
$var parameter 4 W l $end
$upscope $end
$scope begin genblk1[5] $end
$var parameter 4 X l $end
$upscope $end
$scope begin genblk1[6] $end
$var parameter 4 Y l $end
$upscope $end
$scope begin genblk1[7] $end
$var parameter 4 Z l $end
$upscope $end
$scope begin genblk1[8] $end
$var parameter 5 [ l $end
$upscope $end
$scope begin genblk1[9] $end
$var parameter 5 \ l $end
$upscope $end
$scope begin genblk1[10] $end
$var parameter 5 ] l $end
$upscope $end
$scope begin genblk1[11] $end
$var parameter 5 ^ l $end
$upscope $end
$scope begin genblk1[12] $end
$var parameter 5 _ l $end
$upscope $end
$scope begin genblk1[13] $end
$var parameter 5 ` l $end
$upscope $end
$scope begin genblk1[14] $end
$var parameter 5 a l $end
$upscope $end
$scope begin genblk1[15] $end
$var parameter 5 b l $end
$upscope $end
$scope begin genblk1[16] $end
$var parameter 6 c l $end
$upscope $end
$scope begin genblk1[17] $end
$var parameter 6 d l $end
$upscope $end
$scope begin genblk1[18] $end
$var parameter 6 e l $end
$upscope $end
$scope begin genblk1[19] $end
$var parameter 6 f l $end
$upscope $end
$scope begin genblk1[20] $end
$var parameter 6 g l $end
$upscope $end
$scope begin genblk1[21] $end
$var parameter 6 h l $end
$upscope $end
$scope begin genblk1[22] $end
$var parameter 6 i l $end
$upscope $end
$scope begin genblk1[23] $end
$var parameter 6 j l $end
$upscope $end
$scope begin genblk1[24] $end
$var parameter 6 k l $end
$upscope $end
$upscope $end
$upscope $end
$upscope $end
$upscope $end
$scope begin MAC[3] $end
$var parameter 3 l i $end
$scope begin genblk1 $end
$scope module mac $end
$var wire 8 m a [7:0] $end
$var wire 8 n b [7:0] $end
$var wire 1 * ce $end
$var wire 1 + clk $end
$var wire 1 , rst $end
$var wire 8 o tmp [7:0] $end
$var parameter 32 p DATA_WIDTH $end
$var reg 8 q data_out [7:0] $end
$upscope $end
$upscope $end
$upscope $end
$scope begin MAC[4] $end
$var parameter 4 r i $end
$scope begin genblk1 $end
$scope module mac $end
$var wire 8 s a [7:0] $end
$var wire 8 t b [7:0] $end
$var wire 1 * ce $end
$var wire 1 + clk $end
$var wire 1 , rst $end
$var wire 8 u tmp [7:0] $end
$var parameter 32 v DATA_WIDTH $end
$var reg 8 w data_out [7:0] $end
$upscope $end
$upscope $end
$upscope $end
$scope begin MAC[5] $end
$var parameter 4 x i $end
$scope begin genblk1 $end
$scope begin genblk1 $end
$var wire 8 y tmp2 [7:0] $end
$scope module mac $end
$var wire 8 z a [7:0] $end
$var wire 8 { b [7:0] $end
$var wire 1 * ce $end
$var wire 1 + clk $end
$var wire 1 , rst $end
$var wire 8 | tmp [7:0] $end
$var parameter 32 } DATA_WIDTH $end
$var reg 8 ~ data_out [7:0] $end
$upscope $end
$scope module sr $end
$var wire 1 * ce $end
$var wire 1 + clk $end
$var wire 8 !" data_in [7:0] $end
$var wire 8 "" data_out [7:0] $end
$var wire 1 , rst $end
$var parameter 32 #" DATA_WIDTH $end
$var parameter 33 $" size $end
$scope begin genblk1[0] $end
$var parameter 2 %" l $end
$upscope $end
$scope begin genblk1[1] $end
$var parameter 2 &" l $end
$upscope $end
$scope begin genblk1[2] $end
$var parameter 3 '" l $end
$upscope $end
$scope begin genblk1[3] $end
$var parameter 3 (" l $end
$upscope $end
$scope begin genblk1[4] $end
$var parameter 4 )" l $end
$upscope $end
$scope begin genblk1[5] $end
$var parameter 4 *" l $end
$upscope $end
$scope begin genblk1[6] $end
$var parameter 4 +" l $end
$upscope $end
$scope begin genblk1[7] $end
$var parameter 4 ," l $end
$upscope $end
$scope begin genblk1[8] $end
$var parameter 5 -" l $end
$upscope $end
$scope begin genblk1[9] $end
$var parameter 5 ." l $end
$upscope $end
$scope begin genblk1[10] $end
$var parameter 5 /" l $end
$upscope $end
$scope begin genblk1[11] $end
$var parameter 5 0" l $end
$upscope $end
$scope begin genblk1[12] $end
$var parameter 5 1" l $end
$upscope $end
$scope begin genblk1[13] $end
$var parameter 5 2" l $end
$upscope $end
$scope begin genblk1[14] $end
$var parameter 5 3" l $end
$upscope $end
$scope begin genblk1[15] $end
$var parameter 5 4" l $end
$upscope $end
$scope begin genblk1[16] $end
$var parameter 6 5" l $end
$upscope $end
$scope begin genblk1[17] $end
$var parameter 6 6" l $end
$upscope $end
$scope begin genblk1[18] $end
$var parameter 6 7" l $end
$upscope $end
$scope begin genblk1[19] $end
$var parameter 6 8" l $end
$upscope $end
$scope begin genblk1[20] $end
$var parameter 6 9" l $end
$upscope $end
$scope begin genblk1[21] $end
$var parameter 6 :" l $end
$upscope $end
$scope begin genblk1[22] $end
$var parameter 6 ;" l $end
$upscope $end
$scope begin genblk1[23] $end
$var parameter 6 <" l $end
$upscope $end
$scope begin genblk1[24] $end
$var parameter 6 =" l $end
$upscope $end
$upscope $end
$upscope $end
$upscope $end
$upscope $end
$scope begin MAC[6] $end
$var parameter 4 >" i $end
$scope begin genblk1 $end
$scope module mac $end
$var wire 8 ?" a [7:0] $end
$var wire 8 @" b [7:0] $end
$var wire 1 * ce $end
$var wire 1 + clk $end
$var wire 1 , rst $end
$var wire 8 A" tmp [7:0] $end
$var parameter 32 B" DATA_WIDTH $end
$var reg 8 C" data_out [7:0] $end
$upscope $end
$upscope $end
$upscope $end
$scope begin MAC[7] $end
$var parameter 4 D" i $end
$scope begin genblk1 $end
$scope module mac $end
$var wire 8 E" a [7:0] $end
$var wire 8 F" b [7:0] $end
$var wire 1 * ce $end
$var wire 1 + clk $end
$var wire 1 , rst $end
$var wire 8 G" tmp [7:0] $end
$var parameter 32 H" DATA_WIDTH $end
$var reg 8 I" data_out [7:0] $end
$upscope $end
$upscope $end
$upscope $end
$scope begin MAC[8] $end
$var parameter 5 J" i $end
$scope begin genblk1 $end
$scope begin genblk1 $end
$scope module mac $end
$var wire 8 K" a [7:0] $end
$var wire 8 L" b [7:0] $end
$var wire 1 * ce $end
$var wire 1 + clk $end
$var wire 1 , rst $end
$var wire 8 M" tmp [7:0] $end
$var parameter 32 N" DATA_WIDTH $end
$var reg 8 O" data_out [7:0] $end
$upscope $end
$upscope $end
$upscope $end
$upscope $end
$scope begin genblk1[0] $end
$var parameter 2 P" j $end
$upscope $end
$scope begin genblk1[1] $end
$var parameter 2 Q" j $end
$upscope $end
$scope begin genblk1[2] $end
$var parameter 3 R" j $end
$upscope $end
$scope begin genblk1[3] $end
$var parameter 3 S" j $end
$upscope $end
$scope begin genblk1[4] $end
$var parameter 4 T" j $end
$upscope $end
$scope begin genblk1[5] $end
$var parameter 4 U" j $end
$upscope $end
$scope begin genblk1[6] $end
$var parameter 4 V" j $end
$upscope $end
$scope begin genblk1[7] $end
$var parameter 4 W" j $end
$upscope $end
$scope begin genblk1[8] $end
$var parameter 5 X" j $end
$upscope $end
$upscope $end
$upscope $end
$enddefinitions $end
$comment Show the parameter values. $end
$dumpall
b1000 X"
b111 W"
b110 V"
b101 U"
b100 T"
b11 S"
b10 R"
b1 Q"
b0 P"
b1000 N"
b1000 J"
b1000 H"
b111 D"
b1000 B"
b110 >"
b11000 ="
b10111 <"
b10110 ;"
b10101 :"
b10100 9"
b10011 8"
b10010 7"
b10001 6"
b10000 5"
b1111 4"
b1110 3"
b1101 2"
b1100 1"
b1011 0"
b1010 /"
b1001 ."
b1000 -"
b111 ,"
b110 +"
b101 *"
b100 )"
b11 ("
b10 '"
b1 &"
b0 %"
b11001 $"
b1000 #"
b1000 }
b101 x
b1000 v
b100 r
b1000 p
b11 l
b11000 k
b10111 j
b10110 i
b10101 h
b10100 g
b10011 f
b10010 e
b10001 d
b10000 c
b1111 b
b1110 a
b1101 `
b1100 _
b1011 ^
b1010 ]
b1001 \
b1000 [
b111 Z
b110 Y
b101 X
b100 W
b11 V
b10 U
b1 T
b0 S
b11001 R
b1000 Q
b1000 M
b10 H
b1000 F
b1 B
b1000 @
b0 <
b1 8
b11 7
b11100 6
b1000 5
b1 (
b11 '
b11100 &
b1000 %
b101000 $
$end
#0
$dumpvars
bx O"
bx M"
b11111110 L"
b0 K"
bx I"
bx G"
b11111101 F"
b0 E"
bx C"
bx A"
b11111101 @"
b0 ?"
bx ""
bx !"
bx ~
bx |
b10 {
b0 z
bx y
bx w
bx u
b11111111 t
b0 s
bx q
bx o
b11111101 n
b0 m
bx P
bx O
bx N
bx L
b1 K
b0 J
bx I
bx G
bx E
b0 D
b0 C
bx A
b0 ?
b1 >
b0 =
b0 ;
b0 :
b0 9
bx 4
b111111101111110111111101000000101111111111111101000000010000000000000001 3
b0 2
b0 1
b0 0
b1001 /
b111111101111110111111101000000101111111111111101000000010000000000000001 .
b0 -
1,
0+
0*
b0 )
bx #
x"
x!
$end
#20000
b0 A
b0 E
b0 G
b0 L
b0 I
b0 N
b0 O
b0 P
b0 o
b0 q
b0 u
b0 w
b0 |
b0 y
b0 ~
b0 !"
b0 ""
b0 A"
b0 C"
b0 G"
b0 I"
b0 M"
b0 #
b0 4
b0 O"
0!
0"
1+
#40000
0+
0,
#60000
b1 :
b1 9
b11111100 #
b11111100 4
b11111100 O"
b11111010 I"
b11111010 M"
b11111010 C"
b11111010 G"
b100 y
b100 ~
b100 !"
b11111110 w
b11111110 |
b11111010 q
b11111010 u
b10 I
b10 N
b10 O
b10 A
b10 E
1+
b10 -
b10 2
b10 =
b10 C
b10 J
b10 m
b10 s
b10 z
b10 ?"
b10 E"
b10 K"
b0 /
1*
#80000
0+
#100000
b0 A
b0 E
b10 G
b10 L
b0 I
b0 N
b0 O
b0 q
b0 u
b11111010 w
b11111010 |
b11111110 y
b11111110 ~
b11111110 !"
b0 C"
b0 G"
b11111010 #
b11111010 4
b11111010 O"
b10 :
b10 9
1+
b0 -
b0 2
b0 =
b0 C
b0 J
b0 m
b0 s
b0 z
b0 ?"
b0 E"
b0 K"
b1 /
#120000
0+
#140000
b11 :
b11 9
b0 #
b0 4
b0 O"
b1001 I"
b1001 M"
b1001 C"
b1001 G"
b11110100 y
b11110100 ~
b11110100 !"
b11 w
b11 |
b1001 q
b1001 u
b11111111 I
b11111111 N
b11111111 O
b0 G
b0 L
b11111101 A
b11111101 E
1+
b11111101 -
b11111101 2
b11111101 =
b11111101 C
b11111101 J
b11111101 m
b11111101 s
b11111101 z
b11111101 ?"
b11111101 E"
b11111101 K"
b10 /
#160000
0+
#180000
b11111111 A
b11111111 E
b11111101 G
b11111101 L
b11 q
b11 u
b1010 w
b1010 |
b1 y
b1 ~
b1 !"
b11 C"
b11 G"
b1100 I"
b1100 M"
b1011 #
b1011 4
b1011 O"
b100 :
b100 9
1+
b11111111 -
b11111111 2
b11111111 =
b11111111 C
b11111111 J
b11111111 m
b11111111 s
b11111111 z
b11111111 ?"
b11111111 E"
b11111111 K"
b11 /
#200000
0+
#220000
b101 :
b101 9
b1010 #
b1010 4
b1010 O"
b0 I"
b0 M"
b11111101 C"
b11111101 G"
b1100 y
b1100 ~
b1100 !"
b10 w
b10 |
b11111101 q
b11111101 u
b11111110 I
b11111110 N
b11111110 O
b11111111 G
b11111111 L
b1 A
b1 E
1+
b1 -
b1 2
b1 =
b1 C
b1 J
b1 m
b1 s
b1 z
b1 ?"
b1 E"
b1 K"
b100 /
#240000
0+
#260000
b11111110 A
b11111110 E
b1 G
b1 L
b11111101 I
b11111101 N
b11111101 O
b110 q
b110 u
b11111111 w
b11111111 |
b11111110 y
b11111110 ~
b11111110 !"
b110 C"
b110 G"
b11 I"
b11 M"
b100 #
b100 4
b100 O"
b110 :
b110 9
1+
b11111110 -
b11111110 2
b11111110 =
b11111110 C
b11111110 J
b11111110 m
b11111110 s
b11111110 z
b11111110 ?"
b11111110 E"
b11111110 K"
b101 /
#280000
0+
#300000
b111 :
b111 9
b101 #
b101 4
b101 O"
b1001 I"
b1001 M"
b11 C"
b11 G"
b11111101 y
b11111101 ~
b11111101 !"
b111 w
b111 |
b11 q
b11 u
b0 I
b0 N
b0 O
b11111110 G
b11111110 L
b11111111 A
b11111111 E
1+
b11111111 -
b11111111 2
b11111111 =
b11111111 C
b11111111 J
b11111111 m
b11111111 s
b11111111 z
b11111111 ?"
b11111111 E"
b11111111 K"
b110 /
#320000
0+
#340000
b0 A
b0 E
b11111111 G
b11111111 L
b11111110 I
b11111110 N
b11111110 O
b0 q
b0 u
b11 w
b11 |
b111 y
b111 ~
b111 !"
b0 C"
b0 G"
b11 I"
b11 M"
b1001 #
b1001 4
b1001 O"
b1000 :
b1000 9
1+
b0 -
b0 2
b0 =
b0 C
b0 J
b0 m
b0 s
b0 z
b0 ?"
b0 E"
b0 K"
b111 /
#360000
0+
#380000
b1001 :
b1001 9
b101 #
b101 4
b101 O"
b11 C"
b11 G"
b1 y
b1 ~
b1 !"
b1 w
b1 |
b11 q
b11 u
b0 G
b0 L
b11111111 A
b11111111 E
1+
b11111111 -
b11111111 2
b11111111 =
b11111111 C
b11111111 J
b11111111 m
b11111111 s
b11111111 z
b11111111 ?"
b11111111 E"
b11111111 K"
b1000 /
#400000
0+
#420000
b11111110 A
b11111110 E
b11111111 G
b11111111 L
b110 q
b110 u
b101 w
b101 |
b11111101 y
b11111101 ~
b11111101 !"
b110 C"
b110 G"
b1001 I"
b1001 M"
b111 #
b111 4
b111 O"
b1010 :
b1010 9
1+
b11111110 -
b11111110 2
b11111110 =
b11111110 C
b11111110 J
b11111110 m
b11111110 s
b11111110 z
b11111110 ?"
b11111110 E"
b11111110 K"
b1001 /
#440000
0+
#460000
b1011 :
b1011 9
b1011 #
b1011 4
b1011 O"
b11 C"
b11 G"
b11 y
b11 ~
b11 !"
b111 w
b111 |
b11 q
b11 u
b11111110 G
b11111110 L
b11111111 A
b11111111 E
1+
b11111111 -
b11111111 2
b11111111 =
b11111111 C
b11111111 J
b11111111 m
b11111111 s
b11111111 z
b11111111 ?"
b11111111 E"
b11111111 K"
b1010 /
#480000
0+
#500000
b10 A
b10 E
b11111111 G
b11111111 L
b0 I
b0 N
b0 O
b11111010 q
b11111010 u
b1 w
b1 |
b1011 y
b1011 ~
b1011 !"
b11111010 C"
b11111010 G"
b11111101 I"
b11111101 M"
b101 #
b101 4
b101 O"
b1100 :
b1100 9
1+
b10 -
b10 2
b10 =
b10 C
b10 J
b10 m
b10 s
b10 z
b10 ?"
b10 E"
b10 K"
b1011 /
#520000
0+
#540000
b1101 :
b1101 9
b11111011 #
b11111011 4
b11111011 O"
b11110111 I"
b11110111 M"
b11111101 C"
b11111101 G"
b11 y
b11 ~
b11 !"
b11111001 w
b11111001 |
b11111101 q
b11111101 u
b10 G
b10 L
b1 A
b1 E
1+
b1 -
b1 2
b1 =
b1 C
b1 J
b1 m
b1 s
b1 z
b1 ?"
b1 E"
b1 K"
b1100 /
#560000
0+
#580000
b1 G
b1 L
b11 I
b11 N
b11 O
b11111100 w
b11111100 |
b11111011 y
b11111011 ~
b11111011 !"
b11111010 I"
b11111010 M"
b11110101 #
b11110101 4
b11110101 O"
b1110 :
b1110 9
1+
b1101 /
#600000
0+
#620000
b1111 :
b1111 9
b11110110 #
b11110110 4
b11110110 O"
b11110111 I"
b11110111 M"
b11111010 C"
b11111010 G"
b0 y
b0 ~
b0 !"
b11111011 w
b11111011 |
b11111010 q
b11111010 u
b10 A
b10 E
1+
b10 -
b10 2
b10 =
b10 C
b10 J
b10 m
b10 s
b10 z
b10 ?"
b10 E"
b10 K"
b1110 /
#640000
0+
#660000
b11111110 A
b11111110 E
b10 G
b10 L
b11111111 I
b11111111 N
b11111111 O
b110 q
b110 u
b11111100 w
b11111100 |
b11110111 y
b11110111 ~
b11110111 !"
b110 C"
b110 G"
b0 I"
b0 M"
b11111011 #
b11111011 4
b11111011 O"
b10000 :
b10000 9
1+
b11111110 -
b11111110 2
b11111110 =
b11111110 C
b11111110 J
b11111110 m
b11111110 s
b11111110 z
b11111110 ?"
b11111110 E"
b11111110 K"
b1111 /
#680000
0+
#700000
b10001 :
b10001 9
b0 #
b0 4
b0 O"
b110 I"
b110 M"
b0 C"
b0 G"
b11111100 y
b11111100 ~
b11111100 !"
b110 w
b110 |
b0 q
b0 u
b10 I
b10 N
b10 O
b11111110 G
b11111110 L
b0 A
b0 E
1+
b0 -
b0 2
b0 =
b0 C
b0 J
b0 m
b0 s
b0 z
b0 ?"
b0 E"
b0 K"
b10000 /
#720000
0+
#740000
b11111111 A
b11111111 E
b0 G
b0 L
b11111101 I
b11111101 N
b11111101 O
b11 q
b11 u
b1 w
b1 |
b100 y
b100 ~
b100 !"
b11 C"
b11 G"
b11 I"
b11 M"
b1000 #
b1000 4
b1000 O"
b10010 :
b10010 9
1+
b11111111 -
b11111111 2
b11111111 =
b11111111 C
b11111111 J
b11111111 m
b11111111 s
b11111111 z
b11111111 ?"
b11111111 E"
b11111111 K"
b10001 /
#760000
0+
#780000
b10011 :
b10011 9
b101 #
b101 4
b101 O"
b110 I"
b110 M"
b11111111 y
b11111111 ~
b11111111 !"
b100 w
b100 |
b11111111 I
b11111111 N
b11111111 O
b11111111 G
b11111111 L
1+
b10010 /
#800000
0+
#820000
b0 A
b0 E
b0 q
b0 u
b11 w
b11 |
b100 y
b100 ~
b100 !"
b0 C"
b0 G"
b11 I"
b11 M"
b110 #
b110 4
b110 O"
b10100 :
b10100 9
1+
b0 -
b0 2
b0 =
b0 C
b0 J
b0 m
b0 s
b0 z
b0 ?"
b0 E"
b0 K"
b10011 /
#840000
0+
#860000
b10101 :
b10101 9
b1001 #
b1001 4
b1001 O"
b1001 I"
b1001 M"
b1001 C"
b1001 G"
b11111101 y
b11111101 ~
b11111101 !"
b1001 q
b1001 u
b11111100 I
b11111100 N
b11111100 O
b0 G
b0 L
b11111101 A
b11111101 E
1+
b11111101 -
b11111101 2
b11111101 =
b11111101 C
b11111101 J
b11111101 m
b11111101 s
b11111101 z
b11111101 ?"
b11111101 E"
b11111101 K"
b10100 /
#880000
0+
#900000
b0 A
b0 E
b11111101 G
b11111101 L
b0 I
b0 N
b0 O
b0 q
b0 u
b1001 w
b1001 |
b11 y
b11 ~
b11 !"
b0 C"
b0 G"
b10110 :
b10110 9
1+
b0 -
b0 2
b0 =
b0 C
b0 J
b0 m
b0 s
b0 z
b0 ?"
b0 E"
b0 K"
b10101 /
#920000
0+
#940000
b10111 :
b10111 9
b101 #
b101 4
b101 O"
b11111010 I"
b11111010 M"
b11111010 C"
b11111010 G"
b1101 y
b1101 ~
b1101 !"
b11111110 w
b11111110 |
b11111010 q
b11111010 u
b11111111 I
b11111111 N
b11111111 O
b0 G
b0 L
b10 A
b10 E
1+
b10 -
b10 2
b10 =
b10 C
b10 J
b10 m
b10 s
b10 z
b10 ?"
b10 E"
b10 K"
b10110 /
#960000
0+
#980000
b11111101 A
b11111101 E
b10 G
b10 L
b11111101 I
b11111101 N
b11111101 O
b1001 q
b1001 u
b11111101 w
b11111101 |
b11111000 y
b11111000 ~
b11111000 !"
b1001 C"
b1001 G"
b11 I"
b11 M"
b0 #
b0 4
b0 O"
b11000 :
b11000 9
1+
b11111101 -
b11111101 2
b11111101 =
b11111101 C
b11111101 J
b11111101 m
b11111101 s
b11111101 z
b11111101 ?"
b11111101 E"
b11111101 K"
b10111 /
#1000000
0+
#1020000
b11001 :
b11001 9
b1001 #
b1001 4
b1001 O"
b10010 I"
b10010 M"
b11110111 y
b11110111 ~
b11110111 !"
b1100 w
b1100 |
b11111111 I
b11111111 N
b11111111 O
b11111101 G
b11111101 L
1+
b11000 /
#1040000
0+
#1060000
b0 A
b0 E
b11111101 I
b11111101 N
b11111101 O
b10 P
b10 o
b0 q
b0 u
b1001 w
b1001 |
b1100 y
b1100 ~
b1100 !"
b100 ""
b100 A"
b0 C"
b0 G"
b1001 I"
b1001 M"
b10010 #
b10010 4
b10010 O"
b11010 :
b11010 9
1+
b0 -
b0 2
b0 =
b0 C
b0 J
b0 m
b0 s
b0 z
b0 ?"
b0 E"
b0 K"
b11001 /
#1080000
0+
#1100000
b11011 :
b11011 9
b1001 #
b1001 4
b1001 O"
b0 I"
b0 M"
b100 C"
b100 G"
b11111110 ""
b11111110 A"
b1001 y
b1001 ~
b1001 !"
b0 w
b0 |
b10 q
b10 u
b0 P
b0 o
b0 G
b0 L
1+
b11010 /
#1120000
0+
#1140000
b11111111 A
b11111111 E
b11111111 I
b11111111 N
b11111111 O
b11111111 P
b11111111 o
b11 q
b11 u
b11 w
b11 |
b11111110 y
b11111110 ~
b11111110 !"
b11110100 ""
b11110100 A"
b1 C"
b1 G"
b111 I"
b111 M"
b10 #
b10 4
b10 O"
b11100 :
b1 ;
b0 9
1+
b11111111 -
b11111111 2
b11111111 =
b11111111 C
b11111111 J
b11111111 m
b11111111 s
b11111111 z
b11111111 ?"
b11111111 E"
b11111111 K"
b11011 /
#1160000
0+
#1180000
b11101 :
b1 9
b1111 #
b1111 4
b1111 O"
b1101 I"
b1101 M"
b0 C"
b0 G"
b1 ""
b1 A"
b11111011 y
b11111011 ~
b11111011 !"
b111 w
b111 |
b1011 q
b1011 u
b11111100 I
b11111100 N
b11111100 O
b11111111 G
b11111111 L
b11111100 A
b11111100 E
1+
b11111100 -
b11111100 2
b11111100 =
b11111100 C
b11111100 J
b11111100 m
b11111100 s
b11111100 z
b11111100 ?"
b11111100 E"
b11111100 K"
b11100 /
#1200000
0+
#1220000
b10 A
b10 E
b11111100 G
b11111100 L
b1 I
b1 N
b1 O
b11111110 P
b11111110 o
b11111001 q
b11111001 u
b1001 w
b1001 |
b1011 y
b1011 ~
b1011 !"
b1100 ""
b1100 A"
b11111011 C"
b11111011 G"
b11111010 I"
b11111010 M"
b1001 #
b1001 4
b1001 O"
b11110 :
b10 9
1+
b10 -
b10 2
b10 =
b10 C
b10 J
b10 m
b10 s
b10 z
b10 ?"
b10 E"
b10 K"
b11101 /
#1240000
0+
#1260000
b11111 :
b11 9
b11110110 #
b11110110 4
b11110110 O"
b11110101 I"
b11110101 M"
b110 C"
b110 G"
b11111110 ""
b11111110 A"
b1101 y
b1101 ~
b1101 !"
b11110111 w
b11110111 |
b11111000 q
b11111000 u
b11111101 P
b11111101 o
b11111110 I
b11111110 N
b11111110 O
b10 G
b10 L
1+
b11110 /
#1280000
0+
#1300000
b11111100 A
b11111100 E
b0 P
b0 o
b1001 q
b1001 u
b11111100 w
b11111100 |
b11101111 y
b11101111 ~
b11101111 !"
b11111101 ""
b11111101 A"
b1010 C"
b1010 G"
b10010 I"
b10010 M"
b11111101 #
b11111101 4
b11111101 O"
b100000 :
b100 9
1+
b11111100 -
b11111100 2
b11111100 =
b11111100 C
b11111100 J
b11111100 m
b11111100 s
b11111100 z
b11111100 ?"
b11111100 E"
b11111100 K"
b11111 /
#1320000
0+
#1340000
b100001 :
b101 9
b11000 #
b11000 4
b11000 O"
b10011 I"
b10011 M"
b110 C"
b110 G"
b111 ""
b111 A"
b11110110 y
b11110110 ~
b11110110 !"
b1100 w
b1100 |
b11111110 P
b11111110 o
b11111111 I
b11111111 N
b11111111 O
b11111100 G
b11111100 L
b11111101 A
b11111101 E
1+
b11111101 -
b11111101 2
b11111101 =
b11111101 C
b11111101 J
b11111101 m
b11111101 s
b11111101 z
b11111101 ?"
b11111101 E"
b11111101 K"
b100000 /
#1360000
0+
#1380000
b11111100 A
b11111100 E
b11111101 G
b11111101 L
b11111000 I
b11111000 N
b11111000 O
b1010 q
b1010 u
b1101 w
b1101 |
b100 y
b100 ~
b100 !"
b1 ""
b1 A"
b10011 C"
b10011 G"
b10010 I"
b10010 M"
b11011 #
b11011 4
b11011 O"
b100010 :
b110 9
1+
b11111100 -
b11111100 2
b11111100 =
b11111100 C
b11111100 J
b11111100 m
b11111100 s
b11111100 z
b11111100 ?"
b11111100 E"
b11111100 K"
b100001 /
#1400000
0+
#1420000
b100011 :
b111 9
b10110 #
b10110 4
b10110 O"
b11001 I"
b11001 M"
b111 C"
b111 G"
b11111101 ""
b11111101 A"
b1001 y
b1001 ~
b1001 !"
b1100 w
b1100 |
b100 q
b100 u
b11111011 I
b11111011 N
b11111011 O
b11111100 G
b11111100 L
b11111110 A
b11111110 E
1+
b11111110 -
b11111110 2
b11111110 =
b11111110 C
b11111110 J
b11111110 m
b11111110 s
b11111110 z
b11111110 ?"
b11111110 E"
b11111110 K"
b100010 /
#1440000
0+
#1460000
b11111110 G
b11111110 L
b11111010 I
b11111010 N
b11111010 O
b110 w
b110 |
b1000 y
b1000 ~
b1000 !"
b11 ""
b11 A"
b11 C"
b11 G"
b1101 I"
b1101 M"
b11101 #
b11101 4
b11101 O"
b100100 :
b1000 9
1+
b100011 /
#1480000
0+
#1500000
b100101 :
b1001 9
b10001 #
b10001 4
b10001 O"
b1001 I"
b1001 M"
b1001 C"
b1001 G"
b1011 ""
b1011 A"
b10 y
b10 ~
b10 !"
b0 P
b0 o
b11111100 I
b11111100 N
b11111100 O
1+
b100100 /
#1520000
0+
#1540000
b11111101 A
b11111101 E
b11111011 I
b11111011 N
b11111011 O
b1001 q
b1001 u
b111 w
b111 |
b0 y
b0 ~
b0 !"
b11 ""
b11 A"
b10100 C"
b10100 G"
b10010 I"
b10010 M"
b1111 #
b1111 4
b1111 O"
b100110 :
b1010 9
1+
b11111101 -
b11111101 2
b11111101 =
b11111101 C
b11111101 J
b11111101 m
b11111101 s
b11111101 z
b11111101 ?"
b11111101 E"
b11111101 K"
b100101 /
#1560000
0+
#1580000
b100111 :
b1011 9
b1110 #
b1110 4
b1110 O"
b1110 I"
b1110 M"
b11111101 C"
b11111101 G"
b11111011 ""
b11111011 A"
b1011 y
b1011 ~
b1011 !"
b11111010 q
b11111010 u
b11 P
b11 o
b0 I
b0 N
b0 O
b11111101 G
b11111101 L
b10 A
b10 E
1+
b10 -
b10 2
b10 =
b10 C
b10 J
b10 m
b10 s
b10 z
b10 ?"
b10 E"
b10 K"
b100110 /
#1600000
0+
#1620000
b0 A
b0 E
b10 G
b10 L
b11111101 I
b11111101 N
b11111101 O
b11 q
b11 u
b11111010 w
b11111010 |
b111 y
b111 ~
b111 !"
b0 ""
b0 A"
b11111011 C"
b11111011 G"
b11111101 I"
b11111101 M"
b101000 :
b1100 9
1+
b0 -
b0 2
b0 =
b0 C
b0 J
b0 m
b0 s
b0 z
b0 ?"
b0 E"
b0 K"
b100111 /
#1640000
0+
