verification/convolver/wave.vcd
$date
	Sat Dec  7 23:11:18 2024
$end
$version
	Icarus Verilog
$end
$timescale
	1ps
$end
$scope module convolver_tb $end
$var wire 1 ! valid_conv $end
$var wire 1 " end_conv $end
$var wire 8 # conv_op [7:0] $end
$var parameter 32 $ K $end
$var parameter 32 % W $end
$var parameter 32 & clkp $end
$var parameter 32 ' dataWidth $end
$var parameter 32 ( s $end
$var reg 8 ) bias [7:0] $end
$var reg 1 * ce $end
$var reg 1 + clk $end
$var reg 1 , global_rst $end
$var reg 8 - myInput [7:0] $end
$var reg 72 . weight [71:0] $end
$var integer 32 / i [31:0] $end
$var integer 32 0 pass_count [31:0] $end
$scope module uut $end
$var wire 8 1 bias [7:0] $end
$var wire 1 * ce $end
$var wire 1 + clk $end
$var wire 1 , global_rst $end
$var wire 8 2 myInput [7:0] $end
$var wire 72 3 weight [71:0] $end
$var wire 8 4 conv_op [7:0] $end
$var parameter 32 5 K $end
$var parameter 32 6 W $end
$var parameter 32 7 dataWidth $end
$var parameter 32 8 s $end
$var reg 7 9 col_counter [6:0] $end
$var reg 13 : cycle_counter [12:0] $end
$var reg 1 " end_conv $end
$var reg 7 ; row_counter [6:0] $end
$var reg 1 ! valid_conv $end
$scope begin MAC[0] $end
$var parameter 2 < i $end
$scope begin genblk1 $end
$scope module mac $end
$var wire 8 = a [7:0] $end
$var wire 8 > b [7:0] $end
$var wire 1 * ce $end
$var wire 1 + clk $end
$var wire 1 , rst $end
$var wire 8 ? tmp [7:0] $end
$var parameter 32 @ dataWidth $end
$var parameter 72 A macType $end
$var reg 8 B data_out [7:0] $end
$upscope $end
$upscope $end
$upscope $end
$scope begin MAC[1] $end
$var parameter 2 C i $end
$scope begin genblk1 $end
$scope module mac $end
$var wire 8 D a [7:0] $end
$var wire 8 E b [7:0] $end
$var wire 1 * ce $end
$var wire 1 + clk $end
$var wire 1 , rst $end
$var wire 8 F tmp [7:0] $end
$var parameter 32 G dataWidth $end
$var parameter 72 H macType $end
$var reg 8 I data_out [7:0] $end
$upscope $end
$upscope $end
$upscope $end
$scope begin MAC[2] $end
$var parameter 3 J i $end
$scope begin genblk1 $end
$scope begin genblk1 $end
$var wire 8 K tmp2 [7:0] $end
$scope module mac $end
$var wire 8 L a [7:0] $end
$var wire 8 M b [7:0] $end
$var wire 1 * ce $end
$var wire 1 + clk $end
$var wire 1 , rst $end
$var wire 8 N tmp [7:0] $end
$var parameter 32 O dataWidth $end
$var parameter 72 P macType $end
$var reg 8 Q data_out [7:0] $end
$upscope $end
$scope module sr $end
$var wire 1 * ce $end
$var wire 1 + clk $end
$var wire 8 R data_in [7:0] $end
$var wire 8 S data_out [7:0] $end
$var wire 1 , rst $end
$var parameter 32 T dataWidth $end
$var parameter 33 U size $end
$scope begin genblk1[0] $end
$var parameter 2 V l $end
$upscope $end
$scope begin genblk1[1] $end
$var parameter 2 W l $end
$upscope $end
$scope begin genblk1[2] $end
$var parameter 3 X l $end
$upscope $end
$scope begin genblk1[3] $end
$var parameter 3 Y l $end
$upscope $end
$scope begin genblk1[4] $end
$var parameter 4 Z l $end
$upscope $end
$scope begin genblk1[5] $end
$var parameter 4 [ l $end
$upscope $end
$scope begin genblk1[6] $end
$var parameter 4 \ l $end
$upscope $end
$scope begin genblk1[7] $end
$var parameter 4 ] l $end
$upscope $end
$scope begin genblk1[8] $end
$var parameter 5 ^ l $end
$upscope $end
$scope begin genblk1[9] $end
$var parameter 5 _ l $end
$upscope $end
$scope begin genblk1[10] $end
$var parameter 5 ` l $end
$upscope $end
$scope begin genblk1[11] $end
$var parameter 5 a l $end
$upscope $end
$scope begin genblk1[12] $end
$var parameter 5 b l $end
$upscope $end
$scope begin genblk1[13] $end
$var parameter 5 c l $end
$upscope $end
$scope begin genblk1[14] $end
$var parameter 5 d l $end
$upscope $end
$scope begin genblk1[15] $end
$var parameter 5 e l $end
$upscope $end
$scope begin genblk1[16] $end
$var parameter 6 f l $end
$upscope $end
$scope begin genblk1[17] $end
$var parameter 6 g l $end
$upscope $end
$scope begin genblk1[18] $end
$var parameter 6 h l $end
$upscope $end
$scope begin genblk1[19] $end
$var parameter 6 i l $end
$upscope $end
$scope begin genblk1[20] $end
$var parameter 6 j l $end
$upscope $end
$scope begin genblk1[21] $end
$var parameter 6 k l $end
$upscope $end
$scope begin genblk1[22] $end
$var parameter 6 l l $end
$upscope $end
$scope begin genblk1[23] $end
$var parameter 6 m l $end
$upscope $end
$scope begin genblk1[24] $end
$var parameter 6 n l $end
$upscope $end
$scope begin genblk1[25] $end
$var parameter 6 o l $end
$upscope $end
$scope begin genblk1[26] $end
$var parameter 6 p l $end
$upscope $end
$scope begin genblk1[27] $end
$var parameter 6 q l $end
$upscope $end
$scope begin genblk1[28] $end
$var parameter 6 r l $end
$upscope $end
$scope begin genblk1[29] $end
$var parameter 6 s l $end
$upscope $end
$scope begin genblk1[30] $end
$var parameter 6 t l $end
$upscope $end
$scope begin genblk1[31] $end
$var parameter 6 u l $end
$upscope $end
$scope begin genblk1[32] $end
$var parameter 7 v l $end
$upscope $end
$scope begin genblk1[33] $end
$var parameter 7 w l $end
$upscope $end
$scope begin genblk1[34] $end
$var parameter 7 x l $end
$upscope $end
$scope begin genblk1[35] $end
$var parameter 7 y l $end
$upscope $end
$scope begin genblk1[36] $end
$var parameter 7 z l $end
$upscope $end
$scope begin genblk1[37] $end
$var parameter 7 { l $end
$upscope $end
$scope begin genblk1[38] $end
$var parameter 7 | l $end
$upscope $end
$scope begin genblk1[39] $end
$var parameter 7 } l $end
$upscope $end
$scope begin genblk1[40] $end
$var parameter 7 ~ l $end
$upscope $end
$scope begin genblk1[41] $end
$var parameter 7 !" l $end
$upscope $end
$scope begin genblk1[42] $end
$var parameter 7 "" l $end
$upscope $end
$scope begin genblk1[43] $end
$var parameter 7 #" l $end
$upscope $end
$scope begin genblk1[44] $end
$var parameter 7 $" l $end
$upscope $end
$scope begin genblk1[45] $end
$var parameter 7 %" l $end
$upscope $end
$scope begin genblk1[46] $end
$var parameter 7 &" l $end
$upscope $end
$scope begin genblk1[47] $end
$var parameter 7 '" l $end
$upscope $end
$scope begin genblk1[48] $end
$var parameter 7 (" l $end
$upscope $end
$scope begin genblk1[49] $end
$var parameter 7 )" l $end
$upscope $end
$scope begin genblk1[50] $end
$var parameter 7 *" l $end
$upscope $end
$scope begin genblk1[51] $end
$var parameter 7 +" l $end
$upscope $end
$scope begin genblk1[52] $end
$var parameter 7 ," l $end
$upscope $end
$scope begin genblk1[53] $end
$var parameter 7 -" l $end
$upscope $end
$scope begin genblk1[54] $end
$var parameter 7 ." l $end
$upscope $end
$upscope $end
$upscope $end
$upscope $end
$upscope $end
$scope begin MAC[3] $end
$var parameter 3 /" i $end
$scope begin genblk1 $end
$scope module mac $end
$var wire 8 0" a [7:0] $end
$var wire 8 1" b [7:0] $end
$var wire 1 * ce $end
$var wire 1 + clk $end
$var wire 1 , rst $end
$var wire 8 2" tmp [7:0] $end
$var parameter 32 3" dataWidth $end
$var parameter 72 4" macType $end
$var reg 8 5" data_out [7:0] $end
$upscope $end
$upscope $end
$upscope $end
$scope begin MAC[4] $end
$var parameter 4 6" i $end
$scope begin genblk1 $end
$scope module mac $end
$var wire 8 7" a [7:0] $end
$var wire 8 8" b [7:0] $end
$var wire 1 * ce $end
$var wire 1 + clk $end
$var wire 1 , rst $end
$var wire 8 9" tmp [7:0] $end
$var parameter 32 :" dataWidth $end
$var parameter 72 ;" macType $end
$var reg 8 <" data_out [7:0] $end
$upscope $end
$upscope $end
$upscope $end
$scope begin MAC[5] $end
$var parameter 4 =" i $end
$scope begin genblk1 $end
$scope begin genblk1 $end
$var wire 8 >" tmp2 [7:0] $end
$scope module mac $end
$var wire 8 ?" a [7:0] $end
$var wire 8 @" b [7:0] $end
$var wire 1 * ce $end
$var wire 1 + clk $end
$var wire 1 , rst $end
$var wire 8 A" tmp [7:0] $end
$var parameter 32 B" dataWidth $end
$var parameter 72 C" macType $end
$var reg 8 D" data_out [7:0] $end
$upscope $end
$scope module sr $end
$var wire 1 * ce $end
$var wire 1 + clk $end
$var wire 8 E" data_in [7:0] $end
$var wire 8 F" data_out [7:0] $end
$var wire 1 , rst $end
$var parameter 32 G" dataWidth $end
$var parameter 33 H" size $end
$scope begin genblk1[0] $end
$var parameter 2 I" l $end
$upscope $end
$scope begin genblk1[1] $end
$var parameter 2 J" l $end
$upscope $end
$scope begin genblk1[2] $end
$var parameter 3 K" l $end
$upscope $end
$scope begin genblk1[3] $end
$var parameter 3 L" l $end
$upscope $end
$scope begin genblk1[4] $end
$var parameter 4 M" l $end
$upscope $end
$scope begin genblk1[5] $end
$var parameter 4 N" l $end
$upscope $end
$scope begin genblk1[6] $end
$var parameter 4 O" l $end
$upscope $end
$scope begin genblk1[7] $end
$var parameter 4 P" l $end
$upscope $end
$scope begin genblk1[8] $end
$var parameter 5 Q" l $end
$upscope $end
$scope begin genblk1[9] $end
$var parameter 5 R" l $end
$upscope $end
$scope begin genblk1[10] $end
$var parameter 5 S" l $end
$upscope $end
$scope begin genblk1[11] $end
$var parameter 5 T" l $end
$upscope $end
$scope begin genblk1[12] $end
$var parameter 5 U" l $end
$upscope $end
$scope begin genblk1[13] $end
$var parameter 5 V" l $end
$upscope $end
$scope begin genblk1[14] $end
$var parameter 5 W" l $end
$upscope $end
$scope begin genblk1[15] $end
$var parameter 5 X" l $end
$upscope $end
$scope begin genblk1[16] $end
$var parameter 6 Y" l $end
$upscope $end
$scope begin genblk1[17] $end
$var parameter 6 Z" l $end
$upscope $end
$scope begin genblk1[18] $end
$var parameter 6 [" l $end
$upscope $end
$scope begin genblk1[19] $end
$var parameter 6 \" l $end
$upscope $end
$scope begin genblk1[20] $end
$var parameter 6 ]" l $end
$upscope $end
$scope begin genblk1[21] $end
$var parameter 6 ^" l $end
$upscope $end
$scope begin genblk1[22] $end
$var parameter 6 _" l $end
$upscope $end
$scope begin genblk1[23] $end
$var parameter 6 `" l $end
$upscope $end
$scope begin genblk1[24] $end
$var parameter 6 a" l $end
$upscope $end
$scope begin genblk1[25] $end
$var parameter 6 b" l $end
$upscope $end
$scope begin genblk1[26] $end
$var parameter 6 c" l $end
$upscope $end
$scope begin genblk1[27] $end
$var parameter 6 d" l $end
$upscope $end
$scope begin genblk1[28] $end
$var parameter 6 e" l $end
$upscope $end
$scope begin genblk1[29] $end
$var parameter 6 f" l $end
$upscope $end
$scope begin genblk1[30] $end
$var parameter 6 g" l $end
$upscope $end
$scope begin genblk1[31] $end
$var parameter 6 h" l $end
$upscope $end
$scope begin genblk1[32] $end
$var parameter 7 i" l $end
$upscope $end
$scope begin genblk1[33] $end
$var parameter 7 j" l $end
$upscope $end
$scope begin genblk1[34] $end
$var parameter 7 k" l $end
$upscope $end
$scope begin genblk1[35] $end
$var parameter 7 l" l $end
$upscope $end
$scope begin genblk1[36] $end
$var parameter 7 m" l $end
$upscope $end
$scope begin genblk1[37] $end
$var parameter 7 n" l $end
$upscope $end
$scope begin genblk1[38] $end
$var parameter 7 o" l $end
$upscope $end
$scope begin genblk1[39] $end
$var parameter 7 p" l $end
$upscope $end
$scope begin genblk1[40] $end
$var parameter 7 q" l $end
$upscope $end
$scope begin genblk1[41] $end
$var parameter 7 r" l $end
$upscope $end
$scope begin genblk1[42] $end
$var parameter 7 s" l $end
$upscope $end
$scope begin genblk1[43] $end
$var parameter 7 t" l $end
$upscope $end
$scope begin genblk1[44] $end
$var parameter 7 u" l $end
$upscope $end
$scope begin genblk1[45] $end
$var parameter 7 v" l $end
$upscope $end
$scope begin genblk1[46] $end
$var parameter 7 w" l $end
$upscope $end
$scope begin genblk1[47] $end
$var parameter 7 x" l $end
$upscope $end
$scope begin genblk1[48] $end
$var parameter 7 y" l $end
$upscope $end
$scope begin genblk1[49] $end
$var parameter 7 z" l $end
$upscope $end
$scope begin genblk1[50] $end
$var parameter 7 {" l $end
$upscope $end
$scope begin genblk1[51] $end
$var parameter 7 |" l $end
$upscope $end
$scope begin genblk1[52] $end
$var parameter 7 }" l $end
$upscope $end
$scope begin genblk1[53] $end
$var parameter 7 ~" l $end
$upscope $end
$scope begin genblk1[54] $end
$var parameter 7 !# l $end
$upscope $end
$upscope $end
$upscope $end
$upscope $end
$upscope $end
$scope begin MAC[6] $end
$var parameter 4 "# i $end
$scope begin genblk1 $end
$scope module mac $end
$var wire 8 ## a [7:0] $end
$var wire 8 $# b [7:0] $end
$var wire 1 * ce $end
$var wire 1 + clk $end
$var wire 1 , rst $end
$var wire 8 %# tmp [7:0] $end
$var parameter 32 &# dataWidth $end
$var parameter 72 '# macType $end
$var reg 8 (# data_out [7:0] $end
$upscope $end
$upscope $end
$upscope $end
$scope begin MAC[7] $end
$var parameter 4 )# i $end
$scope begin genblk1 $end
$scope module mac $end
$var wire 8 *# a [7:0] $end
$var wire 8 +# b [7:0] $end
$var wire 1 * ce $end
$var wire 1 + clk $end
$var wire 1 , rst $end
$var wire 8 ,# tmp [7:0] $end
$var parameter 32 -# dataWidth $end
$var parameter 72 .# macType $end
$var reg 8 /# data_out [7:0] $end
$upscope $end
$upscope $end
$upscope $end
$scope begin MAC[8] $end
$var parameter 5 0# i $end
$scope begin genblk1 $end
$scope begin genblk1 $end
$scope module mac $end
$var wire 8 1# a [7:0] $end
$var wire 8 2# b [7:0] $end
$var wire 1 * ce $end
$var wire 1 + clk $end
$var wire 1 , rst $end
$var wire 8 3# tmp [7:0] $end
$var parameter 32 4# dataWidth $end
$var parameter 72 5# macType $end
$var reg 8 6# data_out [7:0] $end
$upscope $end
$upscope $end
$upscope $end
$upscope $end
$scope begin genblk1[0] $end
$var parameter 2 7# j $end
$upscope $end
$scope begin genblk1[1] $end
$var parameter 2 8# j $end
$upscope $end
$scope begin genblk1[2] $end
$var parameter 3 9# j $end
$upscope $end
$scope begin genblk1[3] $end
$var parameter 3 :# j $end
$upscope $end
$scope begin genblk1[4] $end
$var parameter 4 ;# j $end
$upscope $end
$scope begin genblk1[5] $end
$var parameter 4 <# j $end
$upscope $end
$scope begin genblk1[6] $end
$var parameter 4 =# j $end
$upscope $end
$scope begin genblk1[7] $end
$var parameter 4 ># j $end
$upscope $end
$scope begin genblk1[8] $end
$var parameter 5 ?# j $end
$upscope $end
$upscope $end
$upscope $end
$enddefinitions $end
$comment Show the parameter values. $end
$dumpall
b1000 ?#
b111 >#
b110 =#
b101 <#
b100 ;#
b11 :#
b10 9#
b1 8#
b0 7#
b11011100110111101110010011011010110000101101100010011010110000101100011 5#
b1000 4#
b1000 0#
b11011100110111101110010011011010110000101101100010011010110000101100011 .#
b1000 -#
b111 )#
b11011100110111101110010011011010110000101101100010011010110000101100011 '#
b1000 &#
b110 "#
b110110 !#
b110101 ~"
b110100 }"
b110011 |"
b110010 {"
b110001 z"
b110000 y"
b101111 x"
b101110 w"
b101101 v"
b101100 u"
b101011 t"
b101010 s"
b101001 r"
b101000 q"
b100111 p"
b100110 o"
b100101 n"
b100100 m"
b100011 l"
b100010 k"
b100001 j"
b100000 i"
b11111 h"
b11110 g"
b11101 f"
b11100 e"
b11011 d"
b11010 c"
b11001 b"
b11000 a"
b10111 `"
b10110 _"
b10101 ^"
b10100 ]"
b10011 \"
b10010 ["
b10001 Z"
b10000 Y"
b1111 X"
b1110 W"
b1101 V"
b1100 U"
b1011 T"
b1010 S"
b1001 R"
b1000 Q"
b111 P"
b110 O"
b101 N"
b100 M"
b11 L"
b10 K"
b1 J"
b0 I"
b110111 H"
b1000 G"
b11011100110111101110010011011010110000101101100010011010110000101100011 C"
b1000 B"
b101 ="
b11011100110111101110010011011010110000101101100010011010110000101100011 ;"
b1000 :"
b100 6"
b11011100110111101110010011011010110000101101100010011010110000101100011 4"
b1000 3"
b11 /"
b110110 ."
b110101 -"
b110100 ,"
b110011 +"
b110010 *"
b110001 )"
b110000 ("
b101111 '"
b101110 &"
b101101 %"
b101100 $"
b101011 #"
b101010 ""
b101001 !"
b101000 ~
b100111 }
b100110 |
b100101 {
b100100 z
b100011 y
b100010 x
b100001 w
b100000 v
b11111 u
b11110 t
b11101 s
b11100 r
b11011 q
b11010 p
b11001 o
b11000 n
b10111 m
b10110 l
b10101 k
b10100 j
b10011 i
b10010 h
b10001 g
b10000 f
b1111 e
b1110 d
b1101 c
b1100 b
b1011 a
b1010 `
b1001 _
b1000 ^
b111 ]
b110 \
b101 [
b100 Z
b11 Y
b10 X
b1 W
b0 V
b110111 U
b1000 T
b11011100110111101110010011011010110000101101100010011010110000101100011 P
b1000 O
b10 J
b11011100110111101110010011011010110000101101100010011010110000101100011 H
b1000 G
b1 C
b11011100110111101110010011011010110000101101100010011010110000101100011 A
b1000 @
b0 <
b1 8
b1000 7
b111010 6
b11 5
b1 (
b1000 '
b101000 &
b111010 %
b11 $
$end
#0
$dumpvars
bx 6#
bx 3#
b11111110 2#
b0 1#
bx /#
bx ,#
b110 +#
b0 *#
bx (#
bx %#
b11111011 $#
b0 ##
bx F"
bx E"
bx D"
bx A"
b11111100 @"
b0 ?"
bx >"
bx <"
bx 9"
b11111101 8"
b0 7"
bx 5"
bx 2"
b11111000 1"
b0 0"
bx S
bx R
bx Q
bx N
b11111011 M
b0 L
bx K
bx I
bx F
b11 E
b0 D
bx B
b0 ?
b11 >
b0 =
b0 ;
b0 :
b0 9
bx 4
b111111100000011011111011111111001111110111111000111110110000001100000011 3
b0 2
b0 1
b0 0
bx /
b111111100000011011111011111111001111110111111000111110110000001100000011 .
b0 -
1,
0+
0*
b0 )
bx #
x"
x!
$end
#20000
b0 B
b0 F
b0 I
b0 N
b0 K
b0 Q
b0 R
b0 S
b0 2"
b0 5"
b0 9"
b0 <"
b0 A"
b0 >"
b0 D"
b0 E"
b0 F"
b0 %#
b0 (#
b0 ,#
b0 /#
b0 3#
b0 #
b0 4
b0 6#
0!
0"
1+
#40000
0+
0,
#60000
b1 :
b1 9
b100 #
b100 4
b100 6#
b11110100 /#
b11110100 3#
b1010 (#
b1010 ,#
b1000 >"
b1000 D"
b1000 E"
b110 <"
b110 A"
b10000 5"
b10000 9"
b1010 K
b1010 Q
b1010 R
b11111010 I
b11111010 N
b11111010 B
b11111010 F
1+
b11111110 -
b11111110 2
b11111110 =
b11111110 D
b11111110 L
b11111110 0"
b11111110 7"
b11111110 ?"
b11111110 ##
b11111110 *#
b11111110 1#
b0 /
1*
#80000
0+
#100000
b1100 B
b1100 F
b110 I
b110 N
b11100110 K
b11100110 Q
b11100110 R
b11100000 5"
b11100000 9"
b100 <"
b100 A"
b11110110 >"
b11110110 D"
b11110110 E"
b11101100 (#
b11101100 ,#
b100010 /#
b100010 3#
b11101100 #
b11101100 4
b11101100 6#
b10 :
b10 9
1+
b100 -
b100 2
b100 =
b100 D
b100 L
b100 0"
b100 7"
b100 ?"
b100 ##
b100 *#
b100 1#
b1 /
#120000
0+
#140000
b11 :
b11 9
b110000 #
b110000 4
b110000 6#
b11000010 /#
b11000010 3#
b100011 (#
b100011 ,#
b100000 >"
b100000 D"
b100000 E"
b11110101 <"
b11110101 A"
b111000 5"
b111000 9"
b101001 K
b101001 Q
b101001 R
b11110111 I
b11110111 N
b11101011 B
b11101011 F
1+
b11111001 -
b11111001 2
b11111001 =
b11111001 D
b11111001 L
b11111001 0"
b11111001 7"
b11111001 ?"
b11111001 ##
b11111001 *#
b11111001 1#
b10 /
#160000
0+
#180000
b11110001 B
b11110001 F
b11011100 I
b11011100 N
b10000 K
b10000 Q
b10000 R
b101000 5"
b101000 9"
b1000111 <"
b1000111 A"
b1001 >"
b1001 D"
b1001 E"
b11001 (#
b11001 ,#
b101 /#
b101 3#
b11001100 #
b11001100 4
b11001100 6#
b100 :
b100 9
1+
b11111011 -
b11111011 2
b11111011 =
b11111011 D
b11111011 L
b11111011 0"
b11111011 7"
b11111011 ?"
b11111011 ##
b11111011 *#
b11111011 1#
b11 /
#200000
0+
#220000
b101 :
b101 9
b11111011 #
b11111011 4
b11111011 6#
b110111 /#
b110111 3#
b11100111 (#
b11100111 ,#
b110011 >"
b110011 D"
b110011 E"
b11001 <"
b11001 A"
b11011000 5"
b11011000 9"
b11000011 K
b11000011 Q
b11000011 R
b0 I
b0 N
b1111 B
b1111 F
1+
b101 -
b101 2
b101 =
b101 D
b101 L
b101 0"
b101 7"
b101 ?"
b101 ##
b101 *#
b101 1#
b100 /
#240000
0+
#260000
b110 B
b110 F
b10101 I
b10101 N
b11110110 K
b11110110 Q
b11110110 R
b11110000 5"
b11110000 9"
b11010010 <"
b11010010 A"
b10001 >"
b10001 D"
b10001 E"
b11110110 (#
b11110110 ,#
b11110011 /#
b11110011 3#
b110011 #
b110011 4
b110011 6#
b110 :
b110 9
1+
b10 -
b10 2
b10 =
b10 D
b10 L
b10 0"
b10 7"
b10 ?"
b10 ##
b10 *#
b10 1#
b101 /
#280000
0+
#300000
b111 :
b111 9
b11101101 #
b11101101 4
b11101101 6#
b1000 /#
b1000 3#
b11110001 (#
b11110001 ,#
b11000110 >"
b11000110 D"
b11000110 E"
b11100111 <"
b11100111 A"
b11101000 5"
b11101000 9"
b110 K
b110 Q
b110 R
b1111 I
b1111 N
b1001 B
b1001 F
1+
b11 -
b11 2
b11 =
b11 D
b11 L
b11 0"
b11 7"
b11 ?"
b11 ##
b11 *#
b11 1#
b110 /
#320000
0+
#340000
b1100 B
b1100 F
b10101 I
b10101 N
b11111011 K
b11111011 Q
b11111011 R
b11100000 5"
b11100000 9"
b11011100 <"
b11011100 A"
b11010111 >"
b11010111 D"
b11010111 E"
b11101100 (#
b11101100 ,#
b1001 /#
b1001 3#
b0 #
b0 4
b0 6#
b1000 :
b1000 9
1+
b100 -
b100 2
b100 =
b100 D
b100 L
b100 0"
b100 7"
b100 ?"
b100 ##
b100 *#
b100 1#
b111 /
#360000
0+
#380000
b1001 :
b1001 9
b10011 #
b10011 4
b10011 6#
b11001110 /#
b11001110 3#
b11001 (#
b11001 ,#
b11110000 >"
b11110000 D"
b11110000 E"
b11101111 <"
b11101111 A"
b101000 5"
b101000 9"
b101110 K
b101110 Q
b101110 R
b11111101 I
b11111101 N
b11110001 B
b11110001 F
1+
b11111011 -
b11111011 2
b11111011 =
b11111011 D
b11111011 L
b11111011 0"
b11111011 7"
b11111011 ?"
b11111011 ##
b11111011 *#
b11111011 1#
b1000 /
#400000
0+
#420000
b11101110 B
b11101110 F
b11011111 I
b11011111 N
b11011 K
b11011 Q
b11011 R
b110000 5"
b110000 9"
b111010 <"
b111010 A"
b111 >"
b111 D"
b111 E"
b11110 (#
b11110 ,#
b11110101 /#
b11110101 3#
b11011010 #
b11011010 4
b11011010 6#
b1010 :
b1010 9
1+
b11111010 -
b11111010 2
b11111010 =
b11111010 D
b11111010 L
b11111010 0"
b11111010 7"
b11111010 ?"
b11111010 ##
b11111010 *#
b11111010 1#
b1001 /
#440000
0+
#460000
b1011 :
b1011 9
b11111111 #
b11111111 4
b11111111 6#
b0 /#
b0 3#
b11001 (#
b11001 ,#
b1001110 >"
b1001110 D"
b1001110 E"
b111111 <"
b111111 A"
b101000 5"
b101000 9"
b11111000 K
b11111000 Q
b11111000 R
b11110001 B
b11110001 F
1+
b11111011 -
b11111011 2
b11111011 =
b11111011 D
b11111011 L
b11111011 0"
b11111011 7"
b11111011 ?"
b11111011 ##
b11111011 *#
b11111011 1#
b1010 /
#480000
0+
#500000
b10010 B
b10010 F
b11 I
b11 N
b11000001 K
b11000001 Q
b11000001 R
b11010000 5"
b11010000 9"
b10110 <"
b10110 A"
b100111 >"
b100111 D"
b100111 E"
b11100010 (#
b11100010 ,#
b111101 /#
b111101 3#
b11110100 #
b11110100 4
b11110100 6#
b1100 :
b1100 9
1+
b110 -
b110 2
b110 =
b110 D
b110 L
b110 0"
b110 7"
b110 ?"
b110 ##
b110 *#
b110 1#
b1011 /
#520000
0+
#540000
b1101 :
b1101 9
b1000011 #
b1000011 4
b1000011 6#
b11010000 /#
b11010000 3#
b1111 (#
b1111 ,#
b100010 >"
b100010 D"
b100010 E"
b11011001 <"
b11011001 A"
b11000 5"
b11000 9"
b10010 K
b10010 Q
b10010 R
b1001 I
b1001 N
b11110111 B
b11110111 F
1+
b11111101 -
b11111101 2
b11111101 =
b11111101 D
b11111101 L
b11111101 0"
b11111101 7"
b11111101 ?"
b11111101 ##
b11111101 *#
b11111101 1#
b1100 /
#560000
0+
#580000
b11101110 I
b11101110 N
b11000 K
b11000 Q
b11000 R
b100001 <"
b100001 A"
b11100101 >"
b11100101 D"
b11100101 E"
b11111101 /#
b11111101 3#
b11010110 #
b11010110 4
b11010110 6#
b1110 :
b1110 9
1+
b1101 /
#600000
0+
#620000
b1111 :
b1111 9
b11110001 #
b11110001 4
b11110001 6#
b110011 /#
b110011 3#
b11100010 (#
b11100010 ,#
b1001 >"
b1001 D"
b1001 E"
b110 <"
b110 A"
b11010000 5"
b11010000 9"
b11010000 K
b11010000 Q
b11010000 R
b1001 I
b1001 N
b10010 B
b10010 F
1+
b110 -
b110 2
b110 =
b110 D
b110 L
b110 0"
b110 7"
b110 ?"
b110 ##
b110 *#
b110 1#
b1110 /
#640000
0+
#660000
b110 B
b110 F
b11000 I
b11000 N
b11111111 K
b11111111 Q
b11111111 R
b11110000 5"
b11110000 9"
b11001010 <"
b11001010 A"
b11111110 >"
b11111110 D"
b11111110 E"
b11110110 (#
b11110110 ,#
b11101110 /#
b11101110 3#
b101111 #
b101111 4
b101111 6#
b10000 :
b10000 9
1+
b10 -
b10 2
b10 =
b10 D
b10 L
b10 0"
b10 7"
b10 ?"
b10 ##
b10 *#
b10 1#
b1111 /
#680000
0+
#700000
b10001 :
b10001 9
b11110110 #
b11110110 4
b11110110 6#
b11011110 /#
b11011110 3#
b10100 (#
b10100 ,#
b11011010 >"
b11011010 D"
b11011010 E"
b11111100 <"
b11111100 A"
b100000 5"
b100000 9"
b101100 K
b101100 Q
b101100 R
b11111010 I
b11111010 N
b11110100 B
b11110100 F
1+
b11111100 -
b11111100 2
b11111100 =
b11111100 D
b11111100 L
b11111100 0"
b11111100 7"
b11111100 ?"
b11111100 ##
b11111100 *#
b11111100 1#
b10000 /
#720000
0+
#740000
b11110001 B
b11110001 F
b11100101 I
b11100101 N
b10011 K
b10011 Q
b10011 R
b101000 5"
b101000 9"
b101111 <"
b101111 A"
b10000 >"
b10000 D"
b10000 E"
b11001 (#
b11001 ,#
b11110110 /#
b11110110 3#
b11101000 #
b11101000 4
b11101000 6#
b10010 :
b10010 9
1+
b11111011 -
b11111011 2
b11111011 =
b11111011 D
b11111011 L
b11111011 0"
b11111011 7"
b11111011 ?"
b11111011 ##
b11111011 *#
b11111011 1#
b10001 /
#760000
0+
#780000
b10011 :
b10011 9
b11110000 #
b11110000 4
b11110000 6#
b101011 /#
b101011 3#
b11110001 (#
b11110001 ,#
b100011 >"
b100011 D"
b100011 E"
b11111 <"
b11111 A"
b11101000 5"
b11101000 9"
b11010110 K
b11010110 Q
b11010110 R
b11111010 I
b11111010 N
b1001 B
b1001 F
1+
b11 -
b11 2
b11 =
b11 D
b11 L
b11 0"
b11 7"
b11 ?"
b11 ##
b11 *#
b11 1#
b10010 /
#800000
0+
#820000
b11111101 B
b11111101 F
b110 I
b110 N
b11111111 K
b11111111 Q
b11111111 R
b1000 5"
b1000 9"
b11101011 <"
b11101011 A"
b101 (#
b101 ,#
b11101011 /#
b11101011 3#
b101101 #
b101101 4
b101101 6#
b10100 :
b10100 9
1+
b11111111 -
b11111111 2
b11111111 =
b11111111 D
b11111111 L
b11111111 0"
b11111111 7"
b11111111 ?"
b11111111 ##
b11111111 *#
b11111111 1#
b10011 /
#840000
0+
#860000
b10101 :
b10101 9
b11110011 #
b11110011 4
b11110011 6#
b11101101 /#
b11101101 3#
b10100 (#
b10100 ,#
b11111011 >"
b11111011 D"
b11111011 E"
b10100 <"
b10100 A"
b100000 5"
b100000 9"
b11010 K
b11010 Q
b11010 R
b11110001 I
b11110001 N
b11110100 B
b11110100 F
1+
b11111100 -
b11111100 2
b11111100 =
b11111100 D
b11111100 L
b11111100 0"
b11111100 7"
b11111100 ?"
b11111100 ##
b11111100 *#
b11111100 1#
b10100 /
#880000
0+
#900000
b11 B
b11 F
b11110111 I
b11110111 N
b11101100 K
b11101100 Q
b11101100 R
b11111000 5"
b11111000 9"
b11101 <"
b11101 A"
b10000 >"
b10000 D"
b10000 E"
b11111011 (#
b11111011 ,#
b11010 /#
b11010 3#
b11101011 #
b11101011 4
b11101011 6#
b10110 :
b10110 9
1+
b1 -
b1 2
b1 =
b1 D
b1 L
b1 0"
b1 7"
b1 ?"
b1 ##
b1 *#
b1 1#
b10101 /
#920000
0+
#940000
b10111 :
b10111 9
b11100 #
b11100 4
b11100 6#
b11110101 /#
b11110101 3#
b101 (#
b101 ,#
b100001 >"
b100001 D"
b100001 E"
b11111011 <"
b11111011 A"
b1000 5"
b1000 9"
b11111100 K
b11111100 Q
b11111100 R
b0 I
b0 N
b11111101 B
b11111101 F
1+
b11111111 -
b11111111 2
b11111111 =
b11111111 D
b11111111 L
b11111111 0"
b11111111 7"
b11111111 ?"
b11111111 ##
b11111111 *#
b11111111 1#
b10110 /
#960000
0+
#980000
b1100 B
b1100 F
b1001 I
b1001 N
b11101100 K
b11101100 Q
b11101100 R
b11100000 5"
b11100000 9"
b11111100 <"
b11111100 A"
b11101011 >"
b11101011 D"
b11101011 E"
b11101100 (#
b11101100 ,#
b11101 /#
b11101 3#
b11101101 #
b11101101 4
b11101101 6#
b11000 :
b11000 9
1+
b100 -
b100 2
b100 =
b100 D
b100 L
b100 0"
b100 7"
b100 ?"
b100 ##
b100 *#
b100 1#
b10111 /
#1000000
0+
