testbench/accelerator/wave.vcd
$date
	Thu Nov 14 15:57:21 2024
$end
$version
	Icarus Verilog
$end
$timescale
	1ps
$end
$scope module accelerator_tb $end
$var wire 1 ! valid_op $end
$var wire 1 " end_op $end
$var wire 16 # data_out [15:0] $end
$var parameter 32 $ N $end
$var parameter 32 % Q $end
$var parameter 32 & clkp $end
$var parameter 9 ' k $end
$var parameter 9 ( n $end
$var parameter 9 ) p $end
$var parameter 32 * s $end
$var reg 16 + activation [15:0] $end
$var reg 1 , ce $end
$var reg 1 - clk $end
$var reg 1 . global_rst $end
$var reg 144 / weight [143:0] $end
$var integer 32 0 i [31:0] $end
$scope module uut $end
$var wire 16 1 activation [15:0] $end
$var wire 1 , ce $end
$var wire 1 - clk $end
$var wire 1 . global_rst $end
$var wire 1 2 valid_ip $end
$var wire 144 3 weight [143:0] $end
$var wire 1 ! valid_op $end
$var wire 1 4 valid_conv $end
$var wire 16 5 relu_op [15:0] $end
$var wire 1 " end_op $end
$var wire 1 6 end_conv $end
$var wire 16 7 data_out [15:0] $end
$var wire 16 8 conv_op [15:0] $end
$var parameter 32 9 N $end
$var parameter 32 : Q $end
$var parameter 9 ; k $end
$var parameter 9 < n $end
$var parameter 9 = p $end
$var parameter 32 > s $end
$scope module act $end
$var wire 16 ? out_relu [15:0] $end
$var wire 16 @ in_relu [15:0] $end
$var parameter 32 A N $end
$var parameter 32 B Q $end
$upscope $end
$scope module conv $end
$var wire 16 C activation [15:0] $end
$var wire 1 , ce $end
$var wire 1 - clk $end
$var wire 1 . global_rst $end
$var wire 144 D weight [143:0] $end
$var wire 16 E conv_op [15:0] $end
$var parameter 32 F N $end
$var parameter 32 G Q $end
$var parameter 9 H k $end
$var parameter 9 I n $end
$var parameter 32 J s $end
$var reg 3 K col_counter [2:0] $end
$var reg 5 L cycle_counter [4:0] $end
$var reg 1 6 end_conv $end
$var reg 3 M row_counter [2:0] $end
$var reg 1 4 valid_conv $end
$scope begin genblk1[0] $end
$var parameter 2 N j $end
$upscope $end
$scope begin genblk1[1] $end
$var parameter 2 O j $end
$upscope $end
$scope begin genblk1[2] $end
$var parameter 3 P j $end
$upscope $end
$scope begin genblk1[3] $end
$var parameter 3 Q j $end
$upscope $end
$scope begin genblk1[4] $end
$var parameter 4 R j $end
$upscope $end
$scope begin genblk1[5] $end
$var parameter 4 S j $end
$upscope $end
$scope begin genblk1[6] $end
$var parameter 4 T j $end
$upscope $end
$scope begin genblk1[7] $end
$var parameter 4 U j $end
$upscope $end
$scope begin genblk1[8] $end
$var parameter 5 V j $end
$upscope $end
$scope begin genblk2[0] $end
$var parameter 2 W i $end
$scope begin genblk1 $end
$scope module mac $end
$var wire 16 X a [15:0] $end
$var wire 16 Y b [15:0] $end
$var wire 1 , ce $end
$var wire 1 - clk $end
$var wire 1 . rst $end
$var wire 16 Z sum [15:0] $end
$var parameter 32 [ N $end
$var parameter 32 \ Q $end
$var reg 16 ] data_out [15:0] $end
$upscope $end
$upscope $end
$upscope $end
$scope begin genblk2[1] $end
$var parameter 2 ^ i $end
$scope begin genblk1 $end
$scope module mac $end
$var wire 16 _ a [15:0] $end
$var wire 16 ` b [15:0] $end
$var wire 1 , ce $end
$var wire 1 - clk $end
$var wire 1 . rst $end
$var wire 16 a sum [15:0] $end
$var parameter 32 b N $end
$var parameter 32 c Q $end
$var reg 16 d data_out [15:0] $end
$upscope $end
$upscope $end
$upscope $end
$scope begin genblk2[2] $end
$var parameter 3 e i $end
$scope begin genblk1 $end
$scope begin genblk1 $end
$var wire 16 f tmp2 [15:0] $end
$scope module SR $end
$var wire 1 , ce $end
$var wire 1 - clk $end
$var wire 16 g data_out [15:0] $end
$var wire 1 . rst $end
$var wire 16 h data_in [15:0] $end
$var parameter 32 i N $end
$var parameter 10 j size $end
$scope begin genblk1[0] $end
$var parameter 2 k l $end
$upscope $end
$upscope $end
$scope module mac $end
$var wire 16 l a [15:0] $end
$var wire 16 m b [15:0] $end
$var wire 1 , ce $end
$var wire 1 - clk $end
$var wire 1 . rst $end
$var wire 16 n sum [15:0] $end
$var parameter 32 o N $end
$var parameter 32 p Q $end
$var reg 16 q data_out [15:0] $end
$upscope $end
$upscope $end
$upscope $end
$upscope $end
$scope begin genblk2[3] $end
$var parameter 3 r i $end
$scope begin genblk1 $end
$scope module mac $end
$var wire 16 s a [15:0] $end
$var wire 16 t b [15:0] $end
$var wire 1 , ce $end
$var wire 1 - clk $end
$var wire 1 . rst $end
$var wire 16 u sum [15:0] $end
$var parameter 32 v N $end
$var parameter 32 w Q $end
$var reg 16 x data_out [15:0] $end
$upscope $end
$upscope $end
$upscope $end
$scope begin genblk2[4] $end
$var parameter 4 y i $end
$scope begin genblk1 $end
$scope module mac $end
$var wire 16 z a [15:0] $end
$var wire 16 { b [15:0] $end
$var wire 1 , ce $end
$var wire 1 - clk $end
$var wire 1 . rst $end
$var wire 16 | sum [15:0] $end
$var parameter 32 } N $end
$var parameter 32 ~ Q $end
$var reg 16 !" data_out [15:0] $end
$upscope $end
$upscope $end
$upscope $end
$scope begin genblk2[5] $end
$var parameter 4 "" i $end
$scope begin genblk1 $end
$scope begin genblk1 $end
$var wire 16 #" tmp2 [15:0] $end
$scope module SR $end
$var wire 1 , ce $end
$var wire 1 - clk $end
$var wire 16 $" data_out [15:0] $end
$var wire 1 . rst $end
$var wire 16 %" data_in [15:0] $end
$var parameter 32 &" N $end
$var parameter 10 '" size $end
$scope begin genblk1[0] $end
$var parameter 2 (" l $end
$upscope $end
$upscope $end
$scope module mac $end
$var wire 16 )" a [15:0] $end
$var wire 16 *" b [15:0] $end
$var wire 1 , ce $end
$var wire 1 - clk $end
$var wire 1 . rst $end
$var wire 16 +" sum [15:0] $end
$var parameter 32 ," N $end
$var parameter 32 -" Q $end
$var reg 16 ." data_out [15:0] $end
$upscope $end
$upscope $end
$upscope $end
$upscope $end
$scope begin genblk2[6] $end
$var parameter 4 /" i $end
$scope begin genblk1 $end
$scope module mac $end
$var wire 16 0" a [15:0] $end
$var wire 16 1" b [15:0] $end
$var wire 1 , ce $end
$var wire 1 - clk $end
$var wire 1 . rst $end
$var wire 16 2" sum [15:0] $end
$var parameter 32 3" N $end
$var parameter 32 4" Q $end
$var reg 16 5" data_out [15:0] $end
$upscope $end
$upscope $end
$upscope $end
$scope begin genblk2[7] $end
$var parameter 4 6" i $end
$scope begin genblk1 $end
$scope module mac $end
$var wire 16 7" a [15:0] $end
$var wire 16 8" b [15:0] $end
$var wire 1 , ce $end
$var wire 1 - clk $end
$var wire 1 . rst $end
$var wire 16 9" sum [15:0] $end
$var parameter 32 :" N $end
$var parameter 32 ;" Q $end
$var reg 16 <" data_out [15:0] $end
$upscope $end
$upscope $end
$upscope $end
$scope begin genblk2[8] $end
$var parameter 5 =" i $end
$scope begin genblk1 $end
$scope begin genblk1 $end
$scope module mac $end
$var wire 16 >" a [15:0] $end
$var wire 16 ?" b [15:0] $end
$var wire 1 , ce $end
$var wire 1 - clk $end
$var wire 1 . rst $end
$var wire 16 @" sum [15:0] $end
$var parameter 32 A" N $end
$var parameter 32 B" Q $end
$var reg 16 C" data_out [15:0] $end
$upscope $end
$upscope $end
$upscope $end
$upscope $end
$upscope $end
$scope module max_pooling $end
$var wire 1 2 ce $end
$var wire 1 - clk $end
$var wire 16 D" data_in [15:0] $end
$var wire 16 E" data_out [15:0] $end
$var wire 1 . master_rst $end
$var wire 16 F" sr_op [15:0] $end
$var wire 1 ! valid_op $end
$var wire 2 G" sel [1:0] $end
$var wire 1 H" rst_m $end
$var wire 1 I" ovr $end
$var wire 16 J" mux_out [15:0] $end
$var wire 16 K" max_reg_op [15:0] $end
$var wire 1 L" load_sr $end
$var wire 1 M" global_rst $end
$var wire 1 " end_op $end
$var wire 16 N" div_op [15:0] $end
$var wire 16 O" comp_op [15:0] $end
$var parameter 32 P" N $end
$var parameter 32 Q" Q $end
$var parameter 33 R" m $end
$var parameter 9 S" p $end
$var parameter 16 T" p_sqr_inv $end
$var parameter 32 U" ptype $end
$scope module SR $end
$var wire 1 - clk $end
$var wire 16 V" data_out [15:0] $end
$var wire 1 W" rst $end
$var wire 16 X" data_in [15:0] $end
$var wire 1 L" ce $end
$var parameter 32 Y" N $end
$var parameter 33 Z" size $end
$scope begin genblk1[0] $end
$var parameter 2 [" l $end
$upscope $end
$upscope $end
$scope module cmp $end
$var wire 1 2 ce $end
$var wire 16 \" ip1 [15:0] $end
$var wire 16 ]" ip2_2cmp [15:0] $end
$var wire 16 ^" ip2 [15:0] $end
$var wire 16 _" ip1_2cmp [15:0] $end
$var wire 16 `" comp_op [15:0] $end
$var parameter 32 a" N $end
$var parameter 32 b" Q $end
$var parameter 32 c" ptype $end
$var reg 16 d" temp [15:0] $end
$upscope $end
$scope module log $end
$var wire 1 2 ce $end
$var wire 1 - clk $end
$var wire 1 . master_rst $end
$var parameter 33 e" m $end
$var parameter 9 f" p $end
$var reg 1 " end_op $end
$var reg 1 M" global_rst $end
$var reg 1 L" load_sr $end
$var reg 1 ! op_en $end
$var reg 1 H" rst_m $end
$var reg 2 g" sel [1:0] $end
$var integer 32 h" col_count [31:0] $end
$var integer 32 i" count [31:0] $end
$var integer 32 j" nbgh_row_count [31:0] $end
$var integer 32 k" row_count [31:0] $end
$upscope $end
$scope module m1 $end
$var wire 1 2 ce $end
$var wire 1 - clk $end
$var wire 16 l" din [15:0] $end
$var wire 1 . master_rst $end
$var wire 1 H" rst_m $end
$var parameter 32 m" N $end
$var reg 16 n" reg_op [15:0] $end
$upscope $end
$scope module mul $end
$var wire 16 o" a [15:0] $end
$var wire 16 p" b [15:0] $end
$var wire 1 - clk $end
$var wire 1 H" rst $end
$var wire 15 q" quantized_result_2cmp [14:0] $end
$var wire 15 r" quantized_result [14:0] $end
$var wire 16 s" q_result [15:0] $end
$var wire 1 I" overflow $end
$var wire 16 t" multiplier [15:0] $end
$var wire 16 u" multiplicand [15:0] $end
$var wire 32 v" f_result [31:0] $end
$var wire 16 w" b_2cmp [15:0] $end
$var wire 16 x" a_2cmp [15:0] $end
$var parameter 32 y" N $end
$var parameter 32 z" Q $end
$upscope $end
$scope module mux $end
$var wire 16 {" ip1 [15:0] $end
$var wire 16 |" ip2 [15:0] $end
$var wire 2 }" sel [1:0] $end
$var wire 16 ~" op [15:0] $end
$var parameter 32 !# N $end
$upscope $end
$upscope $end
$upscope $end
$upscope $end
$enddefinitions $end
$comment Show the parameter values. $end
$dumpall
b10000 !#
b1100 z"
b10000 y"
b10000 m"
b10 f"
b10 e"
b1 c"
b1100 b"
b10000 a"
b0 ["
b1 Z"
b10000 Y"
b1 U"
b10000000000 T"
b10 S"
b10 R"
b1100 Q"
b10000 P"
b1100 B"
b10000 A"
b1000 ="
b1100 ;"
b10000 :"
b111 6"
b1100 4"
b10000 3"
b110 /"
b1100 -"
b10000 ,"
b0 ("
b1 '"
b10000 &"
b101 ""
b1100 ~
b10000 }
b100 y
b1100 w
b10000 v
b11 r
b1100 p
b10000 o
b0 k
b1 j
b10000 i
b10 e
b1100 c
b10000 b
b1 ^
b1100 \
b10000 [
b0 W
b1000 V
b111 U
b110 T
b101 S
b100 R
b11 Q
b10 P
b1 O
b0 N
b1 J
b100 I
b11 H
b1100 G
b10000 F
b1100 B
b10000 A
b1 >
b10 =
b100 <
b11 ;
b1100 :
b10000 9
b1 *
b10 )
b100 (
b11 '
b10100 &
b1100 %
b10000 $
$end
#0
$dumpvars
bx ~"
bx }"
bx |"
bx {"
bx x"
b1111110000000000 w"
bx v"
bx u"
b10000000000 t"
bx s"
bx r"
bx q"
b10000000000 p"
bx o"
bx n"
bx l"
b0 k"
bx j"
b0 i"
b0 h"
bx g"
bx d"
bx `"
bx _"
bx ^"
bx ]"
bx \"
bx X"
0W"
bx V"
bx O"
bx N"
xM"
xL"
bx K"
bx J"
xI"
xH"
bx G"
bx F"
bx E"
bx D"
bx C"
bx @"
b0 ?"
b0 >"
bx <"
bx 9"
b0 8"
b0 7"
bx 5"
bx 2"
b0 1"
b0 0"
bx ."
bx +"
b0 *"
b0 )"
bx %"
bx $"
bx #"
bx !"
bx |
b0 {
b0 z
bx x
bx u
b0 t
b0 s
bx q
bx n
b0 m
b0 l
bx h
bx g
bx f
bx d
bx a
b0 `
b0 _
bx ]
b0 Z
b0 Y
b0 X
b0 M
b0 L
b0 K
bx E
b0 D
b0 C
bx @
bx ?
bx 8
bx 7
x6
bx 5
x4
b0 3
x2
b0 1
bx 0
b0 /
0.
0-
0,
b0 +
bx #
x"
x!
$end
#10000
0!
06
1-
#20000
0-
#30000
1-
#40000
0-
#50000
1-
#60000
0-
#70000
1-
#80000
0-
#90000
1-
#100000
b0 O"
b0 X"
b0 `"
b0 l"
02
04
xW"
0-
1.
#110000
b0 q"
0I"
b0 r"
b0 v"
b1000000000000000 ]"
b1000000000000000 _"
b1000000000000000 x"
b0 u"
b0 N"
b0 s"
b0 d"
0W"
b0 J"
b0 ^"
b0 ~"
b0 5
b0 ?
b0 D"
b0 \"
b0 #
b0 7
b0 E"
b0 K"
b0 n"
b0 o"
b0 |"
b0 j"
b11111111111111111111111111111111 i"
b11111111111111111111111111111111 h"
0"
0M"
0H"
0L"
b0 G"
b0 g"
b0 }"
b0 8
b0 @
b0 E
b0 C"
b0 <"
b0 @"
b0 5"
b0 9"
b0 $"
b0 2"
b0 #"
b0 %"
b0 ."
b0 !"
b0 +"
b0 x
b0 |
b0 g
b0 u
b0 f
b0 h
b0 q
b0 d
b0 n
b0 ]
b0 a
1-
#120000
0-
#130000
1-
#140000
0-
#150000
1-
0.
#160000
b1 `
b10 m
b11 t
b100 {
b101 *"
b110 1"
b111 8"
b1000 ?"
0-
b0 0
b100000000000000001110000000000000110000000000000010100000000000001000000000000000011000000000000001000000000000000010000000000000000 /
b100000000000000001110000000000000110000000000000010100000000000001000000000000000011000000000000001000000000000000010000000000000000 3
b100000000000000001110000000000000110000000000000010100000000000001000000000000000011000000000000001000000000000000010000000000000000 D
1,
#170000
b1 L
b1 K
1-
#180000
0-
b1 +
b1 1
b1 C
b1 X
b1 _
b1 l
b1 s
b1 z
b1 )"
b1 0"
b1 7"
b1 >"
b1 0
#190000
b1111111111111000 _"
b1000 d"
b1000 5
b1000 ?
b1000 D"
b1000 \"
b1000 8
b1000 @
b1000 E
b1000 C"
b111 <"
b111 @"
b110 5"
b110 9"
b101 #"
b101 %"
b101 ."
b100 !"
b100 +"
b11 x
b11 |
b10 f
b10 h
b10 q
b1 d
b1 n
b10 L
b10 K
1-
#200000
0-
b10 +
b10 1
b10 C
b10 X
b10 _
b10 l
b10 s
b10 z
b10 )"
b10 0"
b10 7"
b10 >"
b10 0
#210000
b1111111111101001 _"
b10111 d"
b10111 5
b10111 ?
b10111 D"
b10111 \"
b10 d
b10 n
b101 f
b101 h
b101 q
b10 g
b10 u
b110 x
b110 |
b1011 !"
b1011 +"
b1110 #"
b1110 %"
b1110 ."
b101 $"
b101 2"
b1100 5"
b1100 9"
b10100 <"
b10100 @"
b10111 8
b10111 @
b10111 E
b10111 C"
b11 L
b11 K
1-
#220000
0-
b11 +
b11 1
b11 C
b11 X
b11 _
b11 l
b11 s
b11 z
b11 )"
b11 0"
b11 7"
b11 >"
b11 0
#230000
b1111111111010100 _"
b101100 d"
b101100 5
b101100 ?
b101100 D"
b101100 \"
b101100 8
b101100 @
b101100 E
b101100 C"
b100001 <"
b100001 @"
b10111 5"
b10111 9"
b1110 $"
b1110 2"
b11010 #"
b11010 %"
b11010 ."
b10010 !"
b10010 +"
b1011 x
b1011 |
b101 g
b101 u
b1000 f
b1000 h
b1000 q
b11 d
b11 n
b100 L
b1 M
b0 K
1-
#240000
0-
b100 +
b100 1
b100 C
b100 X
b100 _
b100 l
b100 s
b100 z
b100 )"
b100 0"
b100 7"
b100 >"
b100 0
#250000
b1111111110111111 _"
b1000001 d"
b1000001 5
b1000001 ?
b1000001 D"
b1000001 \"
b100 d
b100 n
b1011 f
b1011 h
b1011 q
b1000 g
b1000 u
b10001 x
b10001 |
b11011 !"
b11011 +"
b100110 #"
b100110 %"
b100110 ."
b11010 $"
b11010 2"
b100110 5"
b100110 9"
b110011 <"
b110011 @"
b1000001 8
b1000001 @
b1000001 E
b1000001 C"
b101 L
b1 K
1-
#260000
0-
b101 +
b101 1
b101 C
b101 X
b101 _
b101 l
b101 s
b101 z
b101 )"
b101 0"
b101 7"
b101 >"
b101 0
#270000
b1111111110100101 _"
b1011011 d"
b1011011 5
b1011011 ?
b1011011 D"
b1011011 \"
b1011011 8
b1011011 @
b1011011 E
b1011011 C"
b1001001 <"
b1001001 @"
b111000 5"
b111000 9"
b100110 $"
b100110 2"
b110100 #"
b110100 %"
b110100 ."
b100101 !"
b100101 +"
b10111 x
b10111 |
b1011 g
b1011 u
b1110 f
b1110 h
b1110 q
b101 d
b101 n
b110 L
b10 K
1-
#280000
0-
b110 +
b110 1
b110 C
b110 X
b110 _
b110 l
b110 s
b110 z
b110 )"
b110 0"
b110 7"
b110 >"
b110 0
#290000
b1111111110000111 _"
b1111001 d"
b1111001 5
b1111001 ?
b1111001 D"
b1111001 \"
b110 d
b110 n
b10001 f
b10001 h
b10001 q
b1110 g
b1110 u
b11101 x
b11101 |
b101111 !"
b101111 +"
b1000011 #"
b1000011 %"
b1000011 ."
b110100 $"
b110100 2"
b1001010 5"
b1001010 9"
b1100010 <"
b1100010 @"
b1111001 8
b1111001 @
b1111001 E
b1111001 C"
b111 L
b11 K
1-
#300000
0-
b111 +
b111 1
b111 C
b111 X
b111 _
b111 l
b111 s
b111 z
b111 )"
b111 0"
b111 7"
b111 >"
b111 0
#310000
b1111111101100110 _"
b10011010 d"
b10011010 5
b10011010 ?
b10011010 D"
b10011010 \"
b10011010 8
b10011010 @
b10011010 E
b10011010 C"
b1111011 <"
b1111011 @"
b1011110 5"
b1011110 9"
b1000011 $"
b1000011 2"
b1010010 #"
b1010010 %"
b1010010 ."
b111001 !"
b111001 +"
b100011 x
b100011 |
b10001 g
b10001 u
b10100 f
b10100 h
b10100 q
b111 d
b111 n
b1000 L
b10 M
b0 K
1-
#320000
0-
b1000 +
b1000 1
b1000 C
b1000 X
b1000 _
b1000 l
b1000 s
b1000 z
b1000 )"
b1000 0"
b1000 7"
b1000 >"
b1000 0
#330000
b1111111101000101 _"
b10111011 d"
b10111011 5
b10111011 ?
b10111011 D"
b10111011 \"
b1000 d
b1000 n
b10111 f
b10111 h
b10111 q
b10100 g
b10100 u
b101001 x
b101001 |
b1000011 !"
b1000011 +"
b1100001 #"
b1100001 %"
b1100001 ."
b1010010 $"
b1010010 2"
b1110011 5"
b1110011 9"
b10010110 <"
b10010110 @"
b10111011 8
b10111011 @
b10111011 E
b10111011 C"
b1001 L
b1 K
1-
#340000
0-
b1001 +
b1001 1
b1001 C
b1001 X
b1001 _
b1001 l
b1001 s
b1001 z
b1001 )"
b1001 0"
b1001 7"
b1001 >"
b1001 0
#350000
b1111111100100010 _"
b11011110 d"
b11011110 5
b11011110 ?
b11011110 D"
b11011110 \"
b11011110 8
b11011110 @
b11011110 E
b11011110 C"
b10110010 <"
b10110010 @"
b10001000 5"
b10001000 9"
b1100001 $"
b1100001 2"
b1110000 #"
b1110000 %"
b1110000 ."
b1001101 !"
b1001101 +"
b101111 x
b101111 |
b10111 g
b10111 u
b11010 f
b11010 h
b11010 q
b1001 d
b1001 n
b1010 L
b10 K
1-
#360000
0-
b1010 +
b1010 1
b1010 C
b1010 X
b1010 _
b1010 l
b1010 s
b1010 z
b1010 )"
b1010 0"
b1010 7"
b1010 >"
b1010 0
#370000
b1111111011111110 _"
b100000010 d"
b100000010 O"
b100000010 X"
b100000010 `"
b100000010 l"
b100000010 5
b100000010 ?
b100000010 D"
b100000010 \"
12
b1010 d
b1010 n
b11101 f
b11101 h
b11101 q
b11010 g
b11010 u
b110101 x
b110101 |
b1010111 !"
b1010111 +"
b1111111 #"
b1111111 %"
b1111111 ."
b1110000 $"
b1110000 2"
b10011101 5"
b10011101 9"
b11001110 <"
b11001110 @"
b100000010 8
b100000010 @
b100000010 E
b100000010 C"
14
b1011 L
b11 K
1-
#380000
0-
b1011 +
b1011 1
b1011 C
b1011 X
b1011 _
b1011 l
b1011 s
b1011 z
b1011 )"
b1011 0"
b1011 7"
b1011 >"
b1011 0
#390000
b1000000 N"
b1000000 s"
b111111111000000 q"
b1111111011111110 ]"
b1000000 r"
b1111111011011010 _"
b100100110 O"
b100100110 X"
b100100110 `"
b100100110 l"
b1111111011111110 x"
b1000000100000000000 v"
b100000010 J"
b100000010 ^"
b100000010 ~"
b100100110 d"
b100000010 u"
b100100110 5
b100100110 ?
b100100110 D"
b100100110 \"
b100000010 #
b100000010 7
b100000010 E"
b100000010 K"
b100000010 n"
b100000010 o"
b100000010 |"
b0 i"
b0 h"
1L"
1H"
b100100110 8
b100100110 @
b100100110 E
b100100110 C"
b11101010 <"
b11101010 @"
b10110010 5"
b10110010 9"
b1111111 $"
b1111111 2"
b10001110 #"
b10001110 %"
b10001110 ."
b1100001 !"
b1100001 +"
b111011 x
b111011 |
b11101 g
b11101 u
b100000 f
b100000 h
b100000 q
b1011 d
b1011 n
b1100 L
b11 M
b0 K
1-
#400000
0-
b1100 +
b1100 1
b1100 C
b1100 X
b1100 _
b1100 l
b1100 s
b1100 z
b1100 )"
b1100 0"
b1100 7"
b1100 >"
b1100 0
#410000
b0 N"
b0 s"
b0 q"
b1111111010110110 _"
b1111111011011010 ]"
b0 r"
b101001010 d"
b1000000000000000 x"
b0 v"
b0 O"
b0 X"
b0 `"
b0 l"
b101001010 5
b101001010 ?
b101001010 D"
b101001010 \"
b100100110 J"
b100100110 ^"
b100100110 ~"
b0 u"
02
b1100 d
b1100 n
b100011 f
b100011 h
b100011 q
b100000 g
b100000 u
b1000001 x
b1000001 |
b1101011 !"
b1101011 +"
b10011101 #"
b10011101 %"
b10011101 ."
b10001110 $"
b10001110 2"
b11000111 5"
b11000111 9"
b100000110 <"
b100000110 @"
b101001010 8
b101001010 @
b101001010 E
b101001010 C"
0L"
b1 G"
b1 g"
b1 }"
0H"
b1 h"
b0 #
b0 7
b0 E"
b0 K"
b0 n"
b0 o"
b0 |"
b100100110 F"
b100100110 V"
b100100110 {"
04
b1101 L
b1 K
1-
#420000
0-
b1101 +
b1101 1
b1101 C
b1101 X
b1101 _
b1101 l
b1101 s
b1101 z
b1101 )"
b1101 0"
b1101 7"
b1101 >"
b1101 0
#430000
b1111111010010010 _"
b101101110 d"
b101101110 5
b101101110 ?
b101101110 D"
b101101110 \"
b101101110 8
b101101110 @
b101101110 E
b101101110 C"
b100100010 <"
b100100010 @"
b11011100 5"
b11011100 9"
b10011101 $"
b10011101 2"
b10101100 #"
b10101100 %"
b10101100 ."
b1110101 !"
b1110101 +"
b1000111 x
b1000111 |
b100011 g
b100011 u
b100110 f
b100110 h
b100110 q
b1101 d
b1101 n
b1110 L
b10 K
1-
#440000
0-
b1110 +
b1110 1
b1110 C
b1110 X
b1110 _
b1110 l
b1110 s
b1110 z
b1110 )"
b1110 0"
b1110 7"
b1110 >"
b1110 0
#450000
b1111111001101110 _"
b110010010 d"
b110010010 O"
b110010010 X"
b110010010 `"
b110010010 l"
b110010010 5
b110010010 ?
b110010010 D"
b110010010 \"
12
b1110 d
b1110 n
b101001 f
b101001 h
b101001 q
b100110 g
b100110 u
b1001101 x
b1001101 |
b1111111 !"
b1111111 +"
b10111011 #"
b10111011 %"
b10111011 ."
b10101100 $"
b10101100 2"
b11110001 5"
b11110001 9"
b100111110 <"
b100111110 @"
b110010010 8
b110010010 @
b110010010 E
b110010010 C"
14
b1111 L
b11 K
1-
#460000
0-
b1111 +
b1111 1
b1111 C
b1111 X
b1111 _
b1111 l
b1111 s
b1111 z
b1111 )"
b1111 0"
b1111 7"
b1111 >"
b1111 0
#470000
b1100100 N"
b1100100 s"
b111111110011100 q"
b1100100 r"
b1111111001101110 ]"
b1111111001001010 _"
b110110110 O"
b110110110 X"
b110110110 `"
b110110110 l"
b1111111001101110 x"
b1100100100000000000 v"
b110110110 d"
b110010010 u"
b110010010 J"
b110010010 ^"
b110010010 ~"
b110110110 5
b110110110 ?
b110110110 D"
b110110110 \"
b110010010 #
b110010010 7
b110010010 E"
b110010010 K"
b110010010 n"
b110010010 o"
b110010010 |"
b1 k"
b0 h"
1L"
b0 G"
b0 g"
b0 }"
b110110110 8
b110110110 @
b110110110 E
b110110110 C"
b101011010 <"
b101011010 @"
b100000110 5"
b100000110 9"
b10111011 $"
b10111011 2"
b11001010 #"
b11001010 %"
b11001010 ."
b10001001 !"
b10001001 +"
b1010011 x
b1010011 |
b101001 g
b101001 u
b101100 f
b101100 h
b101100 q
b1111 d
b1111 n
b10000 L
b0 M
b0 K
1-
#480000
0-
b10000 +
b10000 1
b10000 C
b10000 X
b10000 _
b10000 l
b10000 s
b10000 z
b10000 )"
b10000 0"
b10000 7"
b10000 >"
b10000 0
#490000
b1101101 N"
b1101101 s"
b111111110010011 q"
b1000000000000000 ]"
b1111111000100110 _"
b1101101 r"
b111011010 d"
b1111111001001010 x"
b1101101100000000000 v"
b0 J"
b0 ^"
b0 ~"
b0 O"
b0 X"
b0 `"
b0 l"
b111011010 5
b111011010 ?
b111011010 D"
b111011010 \"
b110110110 u"
02
b10000 d
b10000 n
b101111 f
b101111 h
b101111 q
b101100 g
b101100 u
b1011001 x
b1011001 |
b10010011 !"
b10010011 +"
b11011001 #"
b11011001 %"
b11011001 ."
b11001010 $"
b11001010 2"
b100011011 5"
b100011011 9"
b101110110 <"
b101110110 @"
b111011010 8
b111011010 @
b111011010 E
b111011010 C"
0L"
b10 G"
b10 g"
b10 }"
1M"
1!
b1 h"
b110110110 #
b110110110 7
b110110110 E"
b110110110 K"
b110110110 n"
b110110110 o"
b110110110 |"
b110110110 F"
b110110110 V"
b110110110 {"
16
04
b10001 L
b1 K
1-
#500000
0-
b10001 +
b10001 1
b10001 C
b10001 X
b10001 _
b10001 l
b10001 s
b10001 z
b10001 )"
b10001 0"
b10001 7"
b10001 >"
b10001 0
#510000
b1111111000000010 _"
b111111110 d"
b111111110 5
b111111110 ?
b111111110 D"
b111111110 \"
0!
b111111110 8
b111111110 @
b111111110 E
b111111110 C"
b110010010 <"
b110010010 @"
b100110000 5"
b100110000 9"
b11011001 $"
b11011001 2"
b11101000 #"
b11101000 %"
b11101000 ."
b10011101 !"
b10011101 +"
b1011111 x
b1011111 |
b101111 g
b101111 u
b110010 f
b110010 h
b110010 q
b10001 d
b10001 n
b10010 L
b10 K
1-
#520000
0-
b10010 +
b10010 1
b10010 C
b10010 X
b10010 _
b10010 l
b10010 s
b10010 z
b10010 )"
b10010 0"
b10010 7"
b10010 >"
b10010 0
#530000
b1111110111011110 _"
b1000100010 d"
b1000100010 5
b1000100010 ?
b1000100010 D"
b1000100010 \"
b10010 d
b10010 n
b110101 f
b110101 h
b110101 q
b110010 g
b110010 u
b1100101 x
b1100101 |
b10100111 !"
b10100111 +"
b11110111 #"
b11110111 %"
b11110111 ."
b11101000 $"
b11101000 2"
b101000101 5"
b101000101 9"
b110101110 <"
b110101110 @"
b1000100010 8
b1000100010 @
b1000100010 E
b1000100010 C"
b10011 L
b11 K
1-
#540000
0-
b10011 +
b10011 1
b10011 C
b10011 X
b10011 _
b10011 l
b10011 s
b10011 z
b10011 )"
b10011 0"
b10011 7"
b10011 >"
b10011 0
#550000
b1111110110111010 _"
b1001000110 d"
b1001000110 5
b1001000110 ?
b1001000110 D"
b1001000110 \"
b1001000110 8
b1001000110 @
b1001000110 E
b1001000110 C"
b111001010 <"
b111001010 @"
b101011010 5"
b101011010 9"
b11110111 $"
b11110111 2"
b100000110 #"
b100000110 %"
b100000110 ."
b10110001 !"
b10110001 +"
b1101011 x
b1101011 |
b110101 g
b110101 u
b111000 f
b111000 h
b111000 q
b10011 d
b10011 n
b10100 L
b1 M
b0 K
1-
#560000
0-
b10100 +
b10100 1
b10100 C
b10100 X
b10100 _
b10100 l
b10100 s
b10100 z
b10100 )"
b10100 0"
b10100 7"
b10100 >"
b10100 0
#570000
b1111110110010110 _"
b1001101010 d"
b1001101010 5
b1001101010 ?
b1001101010 D"
b1001101010 \"
b10100 d
b10100 n
b111011 f
b111011 h
b111011 q
b111000 g
b111000 u
b1110001 x
b1110001 |
b10111011 !"
b10111011 +"
b100010101 #"
b100010101 %"
b100010101 ."
b100000110 $"
b100000110 2"
b101101111 5"
b101101111 9"
b111100110 <"
b111100110 @"
b1001101010 8
b1001101010 @
b1001101010 E
b1001101010 C"
b10101 L
b1 K
1-
#580000
0-
b10101 +
b10101 1
b10101 C
b10101 X
b10101 _
b10101 l
b10101 s
b10101 z
b10101 )"
b10101 0"
b10101 7"
b10101 >"
b10101 0
#590000
b1111110101110010 _"
b1010001110 d"
b1010001110 5
b1010001110 ?
b1010001110 D"
b1010001110 \"
b1010001110 8
b1010001110 @
b1010001110 E
b1010001110 C"
b1000000010 <"
b1000000010 @"
b110000100 5"
b110000100 9"
b100010101 $"
b100010101 2"
b100100100 #"
b100100100 %"
b100100100 ."
b11000101 !"
b11000101 +"
b1110111 x
b1110111 |
b111011 g
b111011 u
b111110 f
b111110 h
b111110 q
b10101 d
b10101 n
b10110 L
b10 K
1-
#600000
0-
b10110 +
b10110 1
b10110 C
b10110 X
b10110 _
b10110 l
b10110 s
b10110 z
b10110 )"
b10110 0"
b10110 7"
b10110 >"
b10110 0
