verification/layer/wave.vcd
$date
	Tue Dec  3 23:27:21 2024
$end
$version
	Icarus Verilog
$end
$timescale
	1ps
$end
$scope module layer_tb $end
$var wire 1 ! valid_op $end
$var wire 1 " end_op $end
$var wire 16 # data_out [15:0] $end
$var parameter 9 $ K $end
$var parameter 9 % P $end
$var parameter 9 & W $end
$var parameter 1 ' actype $end
$var parameter 32 ( clkp $end
$var parameter 32 ) dataWidth $end
$var parameter 32 * s $end
$var reg 16 + bias [15:0] $end
$var reg 1 , ce $end
$var reg 1 - clk $end
$var reg 1 . global_rst $end
$var reg 16 / myInput [15:0] $end
$var reg 144 0 weight [143:0] $end
$var integer 32 1 i [31:0] $end
$scope module uut $end
$var wire 16 2 bias [15:0] $end
$var wire 1 , ce $end
$var wire 1 - clk $end
$var wire 1 . global_rst $end
$var wire 16 3 myInput [15:0] $end
$var wire 1 4 valid_pooling $end
$var wire 144 5 weight [143:0] $end
$var wire 1 ! valid_op $end
$var wire 1 6 valid_conv $end
$var wire 1 " end_op $end
$var wire 1 7 end_conv $end
$var wire 16 8 data_out [15:0] $end
$var wire 16 9 conv_op [15:0] $end
$var wire 16 : act_op [15:0] $end
$var parameter 9 ; K $end
$var parameter 9 < P $end
$var parameter 9 = W $end
$var parameter 1 > actype $end
$var parameter 32 ? dataWidth $end
$var parameter 1 @ ptype $end
$var parameter 32 A s $end
$scope begin genblk1 $end
$scope module relu_act $end
$var wire 16 B data_in [15:0] $end
$var wire 16 C data_out [15:0] $end
$var parameter 32 D dataWidth $end
$upscope $end
$upscope $end
$scope module conv $end
$var wire 16 E bias [15:0] $end
$var wire 1 , ce $end
$var wire 1 - clk $end
$var wire 1 . global_rst $end
$var wire 16 F myInput [15:0] $end
$var wire 144 G weight [143:0] $end
$var wire 16 H conv_op [15:0] $end
$var parameter 9 I K $end
$var parameter 9 J W $end
$var parameter 32 K dataWidth $end
$var parameter 32 L s $end
$var reg 6 M col_counter [5:0] $end
$var reg 10 N cycle_counter [9:0] $end
$var reg 1 7 end_conv $end
$var reg 6 O row_counter [5:0] $end
$var reg 1 6 valid_conv $end
$scope begin MAC[0] $end
$var parameter 2 P i $end
$scope begin genblk1 $end
$scope module mac $end
$var wire 16 Q a [15:0] $end
$var wire 16 R b [15:0] $end
$var wire 1 , ce $end
$var wire 1 - clk $end
$var wire 1 . rst $end
$var wire 16 S tmp [15:0] $end
$var parameter 32 T dataWidth $end
$var parameter 72 U macType $end
$var reg 16 V data_out [15:0] $end
$upscope $end
$upscope $end
$upscope $end
$scope begin MAC[1] $end
$var parameter 2 W i $end
$scope begin genblk1 $end
$scope module mac $end
$var wire 16 X a [15:0] $end
$var wire 16 Y b [15:0] $end
$var wire 1 , ce $end
$var wire 1 - clk $end
$var wire 1 . rst $end
$var wire 16 Z tmp [15:0] $end
$var parameter 32 [ dataWidth $end
$var parameter 72 \ macType $end
$var reg 16 ] data_out [15:0] $end
$upscope $end
$upscope $end
$upscope $end
$scope begin MAC[2] $end
$var parameter 3 ^ i $end
$scope begin genblk1 $end
$scope begin genblk1 $end
$var wire 16 _ tmp2 [15:0] $end
$scope module mac $end
$var wire 16 ` a [15:0] $end
$var wire 16 a b [15:0] $end
$var wire 1 , ce $end
$var wire 1 - clk $end
$var wire 1 . rst $end
$var wire 16 b tmp [15:0] $end
$var parameter 32 c dataWidth $end
$var parameter 72 d macType $end
$var reg 16 e data_out [15:0] $end
$upscope $end
$scope module sr $end
$var wire 1 , ce $end
$var wire 1 - clk $end
$var wire 16 f data_in [15:0] $end
$var wire 16 g data_out [15:0] $end
$var wire 1 . rst $end
$var parameter 32 h dataWidth $end
$var parameter 10 i size $end
$scope begin genblk1[0] $end
$var parameter 2 j l $end
$upscope $end
$scope begin genblk1[1] $end
$var parameter 2 k l $end
$upscope $end
$scope begin genblk1[2] $end
$var parameter 3 l l $end
$upscope $end
$scope begin genblk1[3] $end
$var parameter 3 m l $end
$upscope $end
$scope begin genblk1[4] $end
$var parameter 4 n l $end
$upscope $end
$scope begin genblk1[5] $end
$var parameter 4 o l $end
$upscope $end
$scope begin genblk1[6] $end
$var parameter 4 p l $end
$upscope $end
$scope begin genblk1[7] $end
$var parameter 4 q l $end
$upscope $end
$scope begin genblk1[8] $end
$var parameter 5 r l $end
$upscope $end
$scope begin genblk1[9] $end
$var parameter 5 s l $end
$upscope $end
$scope begin genblk1[10] $end
$var parameter 5 t l $end
$upscope $end
$scope begin genblk1[11] $end
$var parameter 5 u l $end
$upscope $end
$scope begin genblk1[12] $end
$var parameter 5 v l $end
$upscope $end
$scope begin genblk1[13] $end
$var parameter 5 w l $end
$upscope $end
$scope begin genblk1[14] $end
$var parameter 5 x l $end
$upscope $end
$scope begin genblk1[15] $end
$var parameter 5 y l $end
$upscope $end
$scope begin genblk1[16] $end
$var parameter 6 z l $end
$upscope $end
$scope begin genblk1[17] $end
$var parameter 6 { l $end
$upscope $end
$scope begin genblk1[18] $end
$var parameter 6 | l $end
$upscope $end
$scope begin genblk1[19] $end
$var parameter 6 } l $end
$upscope $end
$scope begin genblk1[20] $end
$var parameter 6 ~ l $end
$upscope $end
$scope begin genblk1[21] $end
$var parameter 6 !" l $end
$upscope $end
$scope begin genblk1[22] $end
$var parameter 6 "" l $end
$upscope $end
$scope begin genblk1[23] $end
$var parameter 6 #" l $end
$upscope $end
$scope begin genblk1[24] $end
$var parameter 6 $" l $end
$upscope $end
$upscope $end
$upscope $end
$upscope $end
$upscope $end
$scope begin MAC[3] $end
$var parameter 3 %" i $end
$scope begin genblk1 $end
$scope module mac $end
$var wire 16 &" a [15:0] $end
$var wire 16 '" b [15:0] $end
$var wire 1 , ce $end
$var wire 1 - clk $end
$var wire 1 . rst $end
$var wire 16 (" tmp [15:0] $end
$var parameter 32 )" dataWidth $end
$var parameter 72 *" macType $end
$var reg 16 +" data_out [15:0] $end
$upscope $end
$upscope $end
$upscope $end
$scope begin MAC[4] $end
$var parameter 4 ," i $end
$scope begin genblk1 $end
$scope module mac $end
$var wire 16 -" a [15:0] $end
$var wire 16 ." b [15:0] $end
$var wire 1 , ce $end
$var wire 1 - clk $end
$var wire 1 . rst $end
$var wire 16 /" tmp [15:0] $end
$var parameter 32 0" dataWidth $end
$var parameter 72 1" macType $end
$var reg 16 2" data_out [15:0] $end
$upscope $end
$upscope $end
$upscope $end
$scope begin MAC[5] $end
$var parameter 4 3" i $end
$scope begin genblk1 $end
$scope begin genblk1 $end
$var wire 16 4" tmp2 [15:0] $end
$scope module mac $end
$var wire 16 5" a [15:0] $end
$var wire 16 6" b [15:0] $end
$var wire 1 , ce $end
$var wire 1 - clk $end
$var wire 1 . rst $end
$var wire 16 7" tmp [15:0] $end
$var parameter 32 8" dataWidth $end
$var parameter 72 9" macType $end
$var reg 16 :" data_out [15:0] $end
$upscope $end
$scope module sr $end
$var wire 1 , ce $end
$var wire 1 - clk $end
$var wire 16 ;" data_in [15:0] $end
$var wire 16 <" data_out [15:0] $end
$var wire 1 . rst $end
$var parameter 32 =" dataWidth $end
$var parameter 10 >" size $end
$scope begin genblk1[0] $end
$var parameter 2 ?" l $end
$upscope $end
$scope begin genblk1[1] $end
$var parameter 2 @" l $end
$upscope $end
$scope begin genblk1[2] $end
$var parameter 3 A" l $end
$upscope $end
$scope begin genblk1[3] $end
$var parameter 3 B" l $end
$upscope $end
$scope begin genblk1[4] $end
$var parameter 4 C" l $end
$upscope $end
$scope begin genblk1[5] $end
$var parameter 4 D" l $end
$upscope $end
$scope begin genblk1[6] $end
$var parameter 4 E" l $end
$upscope $end
$scope begin genblk1[7] $end
$var parameter 4 F" l $end
$upscope $end
$scope begin genblk1[8] $end
$var parameter 5 G" l $end
$upscope $end
$scope begin genblk1[9] $end
$var parameter 5 H" l $end
$upscope $end
$scope begin genblk1[10] $end
$var parameter 5 I" l $end
$upscope $end
$scope begin genblk1[11] $end
$var parameter 5 J" l $end
$upscope $end
$scope begin genblk1[12] $end
$var parameter 5 K" l $end
$upscope $end
$scope begin genblk1[13] $end
$var parameter 5 L" l $end
$upscope $end
$scope begin genblk1[14] $end
$var parameter 5 M" l $end
$upscope $end
$scope begin genblk1[15] $end
$var parameter 5 N" l $end
$upscope $end
$scope begin genblk1[16] $end
$var parameter 6 O" l $end
$upscope $end
$scope begin genblk1[17] $end
$var parameter 6 P" l $end
$upscope $end
$scope begin genblk1[18] $end
$var parameter 6 Q" l $end
$upscope $end
$scope begin genblk1[19] $end
$var parameter 6 R" l $end
$upscope $end
$scope begin genblk1[20] $end
$var parameter 6 S" l $end
$upscope $end
$scope begin genblk1[21] $end
$var parameter 6 T" l $end
$upscope $end
$scope begin genblk1[22] $end
$var parameter 6 U" l $end
$upscope $end
$scope begin genblk1[23] $end
$var parameter 6 V" l $end
$upscope $end
$scope begin genblk1[24] $end
$var parameter 6 W" l $end
$upscope $end
$upscope $end
$upscope $end
$upscope $end
$upscope $end
$scope begin MAC[6] $end
$var parameter 4 X" i $end
$scope begin genblk1 $end
$scope module mac $end
$var wire 16 Y" a [15:0] $end
$var wire 16 Z" b [15:0] $end
$var wire 1 , ce $end
$var wire 1 - clk $end
$var wire 1 . rst $end
$var wire 16 [" tmp [15:0] $end
$var parameter 32 \" dataWidth $end
$var parameter 72 ]" macType $end
$var reg 16 ^" data_out [15:0] $end
$upscope $end
$upscope $end
$upscope $end
$scope begin MAC[7] $end
$var parameter 4 _" i $end
$scope begin genblk1 $end
$scope module mac $end
$var wire 16 `" a [15:0] $end
$var wire 16 a" b [15:0] $end
$var wire 1 , ce $end
$var wire 1 - clk $end
$var wire 1 . rst $end
$var wire 16 b" tmp [15:0] $end
$var parameter 32 c" dataWidth $end
$var parameter 72 d" macType $end
$var reg 16 e" data_out [15:0] $end
$upscope $end
$upscope $end
$upscope $end
$scope begin MAC[8] $end
$var parameter 5 f" i $end
$scope begin genblk1 $end
$scope begin genblk1 $end
$scope module mac $end
$var wire 16 g" a [15:0] $end
$var wire 16 h" b [15:0] $end
$var wire 1 , ce $end
$var wire 1 - clk $end
$var wire 1 . rst $end
$var wire 16 i" tmp [15:0] $end
$var parameter 32 j" dataWidth $end
$var parameter 72 k" macType $end
$var reg 16 l" data_out [15:0] $end
$upscope $end
$upscope $end
$upscope $end
$upscope $end
$scope begin genblk1[0] $end
$var parameter 2 m" j $end
$upscope $end
$scope begin genblk1[1] $end
$var parameter 2 n" j $end
$upscope $end
$scope begin genblk1[2] $end
$var parameter 3 o" j $end
$upscope $end
$scope begin genblk1[3] $end
$var parameter 3 p" j $end
$upscope $end
$scope begin genblk1[4] $end
$var parameter 4 q" j $end
$upscope $end
$scope begin genblk1[5] $end
$var parameter 4 r" j $end
$upscope $end
$scope begin genblk1[6] $end
$var parameter 4 s" j $end
$upscope $end
$scope begin genblk1[7] $end
$var parameter 4 t" j $end
$upscope $end
$scope begin genblk1[8] $end
$var parameter 5 u" j $end
$upscope $end
$upscope $end
$scope module max_pooling $end
$var wire 1 4 ce $end
$var wire 1 - clk $end
$var wire 16 v" data_in [15:0] $end
$var wire 16 w" data_out [15:0] $end
$var wire 1 . master_rst $end
$var wire 16 x" sr_op [15:0] $end
$var wire 1 ! valid_op $end
$var wire 2 y" sel [1:0] $end
$var wire 1 z" rst_m $end
$var wire 16 {" mux_out [15:0] $end
$var wire 16 |" max_reg_op [15:0] $end
$var wire 1 }" load_sr $end
$var wire 1 ~" global_rst $end
$var wire 1 " end_op $end
$var wire 16 !# div_op [15:0] $end
$var wire 16 "# comp_op [15:0] $end
$var parameter 33 ## M $end
$var parameter 9 $# P $end
$var parameter 32 %# dataWidth $end
$var parameter 1 &# ptype $end
$scope module comparator_inst $end
$var wire 1 4 ce $end
$var wire 16 '# in1 [15:0] $end
$var wire 16 (# in2 [15:0] $end
$var wire 16 )# comp_op [15:0] $end
$var parameter 32 *# dataWidth $end
$var parameter 1 +# ptype $end
$var reg 16 ,# temp [15:0] $end
$upscope $end
$scope module control_logic_inst $end
$var wire 1 4 ce $end
$var wire 1 - clk $end
$var wire 1 . master_rst $end
$var parameter 33 -# M $end
$var parameter 9 .# P $end
$var reg 1 " end_op $end
$var reg 1 ~" global_rst $end
$var reg 1 }" load_sr $end
$var reg 1 ! op_en $end
$var reg 1 z" rst_m $end
$var reg 2 /# sel [1:0] $end
$var integer 32 0# col_count [31:0] $end
$var integer 32 1# count [31:0] $end
$var integer 32 2# nbgh_row_count [31:0] $end
$var integer 32 3# row_count [31:0] $end
$upscope $end
$scope module max_reg_inst $end
$var wire 1 4 ce $end
$var wire 1 - clk $end
$var wire 16 4# data_in [15:0] $end
$var wire 1 . master_rst $end
$var wire 1 z" rst_m $end
$var parameter 32 5# N $end
$var reg 16 6# reg_op [15:0] $end
$upscope $end
$scope module mux_inst $end
$var wire 16 7# in1 [15:0] $end
$var wire 16 8# in2 [15:0] $end
$var wire 2 9# sel [1:0] $end
$var wire 16 :# op [15:0] $end
$var parameter 32 ;# dataWidth $end
$upscope $end
$scope module shift_register_inst $end
$var wire 1 }" ce $end
$var wire 1 - clk $end
$var wire 16 <# data_in [15:0] $end
$var wire 16 =# data_out [15:0] $end
$var wire 1 ># rst $end
$var parameter 32 ?# dataWidth $end
$var parameter 33 @# size $end
$scope begin genblk1[0] $end
$var parameter 2 A# l $end
$upscope $end
$scope begin genblk1[1] $end
$var parameter 2 B# l $end
$upscope $end
$scope begin genblk1[2] $end
$var parameter 3 C# l $end
$upscope $end
$scope begin genblk1[3] $end
$var parameter 3 D# l $end
$upscope $end
$scope begin genblk1[4] $end
$var parameter 4 E# l $end
$upscope $end
$scope begin genblk1[5] $end
$var parameter 4 F# l $end
$upscope $end
$scope begin genblk1[6] $end
$var parameter 4 G# l $end
$upscope $end
$scope begin genblk1[7] $end
$var parameter 4 H# l $end
$upscope $end
$scope begin genblk1[8] $end
$var parameter 5 I# l $end
$upscope $end
$scope begin genblk1[9] $end
$var parameter 5 J# l $end
$upscope $end
$scope begin genblk1[10] $end
$var parameter 5 K# l $end
$upscope $end
$scope begin genblk1[11] $end
$var parameter 5 L# l $end
$upscope $end
$scope begin genblk1[12] $end
$var parameter 5 M# l $end
$upscope $end
$upscope $end
$upscope $end
$upscope $end
$upscope $end
$enddefinitions $end
$comment Show the parameter values. $end
$dumpall
b1100 M#
b1011 L#
b1010 K#
b1001 J#
b1000 I#
b111 H#
b110 G#
b101 F#
b100 E#
b11 D#
b10 C#
b1 B#
b0 A#
b1101 @#
b10000 ?#
b10000 ;#
b10000 5#
b10 .#
b11010 -#
1+#
b10000 *#
1&#
b10000 %#
b10 $#
b11010 ##
b1000 u"
b111 t"
b110 s"
b101 r"
b100 q"
b11 p"
b10 o"
b1 n"
b0 m"
b11011100110111101110010011011010110000101101100010011010110000101100011 k"
b10000 j"
b1000 f"
b11011100110111101110010011011010110000101101100010011010110000101100011 d"
b10000 c"
b111 _"
b11011100110111101110010011011010110000101101100010011010110000101100011 ]"
b10000 \"
b110 X"
b11000 W"
b10111 V"
b10110 U"
b10101 T"
b10100 S"
b10011 R"
b10010 Q"
b10001 P"
b10000 O"
b1111 N"
b1110 M"
b1101 L"
b1100 K"
b1011 J"
b1010 I"
b1001 H"
b1000 G"
b111 F"
b110 E"
b101 D"
b100 C"
b11 B"
b10 A"
b1 @"
b0 ?"
b11001 >"
b10000 ="
b11011100110111101110010011011010110000101101100010011010110000101100011 9"
b10000 8"
b101 3"
b11011100110111101110010011011010110000101101100010011010110000101100011 1"
b10000 0"
b100 ,"
b11011100110111101110010011011010110000101101100010011010110000101100011 *"
b10000 )"
b11 %"
b11000 $"
b10111 #"
b10110 ""
b10101 !"
b10100 ~
b10011 }
b10010 |
b10001 {
b10000 z
b1111 y
b1110 x
b1101 w
b1100 v
b1011 u
b1010 t
b1001 s
b1000 r
b111 q
b110 p
b101 o
b100 n
b11 m
b10 l
b1 k
b0 j
b11001 i
b10000 h
b11011100110111101110010011011010110000101101100010011010110000101100011 d
b10000 c
b10 ^
b11011100110111101110010011011010110000101101100010011010110000101100011 \
b10000 [
b1 W
b11011100110111101110010011011010110000101101100010011010110000101100011 U
b10000 T
b0 P
b1 L
b10000 K
b11100 J
b11 I
b10000 D
b1 A
1@
b10000 ?
1>
b11100 =
b10 <
b11 ;
b1 *
b10000 )
b10100 (
1'
b11100 &
b10 %
b11 $
$end
#0
$dumpvars
0>#
b0 =#
b0 <#
b0 :#
b0 9#
b0 8#
b0 7#
b0 6#
b0 4#
b0 3#
b0 2#
b11111111111111111111111111111111 1#
b11111111111111111111111111111111 0#
b0 /#
b0 ,#
b0 )#
b0 (#
b0 '#
b0 "#
b0 !#
1~"
0}"
b0 |"
b0 {"
0z"
b0 y"
b0 x"
b0 w"
b0 v"
b0 l"
b0 i"
b11110010 h"
b0 g"
b0 e"
b0 b"
b11011011 a"
b0 `"
b0 ^"
b0 ["
b11011110 Z"
b0 Y"
b0 <"
b0 ;"
b0 :"
b0 7"
b101 6"
b0 5"
b0 4"
b0 2"
b0 /"
b1100 ."
b0 -"
b0 +"
b0 ("
b110000 '"
b0 &"
b0 g
b0 f
b0 e
b0 b
b111000 a
b0 `
b0 _
b0 ]
b0 Z
b11011 Y
b0 X
b0 V
b0 S
b111011 R
b0 Q
b0 O
b0 N
b0 M
b0 H
b1111001000000000110110110000000011011110000000000000010100000000000011000000000000110000000000000011100000000000000110110000000000111011 G
b0 F
b0 E
b0 C
b0 B
b0 :
b0 9
b0 8
07
06
b1111001000000000110110110000000011011110000000000000010100000000000011000000000000110000000000000011100000000000000110110000000000111011 5
04
b0 3
b0 2
b1001 1
b1111001000000000110110110000000011011110000000000000010100000000000011000000000000110000000000000011100000000000000110110000000000111011 0
b0 /
0.
0-
0,
b0 +
b0 #
0"
0!
$end
#10000
1-
#20000
0-
#30000
1-
#40000
0-
#50000
1-
#60000
0-
#70000
1-
#80000
0-
#90000
1-
#100000
1>#
0-
b100110 /
b100110 3
b100110 F
b100110 Q
b100110 X
b100110 `
b100110 &"
b100110 -"
b100110 5"
b100110 Y"
b100110 `"
b100110 g"
b0 1
1,
1.
#110000
b10001111101100 ,#
b10001111101100 :
b10001111101100 C
b10001111101100 v"
b10001111101100 '#
b100011000010 V
b100011000010 Z
b10000000010 ]
b10000000010 b
b100001010000 _
b100001010000 e
b100001010000 f
b11100100000 +"
b11100100000 /"
b111001000 2"
b111001000 7"
b10111110 4"
b10111110 :"
b10111110 ;"
b10000011110100 ^"
b10000011110100 b"
b10000010000010 e"
b10000010000010 i"
b10001111101100 9
b10001111101100 B
b10001111101100 H
b10001111101100 l"
b1 N
b1 M
1-
#120000
0-
b11100 /
b11100 3
b11100 F
b11100 Q
b11100 X
b11100 `
b11100 &"
b11100 -"
b11100 5"
b11100 Y"
b11100 `"
b11100 g"
b1 1
#130000
b11101011111010 ,#
b11101011111010 :
b11101011111010 C
b11101011111010 v"
b11101011111010 '#
b10 N
b10 M
b11101011111010 9
b11101011111010 B
b11101011111010 H
b11101011111010 l"
b11100011101000 e"
b11100011101000 i"
b1100001001000 ^"
b1100001001000 b"
b1001010100 4"
b1001010100 :"
b1001010100 ;"
b100001110000 2"
b100001110000 7"
b10101000000 +"
b10101000000 /"
b101000100010 _
b101000100010 e
b101000100010 f
b101110110110 ]
b101110110110 b
b11001110100 V
b11001110100 Z
1-
#140000
0-
b100001 /
b100001 3
b100001 F
b100001 Q
b100001 X
b100001 `
b100001 &"
b100001 -"
b100001 5"
b100001 Y"
b100001 `"
b100001 g"
b10 1
#150000
b101100000011010 ,#
b101100000011010 :
b101100000011010 C
b101100000011010 v"
b101100000011010 '#
b11110011011 V
b11110011011 Z
b100111101111 ]
b100111101111 b
b1001011101110 _
b1001011101110 e
b1001011101110 f
b11000110000 +"
b11000110000 /"
b11011001100 2"
b11011001100 7"
b100100010101 4"
b100100010101 :"
b100100010101 ;"
b1110010011110 ^"
b1110010011110 b"
b11010010000011 e"
b11010010000011 i"
b101100000011010 9
b101100000011010 B
b101100000011010 H
b101100000011010 l"
b11 N
b11 M
1-
#160000
0-
b11111 /
b11111 3
b11111 F
b11111 Q
b11111 X
b11111 `
b11111 &"
b11111 -"
b11111 5"
b11111 Y"
b11111 `"
b11111 g"
b11 1
#170000
b101000111010001 ,#
b101000111010001 :
b101000111010001 C
b101000111010001 v"
b101000111010001 '#
b100 N
b100 M
b101000111010001 9
b101000111010001 B
b101000111010001 H
b101000111010001 l"
b11011100100011 e"
b11011100100011 i"
b1101011100010 ^"
b1101011100010 b"
b11101100111 4"
b11101100111 :"
b11101100111 ;"
b11110100100 2"
b11110100100 7"
b10111010000 +"
b10111010000 /"
b1000010110111 _
b1000010110111 e
b1000010110111 f
b101011100000 ]
b101011100000 b
b11100100101 V
b11100100101 Z
1-
#180000
0-
b11110011 /
b11110011 3
b11110011 F
b11110011 Q
b11110011 X
b11110011 `
b11110011 &"
b11110011 -"
b11110011 5"
b11110011 Y"
b11110011 `"
b11110011 g"
b100 1
#190000
b1110011011001 ,#
b1110011011001 :
b1110011011001 C
b1110011011001 v"
b1110011011001 '#
b11100000000001 V
b11100000000001 Z
b10000011000110 ]
b10000011000110 b
b100000000001000 _
b100000000001000 e
b100000000001000 f
b10110110010000 +"
b10110110010000 /"
b1000100110100 2"
b1000100110100 7"
b110001100011 4"
b110001100011 :"
b110001100011 ;"
b1101001010111010 ^"
b1101001010111010 b"
b1110101011000011 e"
b1110101011000011 i"
b1110011011001 9
b1110011011001 B
b1110011011001 H
b1110011011001 l"
b101 N
b101 M
1-
#200000
0-
b11111101 /
b11111101 3
b11111101 F
b11111101 Q
b11111101 X
b11111101 `
b11111101 &"
b11111101 -"
b11111101 5"
b11111101 Y"
b11111101 `"
b11111101 g"
b101 1
#210000
b0 ,#
b0 :
b0 C
b0 v"
b0 '#
b110 N
b110 M
b1101100111101101 9
b1101100111101101 B
b1101100111101101 H
b1101100111101101 l"
b1010101100101001 e"
b1010101100101001 i"
b1101101101100110 ^"
b1101101101100110 b"
b1011000100101 4"
b1011000100101 :"
b1011000100101 ;"
b11100101101100 2"
b11100101101100 7"
b10111101110000 +"
b10111101110000 /"
b101100000011110 _
b101100000011110 e
b101100000011110 f
b101001010110000 ]
b101001010110000 b
b11101001001111 V
b11101001001111 Z
1-
#220000
0-
b101010 /
b101010 3
b101010 F
b101010 Q
b101010 X
b101010 `
b101010 &"
b101010 -"
b101010 5"
b101010 Y"
b101010 `"
b101010 g"
b110 1
#230000
b100110101110 V
b100110101110 Z
b11111010111101 ]
b11111010111101 b
b101101111100000 _
b101101111100000 e
b101101111100000 f
b11111100000 +"
b11111100000 /"
b11000101101000 2"
b11000101101000 7"
b11101000111110 4"
b11101000111110 :"
b11101000111110 ;"
b10010001101100 ^"
b10010001101100 b"
b1111111101010100 e"
b1111111101010100 i"
b1101001011011101 9
b1101001011011101 B
b1101001011011101 H
b1101001011011101 l"
b111 N
b111 M
1-
#240000
0-
b1011 /
b1011 3
b1011 F
b1011 Q
b1011 X
b1011 `
b1011 &"
b1011 -"
b1011 5"
b1011 Y"
b1011 `"
b1011 g"
b111 1
#250000
b100110111010 ,#
b100110111010 :
b100110111010 C
b100110111010 v"
b100110111010 '#
b1000 N
b1000 M
b100110111010 9
b100110111010 B
b100110111010 H
b100110111010 l"
b10110111010101 e"
b10110111010101 i"
b100110001010 ^"
b100110001010 b"
b11000110011111 4"
b11000110011111 :"
b11000110011111 ;"
b100001100100 2"
b100001100100 7"
b1000010000 +"
b1000010000 /"
b100000100100101 _
b100000100100101 e
b100000100100101 f
b101011010111 ]
b101011010111 b
b1010001001 V
b1010001001 Z
1-
#260000
0-
b11100 /
b11100 3
b11100 F
b11100 Q
b11100 X
b11100 `
b11100 &"
b11100 -"
b11100 5"
b11100 Y"
b11100 `"
b11100 g"
b1000 1
#270000
b100100001001101 ,#
b100100001001101 :
b100100001001101 C
b100100001001101 v"
b100100001001101 '#
b11001110100 V
b11001110100 Z
b10101111101 ]
b10101111101 b
b1000011110111 _
b1000011110111 e
b1000011110111 f
b10101000000 +"
b10101000000 /"
b1101100000 2"
b1101100000 7"
b100011110000 4"
b100011110000 :"
b100011110000 ;"
b1100001001000 ^"
b1100001001000 b"
b10000101111110 e"
b10000101111110 i"
b100100001001101 9
b100100001001101 B
b100100001001101 H
b100100001001101 l"
b1001 N
b1001 M
1-
#280000
0-
b11000011 /
b11000011 3
b11000011 F
b11000011 Q
b11000011 X
b11000011 `
b11000011 &"
b11000011 -"
b11000011 5"
b11000011 Y"
b11000011 `"
b11000011 g"
b1001 1
#290000
b0 ,#
b0 :
b0 C
b0 v"
b0 '#
b1010 N
b1010 M
b1101100111010100 9
b1101100111010100 B
b1101100111010100 H
b1101100111010100 l"
b1011111100011001 e"
b1011111100011001 i"
b1010100100011010 ^"
b1010100100011010 b"
b11100101111 4"
b11100101111 :"
b11100101111 ;"
b111001100100 2"
b111001100100 7"
b10010010010000 +"
b10010010010000 /"
b11000000100101 _
b11000000100101 e
b11000000100101 f
b1101100000101 ]
b1101100000101 b
b10110011110001 V
b10110011110001 Z
1-
#300000
0-
b100010 /
b100010 3
b100010 F
b100010 Q
b100010 X
b100010 `
b100010 &"
b100010 -"
b100010 5"
b100010 Y"
b100010 `"
b100010 g"
b1010 1
#310000
b11111010110 V
b11111010110 Z
b11000010000111 ]
b11000010000111 b
b10001001110101 _
b10001001110101 e
b10001001110101 f
b11001100000 +"
b11001100000 /"
b10011000101000 2"
b10011000101000 7"
b111100001110 4"
b111100001110 :"
b111100001110 ;"
b1110101111100 ^"
b1110101111100 b"
b1100011000110000 e"
b1100011000110000 i"
b1101111100111101 9
b1101111100111101 B
b1101111100111101 H
b1101111100111101 l"
b1011 N
b1011 M
1-
#320000
0-
b110011 /
b110011 3
b110011 F
b110011 Q
b110011 X
b110011 `
b110011 &"
b110011 -"
b110011 5"
b110011 Y"
b110011 `"
b110011 g"
b1011 1
#330000
b1100 N
b1100 M
b1111011001100110 9
b1111011001100110 B
b1111011001100110 H
b1111011001100110 l"
b100100100011101 e"
b100100100011101 i"
b10110000111010 ^"
b10110000111010 b"
b10011100100111 4"
b10011100100111 :"
b10011100100111 ;"
b100011000100 2"
b100011000100 7"
b100110010000 +"
b100110010000 /"
b11101110101111 _
b11101110101111 e
b11101110101111 f
b110100110111 ]
b110100110111 b
b101111000001 V
b101111000001 Z
1-
#340000
0-
b11001110 /
b11001110 3
b11001110 F
b11001110 Q
b11001110 X
b11001110 `
b11001110 &"
b11001110 -"
b11001110 5"
b11001110 Y"
b11001110 `"
b11001110 g"
b1100 1
#350000
b101111011001 ,#
b101111011001 :
b101111011001 C
b101111011001 v"
b101111011001 '#
b10111101111010 V
b10111101111010 Z
b10000101111011 ]
b10000101111011 b
b11101001000111 _
b11101001000111 e
b11101001000111 f
b10011010100000 +"
b10011010100000 /"
b1001100111000 2"
b1001100111000 7"
b110011001010 4"
b110011001010 :"
b110011001010 ;"
b1011001010100100 ^"
b1011001010100100 b"
b1101110001110100 e"
b1101110001110100 i"
b101111011001 9
b101111011001 B
b101111011001 H
b101111011001 l"
b1101 N
b1101 M
1-
#360000
0-
b11010101 /
b11010101 3
b11010101 F
b11010101 Q
b11010101 X
b11010101 `
b11010101 &"
b11010101 -"
b11010101 5"
b11010101 Y"
b11010101 `"
b11010101 g"
b1101 1
#370000
b0 ,#
b0 :
b0 C
b0 v"
b0 '#
b1110 N
b1110 M
b1010010111001110 9
b1010010111001110 B
b1010010111001110 H
b1010010111001110 l"
b110100011011011 e"
b110100011011011 i"
b1011100010110110 ^"
b1011100010110110 b"
b1011101100001 4"
b1011101100001 :"
b1011101100001 ;"
b11000010011100 2"
b11000010011100 7"
b10011111110000 +"
b10011111110000 /"
b101000000010011 _
b101000000010011 e
b101000000010011 f
b100010111110001 ]
b100010111110001 b
b11000100010111 V
b11000100010111 Z
1-
#380000
0-
b110101 /
b110101 3
b110101 F
b110101 Q
b110101 X
b110101 `
b110101 &"
b110101 -"
b110101 5"
b110101 Y"
b110101 `"
b110101 g"
b1110 1
#390000
b110000110111 V
b110000110111 Z
b11011010101110 ]
b11011010101110 b
b101000110001001 _
b101000110001001 e
b101000110001001 f
b100111110000 +"
b100111110000 /"
b10101001101100 2"
b10101001101100 7"
b11000110100101 4"
b11000110100101 :"
b11000110100101 ;"
b10110111110110 ^"
b10110111110110 b"
b1110011000001101 e"
b1110011000001101 i"
b1001101011110101 9
b1001101011110101 B
b1001101011110101 H
b1001101011110101 l"
b1111 N
b1111 M
1-
#400000
0-
b11101110 /
b11101110 3
b11101110 F
b11101110 Q
b11101110 X
b11101110 `
b11101110 &"
b11101110 -"
b11101110 5"
b11101110 Y"
b11101110 `"
b11101110 g"
b1111 1
#410000
b10000 N
b10000 M
b1100011100001001 9
b1100011100001001 B
b1100011100001001 H
b1100011100001001 l"
b1111100110010000 e"
b1111100110010000 i"
b1100111001100100 ^"
b1100111001100100 b"
b10111100010010 4"
b10111100010010 :"
b10111100010010 ;"
b1010100011000 2"
b1010100011000 7"
b10110010100000 +"
b10110010100000 /"
b110101010111110 _
b110101010111110 e
b110101010111110 f
b10010101010001 ]
b10010101010001 b
b11011011011010 V
b11011011011010 Z
1-
#420000
0-
b101010 /
b101010 3
b101010 F
b101010 Q
b101010 X
b101010 `
b101010 &"
b101010 -"
b101010 5"
b101010 Y"
b101010 `"
b101010 g"
b10000 1
