verification/layer/wave.vcd
$date
	Wed Dec  4 08:58:01 2024
$end
$version
	Icarus Verilog
$end
$timescale
	1ps
$end
$scope module layer_tb $end
$var wire 1 ! valid_op $end
$var wire 1 " end_op $end
$var wire 8 # data_out [7:0] $end
$var parameter 9 $ K $end
$var parameter 9 % P $end
$var parameter 9 & W $end
$var parameter 1 ' actype $end
$var parameter 32 ( clkp $end
$var parameter 32 ) dataWidth $end
$var parameter 32 * s $end
$var reg 8 + bias [7:0] $end
$var reg 1 , ce $end
$var reg 1 - clk $end
$var reg 1 . global_rst $end
$var reg 8 / myInput [7:0] $end
$var reg 72 0 weight [71:0] $end
$var integer 32 1 i [31:0] $end
$var integer 32 2 pass_count [31:0] $end
$scope module uut $end
$var wire 8 3 bias [7:0] $end
$var wire 1 , ce $end
$var wire 1 - clk $end
$var wire 1 . global_rst $end
$var wire 8 4 myInput [7:0] $end
$var wire 1 5 valid_pooling $end
$var wire 72 6 weight [71:0] $end
$var wire 1 ! valid_op $end
$var wire 1 7 valid_conv $end
$var wire 1 " end_op $end
$var wire 1 8 end_conv $end
$var wire 8 9 data_out [7:0] $end
$var wire 8 : conv_op [7:0] $end
$var wire 8 ; act_op [7:0] $end
$var parameter 9 < K $end
$var parameter 9 = P $end
$var parameter 9 > W $end
$var parameter 1 ? actype $end
$var parameter 32 @ dataWidth $end
$var parameter 1 A ptype $end
$var parameter 32 B s $end
$scope begin genblk1 $end
$scope module relu_act $end
$var wire 8 C data_in [7:0] $end
$var wire 8 D data_out [7:0] $end
$var parameter 32 E dataWidth $end
$upscope $end
$upscope $end
$scope module conv $end
$var wire 8 F bias [7:0] $end
$var wire 1 , ce $end
$var wire 1 - clk $end
$var wire 1 . global_rst $end
$var wire 8 G myInput [7:0] $end
$var wire 72 H weight [71:0] $end
$var wire 8 I conv_op [7:0] $end
$var parameter 9 J K $end
$var parameter 9 K W $end
$var parameter 32 L dataWidth $end
$var parameter 32 M s $end
$var reg 6 N col_counter [5:0] $end
$var reg 10 O cycle_counter [9:0] $end
$var reg 1 8 end_conv $end
$var reg 6 P row_counter [5:0] $end
$var reg 1 7 valid_conv $end
$scope begin MAC[0] $end
$var parameter 2 Q i $end
$scope begin genblk1 $end
$scope module mac $end
$var wire 8 R a [7:0] $end
$var wire 8 S b [7:0] $end
$var wire 1 , ce $end
$var wire 1 - clk $end
$var wire 1 . rst $end
$var wire 8 T tmp [7:0] $end
$var parameter 32 U dataWidth $end
$var parameter 72 V macType $end
$var reg 8 W data_out [7:0] $end
$upscope $end
$upscope $end
$upscope $end
$scope begin MAC[1] $end
$var parameter 2 X i $end
$scope begin genblk1 $end
$scope module mac $end
$var wire 8 Y a [7:0] $end
$var wire 8 Z b [7:0] $end
$var wire 1 , ce $end
$var wire 1 - clk $end
$var wire 1 . rst $end
$var wire 8 [ tmp [7:0] $end
$var parameter 32 \ dataWidth $end
$var parameter 72 ] macType $end
$var reg 8 ^ data_out [7:0] $end
$upscope $end
$upscope $end
$upscope $end
$scope begin MAC[2] $end
$var parameter 3 _ i $end
$scope begin genblk1 $end
$scope begin genblk1 $end
$var wire 8 ` tmp2 [7:0] $end
$scope module mac $end
$var wire 8 a a [7:0] $end
$var wire 8 b b [7:0] $end
$var wire 1 , ce $end
$var wire 1 - clk $end
$var wire 1 . rst $end
$var wire 8 c tmp [7:0] $end
$var parameter 32 d dataWidth $end
$var parameter 72 e macType $end
$var reg 8 f data_out [7:0] $end
$upscope $end
$scope module sr $end
$var wire 1 , ce $end
$var wire 1 - clk $end
$var wire 8 g data_in [7:0] $end
$var wire 8 h data_out [7:0] $end
$var wire 1 . rst $end
$var parameter 32 i dataWidth $end
$var parameter 10 j size $end
$scope begin genblk1[0] $end
$var parameter 2 k l $end
$upscope $end
$scope begin genblk1[1] $end
$var parameter 2 l l $end
$upscope $end
$scope begin genblk1[2] $end
$var parameter 3 m l $end
$upscope $end
$scope begin genblk1[3] $end
$var parameter 3 n l $end
$upscope $end
$scope begin genblk1[4] $end
$var parameter 4 o l $end
$upscope $end
$scope begin genblk1[5] $end
$var parameter 4 p l $end
$upscope $end
$scope begin genblk1[6] $end
$var parameter 4 q l $end
$upscope $end
$scope begin genblk1[7] $end
$var parameter 4 r l $end
$upscope $end
$scope begin genblk1[8] $end
$var parameter 5 s l $end
$upscope $end
$scope begin genblk1[9] $end
$var parameter 5 t l $end
$upscope $end
$scope begin genblk1[10] $end
$var parameter 5 u l $end
$upscope $end
$scope begin genblk1[11] $end
$var parameter 5 v l $end
$upscope $end
$scope begin genblk1[12] $end
$var parameter 5 w l $end
$upscope $end
$scope begin genblk1[13] $end
$var parameter 5 x l $end
$upscope $end
$scope begin genblk1[14] $end
$var parameter 5 y l $end
$upscope $end
$scope begin genblk1[15] $end
$var parameter 5 z l $end
$upscope $end
$scope begin genblk1[16] $end
$var parameter 6 { l $end
$upscope $end
$scope begin genblk1[17] $end
$var parameter 6 | l $end
$upscope $end
$scope begin genblk1[18] $end
$var parameter 6 } l $end
$upscope $end
$scope begin genblk1[19] $end
$var parameter 6 ~ l $end
$upscope $end
$scope begin genblk1[20] $end
$var parameter 6 !" l $end
$upscope $end
$scope begin genblk1[21] $end
$var parameter 6 "" l $end
$upscope $end
$scope begin genblk1[22] $end
$var parameter 6 #" l $end
$upscope $end
$scope begin genblk1[23] $end
$var parameter 6 $" l $end
$upscope $end
$scope begin genblk1[24] $end
$var parameter 6 %" l $end
$upscope $end
$upscope $end
$upscope $end
$upscope $end
$upscope $end
$scope begin MAC[3] $end
$var parameter 3 &" i $end
$scope begin genblk1 $end
$scope module mac $end
$var wire 8 '" a [7:0] $end
$var wire 8 (" b [7:0] $end
$var wire 1 , ce $end
$var wire 1 - clk $end
$var wire 1 . rst $end
$var wire 8 )" tmp [7:0] $end
$var parameter 32 *" dataWidth $end
$var parameter 72 +" macType $end
$var reg 8 ," data_out [7:0] $end
$upscope $end
$upscope $end
$upscope $end
$scope begin MAC[4] $end
$var parameter 4 -" i $end
$scope begin genblk1 $end
$scope module mac $end
$var wire 8 ." a [7:0] $end
$var wire 8 /" b [7:0] $end
$var wire 1 , ce $end
$var wire 1 - clk $end
$var wire 1 . rst $end
$var wire 8 0" tmp [7:0] $end
$var parameter 32 1" dataWidth $end
$var parameter 72 2" macType $end
$var reg 8 3" data_out [7:0] $end
$upscope $end
$upscope $end
$upscope $end
$scope begin MAC[5] $end
$var parameter 4 4" i $end
$scope begin genblk1 $end
$scope begin genblk1 $end
$var wire 8 5" tmp2 [7:0] $end
$scope module mac $end
$var wire 8 6" a [7:0] $end
$var wire 8 7" b [7:0] $end
$var wire 1 , ce $end
$var wire 1 - clk $end
$var wire 1 . rst $end
$var wire 8 8" tmp [7:0] $end
$var parameter 32 9" dataWidth $end
$var parameter 72 :" macType $end
$var reg 8 ;" data_out [7:0] $end
$upscope $end
$scope module sr $end
$var wire 1 , ce $end
$var wire 1 - clk $end
$var wire 8 <" data_in [7:0] $end
$var wire 8 =" data_out [7:0] $end
$var wire 1 . rst $end
$var parameter 32 >" dataWidth $end
$var parameter 10 ?" size $end
$scope begin genblk1[0] $end
$var parameter 2 @" l $end
$upscope $end
$scope begin genblk1[1] $end
$var parameter 2 A" l $end
$upscope $end
$scope begin genblk1[2] $end
$var parameter 3 B" l $end
$upscope $end
$scope begin genblk1[3] $end
$var parameter 3 C" l $end
$upscope $end
$scope begin genblk1[4] $end
$var parameter 4 D" l $end
$upscope $end
$scope begin genblk1[5] $end
$var parameter 4 E" l $end
$upscope $end
$scope begin genblk1[6] $end
$var parameter 4 F" l $end
$upscope $end
$scope begin genblk1[7] $end
$var parameter 4 G" l $end
$upscope $end
$scope begin genblk1[8] $end
$var parameter 5 H" l $end
$upscope $end
$scope begin genblk1[9] $end
$var parameter 5 I" l $end
$upscope $end
$scope begin genblk1[10] $end
$var parameter 5 J" l $end
$upscope $end
$scope begin genblk1[11] $end
$var parameter 5 K" l $end
$upscope $end
$scope begin genblk1[12] $end
$var parameter 5 L" l $end
$upscope $end
$scope begin genblk1[13] $end
$var parameter 5 M" l $end
$upscope $end
$scope begin genblk1[14] $end
$var parameter 5 N" l $end
$upscope $end
$scope begin genblk1[15] $end
$var parameter 5 O" l $end
$upscope $end
$scope begin genblk1[16] $end
$var parameter 6 P" l $end
$upscope $end
$scope begin genblk1[17] $end
$var parameter 6 Q" l $end
$upscope $end
$scope begin genblk1[18] $end
$var parameter 6 R" l $end
$upscope $end
$scope begin genblk1[19] $end
$var parameter 6 S" l $end
$upscope $end
$scope begin genblk1[20] $end
$var parameter 6 T" l $end
$upscope $end
$scope begin genblk1[21] $end
$var parameter 6 U" l $end
$upscope $end
$scope begin genblk1[22] $end
$var parameter 6 V" l $end
$upscope $end
$scope begin genblk1[23] $end
$var parameter 6 W" l $end
$upscope $end
$scope begin genblk1[24] $end
$var parameter 6 X" l $end
$upscope $end
$upscope $end
$upscope $end
$upscope $end
$upscope $end
$scope begin MAC[6] $end
$var parameter 4 Y" i $end
$scope begin genblk1 $end
$scope module mac $end
$var wire 8 Z" a [7:0] $end
$var wire 8 [" b [7:0] $end
$var wire 1 , ce $end
$var wire 1 - clk $end
$var wire 1 . rst $end
$var wire 8 \" tmp [7:0] $end
$var parameter 32 ]" dataWidth $end
$var parameter 72 ^" macType $end
$var reg 8 _" data_out [7:0] $end
$upscope $end
$upscope $end
$upscope $end
$scope begin MAC[7] $end
$var parameter 4 `" i $end
$scope begin genblk1 $end
$scope module mac $end
$var wire 8 a" a [7:0] $end
$var wire 8 b" b [7:0] $end
$var wire 1 , ce $end
$var wire 1 - clk $end
$var wire 1 . rst $end
$var wire 8 c" tmp [7:0] $end
$var parameter 32 d" dataWidth $end
$var parameter 72 e" macType $end
$var reg 8 f" data_out [7:0] $end
$upscope $end
$upscope $end
$upscope $end
$scope begin MAC[8] $end
$var parameter 5 g" i $end
$scope begin genblk1 $end
$scope begin genblk1 $end
$scope module mac $end
$var wire 8 h" a [7:0] $end
$var wire 8 i" b [7:0] $end
$var wire 1 , ce $end
$var wire 1 - clk $end
$var wire 1 . rst $end
$var wire 8 j" tmp [7:0] $end
$var parameter 32 k" dataWidth $end
$var parameter 72 l" macType $end
$var reg 8 m" data_out [7:0] $end
$upscope $end
$upscope $end
$upscope $end
$upscope $end
$scope begin genblk1[0] $end
$var parameter 2 n" j $end
$upscope $end
$scope begin genblk1[1] $end
$var parameter 2 o" j $end
$upscope $end
$scope begin genblk1[2] $end
$var parameter 3 p" j $end
$upscope $end
$scope begin genblk1[3] $end
$var parameter 3 q" j $end
$upscope $end
$scope begin genblk1[4] $end
$var parameter 4 r" j $end
$upscope $end
$scope begin genblk1[5] $end
$var parameter 4 s" j $end
$upscope $end
$scope begin genblk1[6] $end
$var parameter 4 t" j $end
$upscope $end
$scope begin genblk1[7] $end
$var parameter 4 u" j $end
$upscope $end
$scope begin genblk1[8] $end
$var parameter 5 v" j $end
$upscope $end
$upscope $end
$scope module max_pooling $end
$var wire 1 5 ce $end
$var wire 1 - clk $end
$var wire 8 w" data_in [7:0] $end
$var wire 8 x" data_out [7:0] $end
$var wire 1 . master_rst $end
$var wire 8 y" sr_op [7:0] $end
$var wire 1 ! valid_op $end
$var wire 2 z" sel [1:0] $end
$var wire 1 {" rst_m $end
$var wire 8 |" mux_out [7:0] $end
$var wire 8 }" max_reg_op [7:0] $end
$var wire 1 ~" load_sr $end
$var wire 1 !# global_rst $end
$var wire 1 " end_op $end
$var wire 8 "# div_op [7:0] $end
$var wire 8 ## comp_op [7:0] $end
$var parameter 33 $# M $end
$var parameter 9 %# P $end
$var parameter 32 &# dataWidth $end
$var parameter 1 '# ptype $end
$scope module comparator_inst $end
$var wire 1 5 ce $end
$var wire 8 (# in1 [7:0] $end
$var wire 8 )# in2 [7:0] $end
$var wire 8 *# comp_op [7:0] $end
$var parameter 32 +# dataWidth $end
$var parameter 1 ,# ptype $end
$var reg 8 -# temp [7:0] $end
$upscope $end
$scope module control_logic_inst $end
$var wire 1 5 ce $end
$var wire 1 - clk $end
$var wire 1 . master_rst $end
$var parameter 33 .# M $end
$var parameter 9 /# P $end
$var reg 1 " end_op $end
$var reg 1 !# global_rst $end
$var reg 1 ~" load_sr $end
$var reg 1 ! op_en $end
$var reg 1 {" rst_m $end
$var reg 2 0# sel [1:0] $end
$var integer 32 1# col_count [31:0] $end
$var integer 32 2# count [31:0] $end
$var integer 32 3# nbgh_row_count [31:0] $end
$var integer 32 4# row_count [31:0] $end
$upscope $end
$scope module max_reg_inst $end
$var wire 1 5 ce $end
$var wire 1 - clk $end
$var wire 8 5# data_in [7:0] $end
$var wire 1 . master_rst $end
$var wire 1 {" rst_m $end
$var parameter 32 6# N $end
$var reg 8 7# reg_op [7:0] $end
$upscope $end
$scope module mux_inst $end
$var wire 8 8# in1 [7:0] $end
$var wire 8 9# in2 [7:0] $end
$var wire 2 :# sel [1:0] $end
$var wire 8 ;# op [7:0] $end
$var parameter 32 <# dataWidth $end
$upscope $end
$scope module shift_register_inst $end
$var wire 1 ~" ce $end
$var wire 1 - clk $end
$var wire 8 =# data_in [7:0] $end
$var wire 8 ># data_out [7:0] $end
$var wire 1 ?# rst $end
$var parameter 32 @# dataWidth $end
$var parameter 33 A# size $end
$scope begin genblk1[0] $end
$var parameter 2 B# l $end
$upscope $end
$scope begin genblk1[1] $end
$var parameter 2 C# l $end
$upscope $end
$scope begin genblk1[2] $end
$var parameter 3 D# l $end
$upscope $end
$scope begin genblk1[3] $end
$var parameter 3 E# l $end
$upscope $end
$scope begin genblk1[4] $end
$var parameter 4 F# l $end
$upscope $end
$scope begin genblk1[5] $end
$var parameter 4 G# l $end
$upscope $end
$scope begin genblk1[6] $end
$var parameter 4 H# l $end
$upscope $end
$scope begin genblk1[7] $end
$var parameter 4 I# l $end
$upscope $end
$scope begin genblk1[8] $end
$var parameter 5 J# l $end
$upscope $end
$scope begin genblk1[9] $end
$var parameter 5 K# l $end
$upscope $end
$scope begin genblk1[10] $end
$var parameter 5 L# l $end
$upscope $end
$scope begin genblk1[11] $end
$var parameter 5 M# l $end
$upscope $end
$scope begin genblk1[12] $end
$var parameter 5 N# l $end
$upscope $end
$upscope $end
$upscope $end
$upscope $end
$upscope $end
$enddefinitions $end
$comment Show the parameter values. $end
$dumpall
b1100 N#
b1011 M#
b1010 L#
b1001 K#
b1000 J#
b111 I#
b110 H#
b101 G#
b100 F#
b11 E#
b10 D#
b1 C#
b0 B#
b1101 A#
b1000 @#
b1000 <#
b1000 6#
b10 /#
b11010 .#
1,#
b1000 +#
1'#
b1000 &#
b10 %#
b11010 $#
b1000 v"
b111 u"
b110 t"
b101 s"
b100 r"
b11 q"
b10 p"
b1 o"
b0 n"
b11011100110111101110010011011010110000101101100010011010110000101100011 l"
b1000 k"
b1000 g"
b11011100110111101110010011011010110000101101100010011010110000101100011 e"
b1000 d"
b111 `"
b11011100110111101110010011011010110000101101100010011010110000101100011 ^"
b1000 ]"
b110 Y"
b11000 X"
b10111 W"
b10110 V"
b10101 U"
b10100 T"
b10011 S"
b10010 R"
b10001 Q"
b10000 P"
b1111 O"
b1110 N"
b1101 M"
b1100 L"
b1011 K"
b1010 J"
b1001 I"
b1000 H"
b111 G"
b110 F"
b101 E"
b100 D"
b11 C"
b10 B"
b1 A"
b0 @"
b11001 ?"
b1000 >"
b11011100110111101110010011011010110000101101100010011010110000101100011 :"
b1000 9"
b101 4"
b11011100110111101110010011011010110000101101100010011010110000101100011 2"
b1000 1"
b100 -"
b11011100110111101110010011011010110000101101100010011010110000101100011 +"
b1000 *"
b11 &"
b11000 %"
b10111 $"
b10110 #"
b10101 ""
b10100 !"
b10011 ~
b10010 }
b10001 |
b10000 {
b1111 z
b1110 y
b1101 x
b1100 w
b1011 v
b1010 u
b1001 t
b1000 s
b111 r
b110 q
b101 p
b100 o
b11 n
b10 m
b1 l
b0 k
b11001 j
b1000 i
b11011100110111101110010011011010110000101101100010011010110000101100011 e
b1000 d
b10 _
b11011100110111101110010011011010110000101101100010011010110000101100011 ]
b1000 \
b1 X
b11011100110111101110010011011010110000101101100010011010110000101100011 V
b1000 U
b0 Q
b1 M
b1000 L
b11100 K
b11 J
b1000 E
b1 B
1A
b1000 @
1?
b11100 >
b10 =
b11 <
b1 *
b1000 )
b10100 (
1'
b11100 &
b10 %
b11 $
$end
#0
$dumpvars
0?#
b0 >#
b0 =#
b0 ;#
b0 :#
b0 9#
b0 8#
b0 7#
b0 5#
b0 4#
b0 3#
b11111111111111111111111111111111 2#
b11111111111111111111111111111111 1#
b0 0#
b0 -#
b0 *#
b0 )#
b0 (#
b0 ##
b0 "#
1!#
0~"
b0 }"
b0 |"
0{"
b0 z"
b0 y"
b0 x"
b0 w"
b0 m"
b0 j"
b11111110 i"
b0 h"
b0 f"
b0 c"
b11111011 b"
b0 a"
b0 _"
b0 \"
b11 ["
b0 Z"
b0 ="
b0 <"
b0 ;"
b0 8"
b1 7"
b0 6"
b0 5"
b0 3"
b0 0"
b11111100 /"
b0 ."
b0 ,"
b0 )"
b0 ("
b0 '"
b0 h
b0 g
b0 f
b0 c
b11111110 b
b0 a
b0 `
b0 ^
b0 [
b11111110 Z
b0 Y
b0 W
b0 T
b101 S
b0 R
b0 P
b0 O
b0 N
b0 I
b111111101111101100000011000000011111110000000000111111101111111000000101 H
b0 G
b0 F
b0 D
b0 C
b0 ;
b0 :
b0 9
08
07
b111111101111101100000011000000011111110000000000111111101111111000000101 6
05
b0 4
b0 3
b0 2
b1001 1
b111111101111101100000011000000011111110000000000111111101111111000000101 0
b0 /
0.
0-
0,
b0 +
b0 #
0"
0!
$end
#10000
1-
#20000
0-
#30000
1-
#40000
0-
#50000
1-
#60000
0-
#70000
1-
#80000
0-
#90000
1-
#100000
1?#
0-
b11111110 /
b11111110 4
b11111110 G
b11111110 R
b11111110 Y
b11111110 a
b11111110 '"
b11111110 ."
b11111110 6"
b11111110 Z"
b11111110 a"
b11111110 h"
b0 1
1,
1.
#110000
b100 -#
b100 ;
b100 D
b100 w"
b100 (#
b11110110 W
b11110110 [
b100 ^
b100 c
b100 `
b100 f
b100 g
b1000 3"
b1000 8"
b11111110 5"
b11111110 ;"
b11111110 <"
b11111010 _"
b11111010 c"
b1010 f"
b1010 j"
b100 :
b100 C
b100 I
b100 m"
b1 O
b1 N
1-
#120000
0-
b100 /
b100 4
b100 G
b100 R
b100 Y
b100 a
b100 '"
b100 ."
b100 6"
b100 Z"
b100 a"
b100 h"
b1 1
#130000
b10 -#
b10 ;
b10 D
b10 w"
b10 (#
b10 O
b10 N
b10 :
b10 C
b10 I
b10 m"
b11100110 f"
b11100110 j"
b1100 _"
b1100 c"
b1100 5"
b1100 ;"
b1100 <"
b11110000 3"
b11110000 8"
b11111100 `
b11111100 f
b11111100 g
b11101110 ^
b11101110 c
b10100 W
b10100 [
1-
#140000
0-
b11111001 /
b11111001 4
b11111001 G
b11111001 R
b11111001 Y
b11111001 a
b11111001 '"
b11111001 ."
b11111001 6"
b11111001 Z"
b11111001 a"
b11111001 h"
b10 1
#150000
b0 -#
b0 ;
b0 D
b0 w"
b0 (#
b11011101 W
b11011101 [
b100010 ^
b100010 c
b11100 3"
b11100 8"
b11101001 5"
b11101001 ;"
b11101001 <"
b11101011 _"
b11101011 c"
b101111 f"
b101111 j"
b11110100 :
b11110100 C
b11110100 I
b11110100 m"
b11 O
b11 N
1-
#160000
0-
b11111011 /
b11111011 4
b11111011 G
b11111011 R
b11111011 Y
b11111011 a
b11111011 '"
b11111011 ."
b11111011 6"
b11111011 Z"
b11111011 a"
b11111011 h"
b11 1
#170000
b111001 -#
b111001 ;
b111001 D
b111001 w"
b111001 (#
b100 O
b100 N
b111001 :
b111001 C
b111001 I
b111001 m"
b100 f"
b100 j"
b11110001 _"
b11110001 c"
b10111 5"
b10111 ;"
b10111 <"
b10100 3"
b10100 8"
b101100 `
b101100 f
b101100 g
b11100111 ^
b11100111 c
b11100111 W
b11100111 [
1-
#180000
0-
b101 /
b101 4
b101 G
b101 R
b101 Y
b101 a
b101 '"
b101 ."
b101 6"
b101 Z"
b101 a"
b101 h"
b100 1
#190000
b0 -#
b0 ;
b0 D
b0 w"
b0 (#
b11001 W
b11001 [
b11011101 ^
b11011101 c
b11011101 `
b11011101 f
b11011101 g
b11101100 3"
b11101100 8"
b11001 5"
b11001 ;"
b11001 <"
b1111 _"
b1111 c"
b11011000 f"
b11011000 j"
b11111010 :
b11111010 C
b11111010 I
b11111010 m"
b101 O
b101 N
1-
#200000
0-
b10 /
b10 4
b10 G
b10 R
b10 Y
b10 a
b10 '"
b10 ."
b10 6"
b10 Z"
b10 a"
b10 h"
b101 1
#210000
b110 O
b110 N
b11010100 :
b11010100 C
b11010100 I
b11010100 m"
b101 f"
b101 j"
b110 _"
b110 c"
b11101110 5"
b11101110 ;"
b11101110 <"
b11111000 3"
b11111000 8"
b11011001 `
b11011001 f
b11011001 g
b10101 ^
b10101 c
b1010 W
b1010 [
1-
#220000
0-
b11 /
b11 4
b11 G
b11 R
b11 Y
b11 a
b11 '"
b11 ."
b11 6"
b11 Z"
b11 a"
b11 h"
b110 1
#230000
b1111 W
b1111 [
b100 ^
b100 c
b1111 `
b1111 f
b1111 g
b11110100 3"
b11110100 8"
b11111011 5"
b11111011 ;"
b11111011 <"
b1001 _"
b1001 c"
b11110111 f"
b11110111 j"
b11111111 :
b11111111 C
b11111111 I
b11111111 m"
b111 O
b111 N
1-
#240000
0-
b100 /
b100 4
b100 G
b100 R
b100 Y
b100 a
b100 '"
b100 ."
b100 6"
b100 Z"
b100 a"
b100 h"
b111 1
#250000
b1000 O
b1000 N
b11101111 :
b11101111 C
b11101111 I
b11101111 m"
b11110101 f"
b11110101 j"
b1100 _"
b1100 c"
b11111000 5"
b11111000 ;"
b11111000 <"
b11110000 3"
b11110000 8"
b11111100 `
b11111100 f
b11111100 g
b111 ^
b111 c
b10100 W
b10100 [
1-
#260000
0-
b11111011 /
b11111011 4
b11111011 G
b11111011 R
b11111011 Y
b11111011 a
b11111011 '"
b11111011 ."
b11111011 6"
b11111011 Z"
b11111011 a"
b11111011 h"
b1000 1
#270000
b11100111 W
b11100111 [
b11110 ^
b11110 c
b10001 `
b10001 f
b10001 g
b10100 3"
b10100 8"
b11101011 5"
b11101011 ;"
b11101011 <"
b11110001 _"
b11110001 c"
b100101 f"
b100101 j"
b11111111 :
b11111111 C
b11111111 I
b11111111 m"
b1001 O
b1001 N
1-
#280000
0-
b11111010 /
b11111010 4
b11111010 G
b11111010 R
b11111010 Y
b11111010 a
b11111010 '"
b11111010 ."
b11111010 6"
b11111010 Z"
b11111010 a"
b11111010 h"
b1001 1
#290000
b110001 -#
b110001 ;
b110001 D
b110001 w"
b110001 (#
b1010 O
b1010 N
b110001 :
b110001 C
b110001 I
b110001 m"
b1111 f"
b1111 j"
b11101110 _"
b11101110 c"
b1110 5"
b1110 ;"
b1110 <"
b11000 3"
b11000 8"
b101010 `
b101010 f
b101010 g
b11110011 ^
b11110011 c
b11100010 W
b11100010 [
1-
#300000
0-
b11111011 /
b11111011 4
b11111011 G
b11111011 R
b11111011 Y
b11111011 a
b11111011 '"
b11111011 ."
b11111011 6"
b11111011 Z"
b11111011 a"
b11111011 h"
b1010 1
#310000
b11001 -#
b11001 ;
b11001 D
b11001 w"
b11001 (#
b11100111 W
b11100111 [
b11101100 ^
b11101100 c
b11111101 `
b11111101 f
b11111101 g
b10100 3"
b10100 8"
b10011 5"
b10011 ;"
b10011 <"
b11110001 _"
b11110001 c"
b111 f"
b111 j"
b11001 :
b11001 C
b11001 I
b11001 m"
b1011 O
b1011 N
1-
#320000
0-
b110 /
b110 4
b110 G
b110 R
b110 Y
b110 a
b110 '"
b110 ."
b110 6"
b110 Z"
b110 a"
b110 h"
b1011 1
#330000
b0 -#
b0 ;
b0 D
b0 w"
b0 (#
b1100 O
b1100 N
b11111011 :
b11111011 C
b11111011 I
b11111011 m"
b11010011 f"
b11010011 j"
b10010 _"
b10010 c"
b11010 5"
b11010 ;"
b11010 <"
b11101000 3"
b11101000 8"
b11100000 `
b11100000 f
b11100000 g
b11011011 ^
b11011011 c
b11110 W
b11110 [
1-
#340000
0-
b11111101 /
b11111101 4
b11111101 G
b11111101 R
b11111101 Y
b11111101 a
b11111101 '"
b11111101 ."
b11111101 6"
b11111101 Z"
b11111101 a"
b11111101 h"
b1100 1
#350000
b11110001 W
b11110001 [
b100100 ^
b100100 c
b11100001 `
b11100001 f
b11100001 g
b1100 3"
b1100 8"
b11100101 5"
b11100101 ;"
b11100101 <"
b11110111 _"
b11110111 c"
b100001 f"
b100001 j"
b11011001 :
b11011001 C
b11011001 I
b11011001 m"
b1101 O
b1101 N
1-
#360000
0-
b1101 1
#370000
b100111 -#
b100111 ;
b100111 D
b100111 w"
b100111 (#
b1110 O
b1110 N
b100111 :
b100111 C
b100111 I
b100111 m"
b110 f"
b110 j"
b1001 5"
b1001 ;"
b1001 <"
b101010 `
b101010 f
b101010 g
b11110111 ^
b11110111 c
1-
#380000
0-
b110 /
b110 4
b110 G
b110 R
b110 Y
b110 a
b110 '"
b110 ."
b110 6"
b110 Z"
b110 a"
b110 h"
b1110 1
#390000
b0 -#
b0 ;
b0 D
b0 w"
b0 (#
b11110 W
b11110 [
b11100101 ^
b11100101 c
b11101011 `
b11101011 f
b11101011 g
b11101000 3"
b11101000 8"
b10010 5"
b10010 ;"
b10010 <"
b10010 _"
b10010 c"
b11011001 f"
b11011001 j"
b11111010 :
b11111010 C
b11111010 I
b11111010 m"
b1111 O
b1111 N
1-
#400000
0-
b10 /
b10 4
b10 G
b10 R
b10 Y
b10 a
b10 '"
b10 ."
b10 6"
b10 Z"
b10 a"
b10 h"
b1111 1
#410000
b10000 O
b10000 N
b11010101 :
b11010101 C
b11010101 I
b11010101 m"
b1000 f"
b1000 j"
b110 _"
b110 c"
b11101010 5"
b11101010 ;"
b11101010 <"
b11111000 3"
b11111000 8"
b11100001 `
b11100001 f
b11100001 g
b11010 ^
b11010 c
b1010 W
b1010 [
1-
#420000
0-
b11111100 /
b11111100 4
b11111100 G
b11111100 R
b11111100 Y
b11111100 a
b11111100 '"
b11111100 ."
b11111100 6"
b11111100 Z"
b11111100 a"
b11111100 h"
b10000 1
#430000
b10000 -#
b10000 ;
b10000 D
b10000 w"
b10000 (#
b11101100 W
b11101100 [
b10010 ^
b10010 c
b100010 `
b100010 f
b100010 g
b10000 3"
b10000 8"
b11110100 5"
b11110100 ;"
b11110100 <"
b11110100 _"
b11110100 c"
b11010 f"
b11010 j"
b10000 :
b10000 C
b10000 I
b10000 m"
b10001 O
b10001 N
1-
#440000
0-
b11111011 /
b11111011 4
b11111011 G
b11111011 R
b11111011 Y
b11111011 a
b11111011 '"
b11111011 ."
b11111011 6"
b11111011 Z"
b11111011 a"
b11111011 h"
b10001 1
#450000
b100100 -#
b100100 ;
b100100 D
b100100 w"
b100100 (#
b10010 O
b10010 N
b100100 :
b100100 C
b100100 I
b100100 m"
b1101 f"
b1101 j"
b11110001 _"
b11110001 c"
b1011 5"
b1011 ;"
b1011 <"
b10100 3"
b10100 8"
b11100 `
b11100 f
b11100 g
b11110110 ^
b11110110 c
b11100111 W
b11100111 [
1-
#460000
0-
b11 /
b11 4
b11 G
b11 R
b11 Y
b11 a
b11 '"
b11 ."
b11 6"
b11 Z"
b11 a"
b11 h"
b10010 1
#470000
b111 -#
b111 ;
b111 D
b111 w"
b111 (#
b1111 W
b1111 [
b11100001 ^
b11100001 c
b11110000 `
b11110000 f
b11110000 g
b11110100 3"
b11110100 8"
b10111 5"
b10111 ;"
b10111 <"
b1001 _"
b1001 c"
b11100010 f"
b11100010 j"
b111 :
b111 C
b111 I
b111 m"
b10011 O
b10011 N
1-
#480000
0-
b11111111 /
b11111111 4
b11111111 G
b11111111 R
b11111111 Y
b11111111 a
b11111111 '"
b11111111 ."
b11111111 6"
b11111111 Z"
b11111111 a"
b11111111 h"
b10011 1
#490000
b0 -#
b0 ;
b0 D
b0 w"
b0 (#
b10100 O
b10100 N
b11100100 :
b11100100 C
b11100100 I
b11100100 m"
b1110 f"
b1110 j"
b11111101 _"
b11111101 c"
b11110011 5"
b11110011 ;"
b11110011 <"
b100 3"
b100 8"
b11100011 `
b11100011 f
b11100011 g
b10001 ^
b10001 c
b11111011 W
b11111011 [
1-
#500000
0-
b11111100 /
b11111100 4
b11111100 G
b11111100 R
b11111100 Y
b11111100 a
b11111100 '"
b11111100 ."
b11111100 6"
b11111100 Z"
b11111100 a"
b11111100 h"
b10100 1
#510000
b10110 -#
b10110 ;
b10110 D
b10110 w"
b10110 (#
b11101100 W
b11101100 [
b11 ^
b11 c
b11001 `
b11001 f
b11001 g
b10000 3"
b10000 8"
b0 5"
b0 ;"
b0 <"
b11110100 _"
b11110100 c"
b10001 f"
b10001 j"
b10110 :
b10110 C
b10110 I
b10110 m"
b10101 O
b10101 N
1-
#520000
0-
b1 /
b1 4
b1 G
b1 R
b1 Y
b1 a
b1 '"
b1 ."
b1 6"
b1 Z"
b1 a"
b1 h"
b10101 1
#530000
b1111 -#
b1111 ;
b1111 D
b1111 w"
b1111 (#
b10110 O
b10110 N
b1111 :
b1111 C
b1111 I
b1111 m"
b11101111 f"
b11101111 j"
b11 _"
b11 c"
b10001 5"
b10001 ;"
b10001 <"
b11111100 3"
b11111100 8"
b1 `
b1 f
b1 g
b11101010 ^
b11101010 c
b101 W
b101 [
1-
#540000
0-
b11111111 /
b11111111 4
b11111111 G
b11111111 R
b11111111 Y
b11111111 a
b11111111 '"
b11111111 ."
b11111111 6"
b11111111 Z"
b11111111 a"
b11111111 h"
b10110 1
